{"type":"FeatureCollection", "features": [
{"type":"Feature","geometry":{"type":"MultiPolygon","coordinates":[[[[-60.802774,-4.174242],[-61.31819,-4.762686],[-62.012357,-5.326218],[-62.328528,-5.815851],[-62.939807,-6.560049],[-63.047717,-6.844091],[-63.306885,-7.104696],[-63.268358,-7.420139],[-63.380256,-7.663937],[-63.938556,-8.441164],[-64.141157,-8.945752],[-64.870027,-9.011808],[-64.919143,-9.219894],[-65.250485,-9.258192],[-65.783493,-9.583203],[-65.969754,-9.412775],[-66.366259,-9.424777],[-66.8097,-9.817661],[-67.425482,-10.095851],[-67.587467,-10.509944],[-67.315444,-10.319324],[-67.011107,-10.254049],[-66.582469,-9.903931],[-66.149856,-9.786232],[-65.684587,-9.751459],[-65.285503,-9.845103],[-65.288952,-10.210251],[-65.416203,-10.618297],[-65.251296,-10.991315],[-65.36295,-11.146874],[-65.245763,-11.725332],[-65.025948,-11.998715],[-64.837714,-12.011134],[-64.400375,-12.448622],[-63.960474,-12.53077],[-63.790036,-12.429105],[-63.153811,-12.63028],[-62.793815,-12.994814],[-62.081048,-13.291804],[-61.763981,-13.5388],[-61.042629,-13.50861],[-60.709028,-13.693184],[-60.386827,-13.452971],[-60.284545,-13.085432],[-60.078593,-12.880733],[-60.059105,-12.6635],[-59.79253,-12.345586],[-59.331369,-12.278919],[-59.164813,-12.364623],[-58.433335,-11.911481],[-58.337577,-11.505561],[-58.899529,-11.144613],[-58.893487,-10.751013],[-58.734104,-10.615559],[-58.879729,-10.390007],[-58.81822,-10.079904],[-59.03905,-9.674186],[-58.940079,-9.437621],[-59.017336,-8.867362],[-58.442476,-8.799089],[-58.28789,-8.079182],[-58.384353,-7.835059],[-58.141732,-7.3433],[-58.499843,-7.349739],[-58.6011,-7.036917],[-58.85833,-6.705088],[-58.803199,-5.33707],[-58.409479,-5.015768],[-58.272447,-4.734863],[-58.884975,-3.859043],[-59.041684,-3.954384],[-59.494654,-3.918804],[-59.619648,-4.19822],[-59.926485,-4.212612],[-60.129994,-4.383876],[-60.480794,-4.133946],[-60.802774,-4.174242]]],[[[-59.469569,-16.279119],[-58.881921,-15.157109],[-58.774732,-14.602074],[-59.07313,-14.4986],[-59.090703,-14.276432],[-59.363509,-14.347235],[-59.534008,-14.010108],[-59.840306,-14.179905],[-59.982489,-14.037157],[-60.381811,-13.992011],[-60.452625,-14.313933],[-60.272429,-14.6207],[-60.244387,-15.096566],[-60.564483,-15.108267],[-60.238071,-15.473432],[-60.171224,-16.265185],[-59.469569,-16.279119]]]]},"properties":{"ID":259905,"AREA":588169.4,"DATA":18,"BH2_NOME":"Madeira","BH2_NOME_C":"MADEIRA","BH1_NOME_C":"AMAZONAS-SOLIMOES","MUNICIPIO":68,"MUN_P_BR":1.220826,"AREA_KM2":588169.313171,"AREA_P_BR":6.898702,"POP_2010":1913489,"POP_P_B":1.003109,"DENS_DEMO":3.253296,"POP_URB":1362583,"PERC_URB":71.209346,"POP_RUR":550906,"PERC_RUR":28.790654,"PIB_2010":27146666,"PIB_PER_C":14.186999}},
{"type":"Feature","geometry":{"type":"Polygon","coordinates":[[[-71.077387,-9.828041],[-70.584899,-9.443859],[-70.621648,-9.821552],[-70.621025,-10.999821],[-70.199921,-11.0536],[-69.934418,-10.921903],[-68.848066,-10.991168],[-68.71575,-11.144833],[-68.237423,-10.956129],[-68.099971,-10.709156],[-67.707105,-10.71045],[-67.587467,-10.509944],[-67.425482,-10.095851],[-66.8097,-9.817661],[-66.366259,-9.424777],[-65.969754,-9.412775],[-65.783493,-9.583203],[-65.250485,-9.258192],[-64.919143,-9.219894],[-64.870027,-9.011808],[-64.141157,-8.945752],[-63.938556,-8.441164],[-63.380256,-7.663937],[-63.268358,-7.420139],[-63.306885,-7.104696],[-63.047717,-6.844091],[-62.939807,-6.560049],[-62.328528,-5.815851],[-62.012357,-5.326218],[-61.31819,-4.762686],[-60.802774,-4.174242],[-61.163131,-3.974541],[-61.149962,-3.700481],[-61.411744,-3.621164],[-61.822969,-3.661454],[-61.835137,-4.051224],[-62.303622,-4.147864],[-62.6117,-4.43873],[-62.953846,-4.519438],[-63.46125,-5.153933],[-63.701749,-5.109649],[-64.095051,-5.411984],[-64.436942,-5.557167],[-64.763223,-5.804467],[-65.528915,-5.642136],[-65.964333,-5.398025],[-66.268052,-5.356208],[-66.678547,-5.55375],[-66.957639,-5.41951],[-67.447388,-5.89045],[-67.658944,-5.935009],[-67.666238,-6.254713],[-67.79664,-6.519347],[-67.366609,-6.492201],[-67.202331,-6.333086],[-66.475362,-6.569725],[-66.801751,-6.813463],[-67.018969,-6.746778],[-67.4143,-6.879124],[-67.611912,-7.410439],[-67.914021,-7.15458],[-68.386685,-7.179071],[-68.902465,-7.104746],[-69.192242,-6.944575],[-69.490466,-7.202781],[-69.624664,-7.752019],[-69.801148,-8.060751],[-69.442709,-8.366957],[-69.572152,-8.644922],[-69.865105,-8.957498],[-70.318978,-8.96363],[-70.637406,-9.377507],[-70.857405,-9.448702],[-71.077387,-9.828041]]]},"properties":{"ID":259981,"AREA":350434.537,"DATA":30,"BH2_NOME":"Purus","BH2_NOME_C":"PURUS","BH1_NOME_C":"AMAZONAS-SOLIMOES","MUNICIPIO":19,"MUN_P_BR":0.341113,"AREA_KM2":350434.532959,"AREA_P_BR":4.110285,"POP_2010":647845,"POP_P_B":0.33962,"DENS_DEMO":1.848691,"POP_URB":489936,"PERC_URB":75.625497,"POP_RUR":157909,"PERC_RUR":24.374503,"PIB_2010":6988420,"PIB_PER_C":10.787179}},
{"type":"Feature","geometry":{"type":"MultiPolygon","coordinates":[[[[-70.045779,0.068655],[-70.056858,-0.18643],[-69.610534,-0.513105],[-69.61151,-0.769853],[-69.397815,-1.144054],[-69.741931,-3.16565],[-69.948337,-4.300567],[-70.256755,-4.310393],[-70.435726,-4.130876],[-70.758446,-4.159611],[-70.932824,-4.375364],[-71.77647,-4.487194],[-72.886697,-5.164368],[-72.991619,-5.703415],[-73.236896,-6.031826],[-73.120524,-6.427923],[-73.642231,-6.761783],[-73.800983,-7.111458],[-73.679889,-6.953581],[-73.192618,-6.917931],[-72.78434,-6.971917],[-72.33242,-7.207214],[-71.537711,-6.865228],[-71.342763,-6.680952],[-70.781747,-6.701253],[-70.571336,-6.534154],[-70.3675,-6.644721],[-70.01436,-6.588662],[-69.701074,-6.422317],[-69.216912,-6.431978],[-68.68105,-6.306615],[-68.209717,-5.917715],[-68.273719,-5.566661],[-68.200272,-5.220259],[-67.709577,-4.597327],[-67.270249,-4.460068],[-66.89472,-4.480443],[-67.008384,-3.985376],[-66.909835,-3.577206],[-67.034443,-3.415296],[-66.871328,-3.142324],[-66.265017,-3.134422],[-65.946382,-2.606317],[-65.594363,-2.658824],[-65.656938,-2.95372],[-65.977576,-3.486977],[-65.980438,-3.902363],[-65.862222,-4.145836],[-66.21,-4.49206],[-66.25422,-4.768171],[-66.937855,-5.277182],[-66.957639,-5.41951],[-66.678547,-5.55375],[-66.268052,-5.356208],[-65.964333,-5.398025],[-65.528915,-5.642136],[-64.763223,-5.804467],[-64.436942,-5.557167],[-64.095051,-5.411984],[-63.701749,-5.109649],[-63.46125,-5.153933],[-62.953846,-4.519438],[-62.6117,-4.43873],[-62.303622,-4.147864],[-61.835137,-4.051224],[-61.822969,-3.661454],[-61.411744,-3.621164],[-61.149962,-3.700481],[-61.163131,-3.974541],[-60.802774,-4.174242],[-60.480794,-4.133946],[-60.129994,-4.383876],[-59.926485,-4.212612],[-59.619648,-4.19822],[-59.494654,-3.918804],[-59.041684,-3.954384],[-58.884975,-3.859043],[-58.272447,-4.734863],[-58.409479,-5.015768],[-58.803199,-5.33707],[-58.85833,-6.705088],[-58.6011,-7.036917],[-58.499843,-7.349739],[-58.141732,-7.3433],[-58.434055,-6.908422],[-58.47797,-6.699232],[-58.254756,-6.453736],[-57.547592,-4.921218],[-56.767425,-3.242514],[-56.344144,-3.26443],[-55.818582,-2.376216],[-55.468417,-2.13136],[-55.094419,-2.166587],[-54.511803,-2.109009],[-54.111143,-2.75424],[-54.253117,-2.951096],[-54.627001,-2.620947],[-54.832618,-2.661069],[-54.833258,-3.555759],[-54.759558,-3.860704],[-54.841393,-4.409863],[-54.450496,-4.242964],[-54.023358,-4.26649],[-53.505863,-4.055151],[-53.156108,-3.664592],[-53.473528,-3.541529],[-53.664283,-3.041439],[-53.607916,-2.864787],[-53.145946,-2.66491],[-53.277197,-2.084696],[-52.938723,-1.655961],[-52.251416,-1.503709],[-51.951582,-1.646234],[-51.96307,-1.825215],[-51.457666,-1.642444],[-51.275859,-1.220623],[-51.824917,-1.528041],[-52.025699,-1.421809],[-51.69305,-1.007438],[-51.706483,-0.774734],[-51.203137,-0.05379],[-50.787536,0.188805],[-50.255181,0.883407],[-49.888683,1.154248],[-49.925336,1.700971],[-50.448312,1.814483],[-50.683802,2.143741],[-51.155242,2.153288],[-51.644002,1.992591],[-51.723749,1.617681],[-52.006364,1.320051],[-52.130259,2.333759],[-52.501101,2.039624],[-52.830142,2.083204],[-52.942719,1.945329],[-53.279454,2.186079],[-53.766752,2.379253],[-54.188609,2.179159],[-54.436107,2.210218],[-54.871776,2.434076],[-55.00333,2.591356],[-55.746556,2.410868],[-56.042475,2.228203],[-55.903448,1.888446],[-56.335634,1.936916],[-56.798706,1.871534],[-57.119567,2.010565],[-57.355831,1.970814],[-57.537198,1.700899],[-57.792436,1.724854],[-57.981166,1.567099],[-58.317399,1.570375],[-58.512821,1.277331],[-58.894998,1.228032],[-58.894919,0.263854],[-60.037454,0.26389],[-60.399444,-0.509735],[-60.303326,-0.673618],[-60.530556,-0.874726],[-60.770825,-0.894176],[-60.886968,-1.309351],[-60.592024,-1.547247],[-60.616079,-1.866558],[-59.998662,-2.142855],[-60.032591,-2.548954],[-59.705548,-2.939249],[-59.916015,-3.256745],[-60.223798,-3.353271],[-60.458498,-3.116913],[-60.682061,-3.143839],[-60.983163,-3.005255],[-61.2501,-2.740669],[-61.724667,-2.837697],[-61.923636,-2.60919],[-62.353806,-2.773681],[-62.530889,-3.064494],[-62.928309,-3.007712],[-63.462555,-2.703087],[-63.691027,-2.834241],[-63.992416,-2.215557],[-64.253353,-2.123803],[-64.662803,-2.213844],[-64.935298,-2.102178],[-65.176581,-1.847436],[-65.526392,-1.759227],[-65.647469,-1.53298],[-65.941662,-1.412182],[-66.386496,-1.469079],[-66.737407,-1.623739],[-67.109522,-1.581754],[-67.554129,-1.639603],[-67.648955,-1.511718],[-68.16001,-1.483145],[-68.164392,-0.675616],[-68.423746,-0.758514],[-68.959092,-0.481186],[-69.28584,-0.516487],[-70.045779,0.068655]]],[[[-51.88505,-1.27382],[-51.843959,-1.494635],[-51.419965,-1.187549],[-51.248081,-0.972749],[-51.10589,-0.57692],[-51.182616,-0.44079],[-51.571264,-0.642445],[-51.647434,-1.054843],[-51.88505,-1.27382]]],[[[-48.915946,-0.229232],[-49.167399,-0.128792],[-49.667068,-0.242175],[-50.403273,-0.100412],[-50.695281,-0.363539],[-50.734071,-0.553463],[-51.11071,-0.724883],[-51.193793,-1.110381],[-50.816555,-1.200663],[-50.794947,-1.433891],[-50.57604,-1.718275],[-50.306642,-1.80579],[-50.252406,-1.791593],[-50.247194,-1.360161],[-49.526193,-1.18769],[-49.480082,-0.693034],[-49.245889,-0.767278],[-49.171243,-0.474127],[-48.915946,-0.229232]]],[[[-51.035471,-0.223103],[-50.927959,-0.326746],[-50.572394,-0.047074],[-50.813655,0.052421],[-51.035471,-0.223103]]],[[[-50.546935,0.246401],[-50.440727,0.167488],[-50.077002,0.479984],[-50.368842,0.616859],[-50.546935,0.246401]]],[[[-50.39852,0.149931],[-49.880025,-0.069402],[-49.528138,0.335195],[-50.146734,0.321585],[-50.39852,0.149931]]]]},"properties":{"ID":260033,"AREA":1065860.87,"DATA":1,"BH2_NOME":"Amazonas-Solimões","BH2_NOME_C":"AMAZONAS-SOLIMOES","BH1_NOME_C":"AMAZONAS-SOLIMOES","MUNICIPIO":70,"MUN_P_BR":1.256732,"AREA_KM2":1065861.07885,"AREA_P_BR":12.501601,"POP_2010":2403244,"POP_P_B":1.259854,"DENS_DEMO":2.254744,"POP_URB":1511062,"PERC_URB":62.875929,"POP_RUR":892182,"PERC_RUR":37.124071,"PIB_2010":20112813,"PIB_PER_C":8.369027}},
{"type":"Feature","geometry":{"type":"MultiPolygon","coordinates":[[[[-54.841393,-4.409863],[-54.759558,-3.860704],[-54.833258,-3.555759],[-54.832618,-2.661069],[-54.627001,-2.620947],[-54.253117,-2.951096],[-54.111143,-2.75424],[-54.511803,-2.109009],[-55.094419,-2.166587],[-55.468417,-2.13136],[-55.818582,-2.376216],[-56.344144,-3.26443],[-56.767425,-3.242514],[-57.547592,-4.921218],[-58.254756,-6.453736],[-58.47797,-6.699232],[-58.434055,-6.908422],[-58.141732,-7.3433],[-58.384353,-7.835059],[-58.28789,-8.079182],[-58.442476,-8.799089],[-59.017336,-8.867362],[-58.940079,-9.437621],[-59.03905,-9.674186],[-58.81822,-10.079904],[-58.879729,-10.390007],[-58.734104,-10.615559],[-58.893487,-10.751013],[-58.899529,-11.144613],[-58.337577,-11.505561],[-58.433335,-11.911481],[-59.164813,-12.364623],[-59.331369,-12.278919],[-59.79253,-12.345586],[-60.059105,-12.6635],[-60.078593,-12.880733],[-60.284545,-13.085432],[-60.386827,-13.452971],[-60.709028,-13.693184],[-60.381811,-13.992011],[-59.982489,-14.037157],[-59.840306,-14.179905],[-59.534008,-14.010108],[-59.363509,-14.347235],[-59.090703,-14.276432],[-59.043998,-14.000364],[-58.083383,-14.000435],[-58.230505,-14.385323],[-57.716244,-14.290838],[-57.605729,-14.184644],[-56.763563,-14.150963],[-56.254383,-14.614491],[-56.023043,-14.234303],[-55.441617,-14.082326],[-55.305396,-14.242022],[-54.874989,-14.215193],[-55.17004,-13.352389],[-55.568638,-12.632293],[-55.583002,-12.180958],[-55.065674,-11.696148],[-55.284533,-11.665371],[-55.465336,-11.348328],[-54.960738,-11.170731],[-54.60323,-10.576308],[-54.65604,-10.353957],[-54.057921,-10.232221],[-53.943087,-9.850138],[-53.587932,-9.610873],[-54.612974,-9.535424],[-54.873641,-9.063048],[-55.171412,-8.969455],[-55.212523,-8.14219],[-55.014839,-7.751606],[-55.20989,-7.397888],[-55.249611,-6.974377],[-55.166999,-6.732714],[-55.334803,-6.248811],[-55.030025,-6.000008],[-55.345405,-5.384261],[-55.465032,-4.690484],[-54.961272,-4.586749],[-54.841393,-4.409863]]],[[[-54.813894,-14.293847],[-54.924461,-14.793113],[-54.527563,-14.780107],[-54.327306,-14.730515],[-54.398862,-14.531375],[-54.813894,-14.293847]]]]},"properties":{"ID":260213,"AREA":491724.464,"DATA":33,"BH2_NOME":"Tapajós","BH2_NOME_C":"TAPAJOS","BH1_NOME_C":"AMAZONAS-SOLIMOES","MUNICIPIO":47,"MUN_P_BR":0.843806,"AREA_KM2":491724.541199,"AREA_P_BR":5.767491,"POP_2010":1223140,"POP_P_B":0.641207,"DENS_DEMO":2.48745,"POP_URB":872577,"PERC_URB":71.339094,"POP_RUR":350563,"PERC_RUR":28.660906,"PIB_2010":20495471,"PIB_PER_C":16.756439}},
{"type":"Feature","geometry":{"type":"Polygon","coordinates":[[[-70.045779,0.068655],[-69.28584,-0.516487],[-68.959092,-0.481186],[-68.423746,-0.758514],[-68.164392,-0.675616],[-68.16001,-1.483145],[-67.648955,-1.511718],[-67.554129,-1.639603],[-67.109522,-1.581754],[-66.737407,-1.623739],[-66.386496,-1.469079],[-65.941662,-1.412182],[-65.647469,-1.53298],[-65.526392,-1.759227],[-65.176581,-1.847436],[-64.935298,-2.102178],[-64.662803,-2.213844],[-64.253353,-2.123803],[-63.992416,-2.215557],[-63.691027,-2.834241],[-63.462555,-2.703087],[-62.928309,-3.007712],[-62.530889,-3.064494],[-62.353806,-2.773681],[-61.923636,-2.60919],[-61.724667,-2.837697],[-61.2501,-2.740669],[-60.983163,-3.005255],[-60.682061,-3.143839],[-60.458498,-3.116913],[-60.223798,-3.353271],[-59.916015,-3.256745],[-59.705548,-2.939249],[-60.032591,-2.548954],[-59.998662,-2.142855],[-60.616079,-1.866558],[-60.592024,-1.547247],[-60.886968,-1.309351],[-60.770825,-0.894176],[-60.530556,-0.874726],[-60.303326,-0.673618],[-60.399444,-0.509735],[-60.037454,0.26389],[-58.894919,0.263854],[-58.894998,1.228032],[-59.252778,1.388585],[-59.758433,1.899152],[-59.724374,2.278642],[-59.906166,2.396921],[-59.989886,2.681852],[-59.858332,3.570781],[-59.533982,3.927056],[-59.721862,4.166267],[-59.783843,4.450415],[-60.161401,4.517981],[-59.971937,5.074576],[-60.212855,5.271621],[-60.547967,5.194276],[-60.583783,4.953094],[-60.9588,4.544661],[-61.513055,4.405767],[-61.559717,4.25216],[-62.141662,4.082435],[-62.462222,4.178274],[-62.753056,4.031613],[-62.731384,3.796608],[-62.952007,3.612137],[-63.361399,3.962133],[-63.511058,3.848066],[-64.035553,3.934154],[-64.273883,4.142996],[-64.588051,4.111845],[-64.471945,3.781893],[-64.291415,3.701261],[-64.114442,3.334876],[-64.226665,3.132024],[-64.071664,2.919497],[-63.934108,2.457305],[-63.354969,2.38303],[-63.397216,2.147221],[-64.061386,1.931073],[-64.064719,1.676347],[-64.290063,1.47652],[-64.804852,1.305689],[-65.164441,0.950819],[-65.548047,0.77494],[-65.738883,0.999932],[-66.150548,0.744814],[-66.318641,0.755055],[-66.856389,1.230546],[-67.087615,1.167237],[-67.096836,1.732939],[-67.27754,1.876084],[-67.388713,2.244346],[-67.778872,2.0314],[-68.156259,1.731973],[-69.841974,1.721113],[-69.843805,1.085721],[-69.321015,1.096036],[-69.144459,0.783372],[-69.238388,0.602733],[-69.606226,0.62955],[-70.042991,0.559172],[-70.045779,0.068655]]]},"properties":{"ID":56838,"AREA":572062.253,"DATA":21,"BH2_NOME":"Negro","BH2_NOME_C":"NEGRO","BH1_NOME_C":"AMAZONAS-SOLIMOES","MUNICIPIO":21,"MUN_P_BR":0.37702,"AREA_KM2":572062.061035,"AREA_P_BR":6.709778,"POP_2010":2389757,"POP_P_B":1.252783,"DENS_DEMO":4.177444,"POP_URB":2213285,"PERC_URB":92.615483,"POP_RUR":176472,"PERC_RUR":7.384517,"PIB_2010":55684918,"PIB_PER_C":23.301498}},
{"type":"Feature","geometry":{"type":"Polygon","coordinates":[[[-50.683802,2.143741],[-51.044222,3.134165],[-51.080614,3.884879],[-51.493815,4.443506],[-51.676617,4.332494],[-51.655514,4.053979],[-51.919275,3.781276],[-52.473551,2.792514],[-52.660483,2.373901],[-52.904202,2.189338],[-53.279454,2.186079],[-52.942719,1.945329],[-52.830142,2.083204],[-52.501101,2.039624],[-52.130259,2.333759],[-52.006364,1.320051],[-51.723749,1.617681],[-51.644002,1.992591],[-51.155242,2.153288],[-50.683802,2.143741]]]},"properties":{"ID":56889,"AREA":37262.357,"DATA":20,"BH2_NOME":"não classificado","BH2_NOME_C":"NAO CLASSIFICADO","BH1_NOME_C":"NAO CLASSIFICADO","MUNICIPIO":2,"MUN_P_BR":0.035907,"AREA_KM2":37262.354767,"AREA_P_BR":0.437054,"POP_2010":29509,"POP_P_B":0.01547,"DENS_DEMO":0.791925,"POP_URB":21159,"PERC_URB":71.703548,"POP_RUR":8350,"PERC_RUR":28.296452,"PIB_2010":351467,"PIB_PER_C":11.910502}},
{"type":"Feature","geometry":{"type":"Polygon","coordinates":[[[-71.077387,-9.828041],[-70.857405,-9.448702],[-70.637406,-9.377507],[-70.318978,-8.96363],[-69.865105,-8.957498],[-69.572152,-8.644922],[-69.442709,-8.366957],[-69.801148,-8.060751],[-69.624664,-7.752019],[-69.490466,-7.202781],[-69.192242,-6.944575],[-68.902465,-7.104746],[-68.386685,-7.179071],[-67.914021,-7.15458],[-67.611912,-7.410439],[-67.4143,-6.879124],[-67.018969,-6.746778],[-66.801751,-6.813463],[-66.475362,-6.569725],[-67.202331,-6.333086],[-67.366609,-6.492201],[-67.79664,-6.519347],[-67.666238,-6.254713],[-67.658944,-5.935009],[-67.447388,-5.89045],[-66.957639,-5.41951],[-66.937855,-5.277182],[-66.25422,-4.768171],[-66.21,-4.49206],[-65.862222,-4.145836],[-65.980438,-3.902363],[-65.977576,-3.486977],[-65.656938,-2.95372],[-65.594363,-2.658824],[-65.946382,-2.606317],[-66.265017,-3.134422],[-66.871328,-3.142324],[-67.034443,-3.415296],[-66.909835,-3.577206],[-67.008384,-3.985376],[-66.89472,-4.480443],[-67.270249,-4.460068],[-67.709577,-4.597327],[-68.200272,-5.220259],[-68.273719,-5.566661],[-68.209717,-5.917715],[-68.68105,-6.306615],[-69.216912,-6.431978],[-69.701074,-6.422317],[-70.01436,-6.588662],[-70.3675,-6.644721],[-70.571336,-6.534154],[-70.781747,-6.701253],[-71.342763,-6.680952],[-71.537711,-6.865228],[-72.33242,-7.207214],[-72.78434,-6.971917],[-73.192618,-6.917931],[-73.679889,-6.953581],[-73.800983,-7.111458],[-73.932777,-7.608411],[-73.69158,-7.767781],[-73.537445,-8.345869],[-73.141391,-8.725038],[-72.941347,-9.066313],[-73.212333,-9.41135],[-72.715611,-9.411801],[-72.366517,-9.488962],[-72.156995,-9.791103],[-72.180418,-10.00012],[-71.375579,-10.000828],[-71.077387,-9.828041]]]},"properties":{"ID":56913,"AREA":198914.153,"DATA":17,"BH2_NOME":"Juruá","BH2_NOME_C":"JURUA","BH1_NOME_C":"AMAZONAS-SOLIMOES","MUNICIPIO":15,"MUN_P_BR":0.2693,"AREA_KM2":198914.245605,"AREA_P_BR":2.333087,"POP_2010":333929,"POP_P_B":0.175056,"DENS_DEMO":1.678759,"POP_URB":193488,"PERC_URB":57.942856,"POP_RUR":140441,"PERC_RUR":42.057144,"PIB_2010":2605209,"PIB_PER_C":7.801685}},
{"type":"Feature","geometry":{"type":"Polygon","coordinates":[[[-54.689134,-30.628165],[-54.342075,-30.736987],[-54.017616,-30.692976],[-53.454125,-30.966148],[-52.971273,-30.658741],[-52.838013,-30.334049],[-52.289803,-30.346614],[-51.971373,-30.636023],[-51.555949,-30.201199],[-50.679634,-29.671574],[-50.280876,-29.858675],[-50.354711,-29.503081],[-49.951072,-28.893422],[-50.699212,-28.789808],[-51.025538,-28.623829],[-51.061391,-28.253387],[-51.534691,-28.37366],[-51.958807,-28.254856],[-52.415159,-28.402927],[-52.837074,-28.385846],[-53.222827,-28.145937],[-53.399627,-28.242776],[-53.45599,-28.548414],[-53.747196,-28.530519],[-53.868097,-29.144757],[-54.139639,-29.6923],[-54.349637,-29.935926],[-54.5856,-29.963101],[-54.697502,-30.271432],[-54.689134,-30.628165]]]},"properties":{"ID":56959,"AREA":80190.305,"DATA":14,"BH2_NOME":"Jacuí","BH2_NOME_C":"JACUI","BH1_NOME_C":"ATLANTICO SUL","MUNICIPIO":221,"MUN_P_BR":3.967684,"AREA_KM2":80190.311832,"AREA_P_BR":0.940561,"POP_2010":4490286,"POP_P_B":2.353945,"DENS_DEMO":55.995368,"POP_URB":3791581,"PERC_URB":84.439633,"POP_RUR":698705,"PERC_RUR":15.560367,"PIB_2010":118965238,"PIB_PER_C":26.493911}},
{"type":"Feature","geometry":{"type":"MultiPolygon","coordinates":[[[[-41.649506,-2.865957],[-41.771167,-3.120295],[-41.319533,-3.48388],[-41.245748,-3.896034],[-40.77934,-3.786177],[-40.845338,-4.103365],[-40.792636,-4.424629],[-40.136208,-4.812235],[-39.742858,-4.71995],[-39.468786,-4.534038],[-39.272173,-4.908983],[-39.042468,-4.779136],[-38.701467,-4.902453],[-38.370445,-4.577171],[-37.997608,-4.595241],[-37.835331,-4.382133],[-38.114585,-4.149482],[-38.463553,-3.710963],[-38.644268,-3.684706],[-39.9175,-2.86944],[-40.435537,-2.810897],[-41.008816,-2.891714],[-41.649506,-2.865957]]],[[[-37.177949,-7.308522],[-37.024424,-7.387435],[-37.295234,-7.96451],[-36.965049,-8.059925],[-36.948093,-8.39623],[-36.69984,-8.421323],[-36.76934,-8.83066],[-36.605363,-8.91243],[-36.882826,-9.263563],[-36.260211,-10.264157],[-36.027341,-10.047493],[-35.306325,-9.192966],[-35.128962,-8.865989],[-34.819334,-7.917354],[-34.885795,-7.747109],[-34.803358,-7.212977],[-35.260767,-5.4804],[-35.488782,-5.157972],[-35.949188,-5.04374],[-36.721803,-5.084542],[-36.439536,-5.369491],[-36.304837,-5.650692],[-36.426423,-6.09217],[-36.226652,-6.434463],[-36.304562,-6.940773],[-37.177949,-7.308522]]],[[[-37.540116,-4.643873],[-37.639995,-4.926018],[-38.018224,-5.025365],[-37.785275,-5.24217],[-38.082663,-5.671766],[-38.122139,-5.880531],[-38.400546,-6.053583],[-38.563032,-6.355395],[-38.257081,-6.483252],[-37.859482,-6.374479],[-37.742029,-6.188579],[-37.253454,-6.026173],[-37.156148,-5.166274],[-36.855802,-4.971998],[-37.151953,-4.948477],[-37.324847,-4.701343],[-37.540116,-4.643873]]]]},"properties":{"ID":735030,"AREA":167097.258,"DATA":5,"BH2_NOME":"Atlântico Nordeste Oriental","BH2_NOME_C":"ATLANTICO NE OR","BH1_NOME_C":"ATLANTICO NE OR","MUNICIPIO":527,"MUN_P_BR":9.4614,"AREA_KM2":167097.257486,"AREA_P_BR":1.959902,"POP_2010":20360354,"POP_P_B":10.673518,"DENS_DEMO":121.847326,"POP_URB":16762124,"PERC_URB":82.327272,"POP_RUR":3598230,"PERC_RUR":17.672728,"PIB_2010":221075297,"PIB_PER_C":10.858126}},
{"type":"Feature","geometry":{"type":"MultiPolygon","coordinates":[[[[-54.700847,-31.43542],[-54.10857,-31.908513],[-53.804892,-32.070157],[-53.645107,-32.380882],[-53.075721,-32.740854],[-53.518338,-33.153126],[-53.522859,-33.689264],[-53.369875,-33.743969],[-52.795191,-33.302049],[-52.511458,-32.902678],[-52.231331,-32.256571],[-51.817246,-31.910399],[-51.225661,-31.544929],[-50.745237,-31.080552],[-50.359236,-30.54175],[-49.959193,-29.667344],[-49.482424,-29.060017],[-48.764042,-28.536216],[-48.604891,-28.018722],[-48.565437,-27.422347],[-48.626766,-26.959374],[-49.309441,-27.392648],[-49.281385,-27.873129],[-49.530285,-28.188496],[-49.648453,-28.599643],[-49.951072,-28.893422],[-50.354711,-29.503081],[-50.280876,-29.858675],[-50.679634,-29.671574],[-51.555949,-30.201199],[-51.971373,-30.636023],[-52.289803,-30.346614],[-52.838013,-30.334049],[-52.971273,-30.658741],[-53.454125,-30.966148],[-54.017616,-30.692976],[-54.342075,-30.736987],[-54.689134,-30.628165],[-54.31181,-31.160434],[-54.700847,-31.43542]]],[[[-48.102016,-25.306228],[-48.215582,-25.07618],[-48.749626,-25.089453],[-48.962696,-25.444892],[-49.057521,-26.075749],[-49.439318,-26.488565],[-49.283216,-26.607799],[-48.662036,-26.771017],[-48.605543,-26.4669],[-48.705943,-26.248693],[-48.438886,-25.65431],[-48.102016,-25.306228]]]]},"properties":{"ID":86947,"AREA":106785.199,"DATA":7,"BH2_NOME":"Atlântico Sul","BH2_NOME_C":"ATLANTICO SUL","BH1_NOME_C":"ATLANTICO SUL","MUNICIPIO":160,"MUN_P_BR":2.872531,"AREA_KM2":106785.123238,"AREA_P_BR":1.252494,"POP_2010":7189838,"POP_P_B":3.769132,"DENS_DEMO":67.329959,"POP_URB":6534054,"PERC_URB":90.879016,"POP_RUR":655784,"PERC_RUR":9.120984,"PIB_2010":169767912,"PIB_PER_C":23.612203}},
{"type":"Feature","geometry":{"type":"Polygon","coordinates":[[[-54.689134,-30.628165],[-54.697502,-30.271432],[-54.5856,-29.963101],[-54.349637,-29.935926],[-54.139639,-29.6923],[-53.868097,-29.144757],[-53.747196,-28.530519],[-53.45599,-28.548414],[-53.399627,-28.242776],[-53.222827,-28.145937],[-52.837074,-28.385846],[-52.415159,-28.402927],[-51.958807,-28.254856],[-51.534691,-28.37366],[-51.061391,-28.253387],[-51.025538,-28.623829],[-50.699212,-28.789808],[-49.951072,-28.893422],[-49.648453,-28.599643],[-49.530285,-28.188496],[-49.281385,-27.873129],[-49.507414,-27.6],[-49.711294,-27.642958],[-50.34647,-27.091973],[-50.255287,-26.862754],[-50.471258,-26.700717],[-51.664578,-26.565606],[-52.678095,-26.352207],[-53.09018,-26.390036],[-53.267595,-26.263546],[-53.639121,-26.250802],[-53.734544,-26.631567],[-53.680504,-26.915236],[-53.815447,-27.140367],[-54.216102,-27.385205],[-54.590164,-27.460386],[-54.905982,-27.640706],[-55.860949,-28.354899],[-56.300103,-28.808612],[-56.416332,-29.070644],[-57.565702,-30.258605],[-57.22206,-30.289874],[-56.834565,-30.092408],[-56.022875,-30.786418],[-55.870157,-31.071497],[-55.584188,-30.835865],[-55.234176,-31.259582],[-54.700847,-31.43542],[-54.31181,-31.160434],[-54.689134,-30.628165]]]},"properties":{"ID":117647,"AREA":170859.197,"DATA":36,"BH2_NOME":"Uruguai","BH2_NOME_C":"URUGUAI","BH1_NOME_C":"URUGUAI","MUNICIPIO":355,"MUN_P_BR":6.373429,"AREA_KM2":170859.255939,"AREA_P_BR":2.004027,"POP_2010":3997206,"POP_P_B":2.095457,"DENS_DEMO":23.394729,"POP_URB":3008949,"PERC_URB":75.276305,"POP_RUR":988257,"PERC_RUR":24.723695,"PIB_2010":79369272,"PIB_PER_C":19.856188}},
{"type":"Feature","geometry":{"type":"Polygon","coordinates":[[[-50.255287,-26.862754],[-50.06435,-26.441575],[-49.771998,-26.772967],[-49.439318,-26.488565],[-49.057521,-26.075749],[-48.962696,-25.444892],[-49.291079,-25.224352],[-49.387774,-25.498713],[-49.756071,-25.360082],[-50.061431,-25.646274],[-50.786233,-25.381185],[-51.03159,-25.46682],[-51.190819,-25.184973],[-51.390389,-25.113316],[-51.99787,-25.301134],[-52.128196,-25.136707],[-52.692436,-25.27398],[-53.009888,-25.241759],[-53.345642,-24.790076],[-53.527696,-24.742844],[-53.813207,-25.096198],[-54.472848,-25.211015],[-54.552136,-25.588452],[-54.118319,-25.499149],[-53.863101,-25.658063],[-53.83319,-25.973954],[-53.639121,-26.250802],[-53.267595,-26.263546],[-53.09018,-26.390036],[-52.678095,-26.352207],[-51.664578,-26.565606],[-50.471258,-26.700717],[-50.255287,-26.862754]]]},"properties":{"ID":117818,"AREA":67978.5147,"DATA":11,"BH2_NOME":"Iguaçu","BH2_NOME_C":"IGUACU","BH1_NOME_C":"PARANA","MUNICIPIO":117,"MUN_P_BR":2.100539,"AREA_KM2":67978.528149,"AREA_P_BR":0.797328,"POP_2010":5098147,"POP_P_B":2.672604,"DENS_DEMO":74.996431,"POP_URB":4405859,"PERC_URB":86.420792,"POP_RUR":692288,"PERC_RUR":13.579208,"PIB_2010":127568188,"PIB_PER_C":25.022462}},
{"type":"Feature","geometry":{"type":"Polygon","coordinates":[[[-53.237212,-18.007666],[-53.559417,-18.434644],[-53.347216,-18.774451],[-53.444986,-19.178662],[-53.62131,-19.25364],[-53.48222,-19.589023],[-53.598778,-19.770211],[-53.862725,-19.529468],[-54.020936,-19.634059],[-54.55293,-19.532677],[-54.44948,-19.980806],[-54.761789,-20.045129],[-54.822718,-20.777816],[-55.151479,-20.799443],[-55.207832,-21.035418],[-55.59472,-21.065099],[-55.893988,-21.760905],[-56.080264,-21.929017],[-55.765818,-22.383468],[-55.523455,-23.196591],[-55.553043,-23.489003],[-55.418791,-23.959014],[-55.060004,-23.992322],[-54.670955,-23.811752],[-54.42766,-23.914147],[-54.258816,-24.351223],[-54.472848,-25.211015],[-53.813207,-25.096198],[-53.527696,-24.742844],[-53.345642,-24.790076],[-53.009888,-25.241759],[-52.692436,-25.27398],[-52.128196,-25.136707],[-51.99787,-25.301134],[-51.390389,-25.113316],[-51.190819,-25.184973],[-51.03159,-25.46682],[-50.786233,-25.381185],[-50.699475,-25.035676],[-50.872975,-24.833996],[-50.739351,-24.553176],[-50.962692,-24.353612],[-51.303618,-23.715256],[-51.95199,-23.487118],[-52.749466,-23.108645],[-53.080457,-22.55413],[-52.468193,-22.170166],[-51.727379,-22.350347],[-51.313544,-22.131831],[-50.727518,-22.235804],[-50.075153,-22.464731],[-49.651016,-22.368493],[-49.528763,-22.179852],[-49.771562,-21.803744],[-50.102777,-21.557426],[-50.581354,-21.441258],[-50.773685,-21.182416],[-51.003239,-21.438596],[-51.326996,-21.27133],[-51.480603,-21.035015],[-51.419097,-20.680771],[-51.199992,-20.492002],[-50.678711,-20.529344],[-50.399176,-20.721658],[-49.710604,-20.845552],[-49.625763,-20.756985],[-50.000049,-20.331508],[-50.336884,-20.337518],[-50.998104,-20.085016],[-51.022217,-19.807036],[-51.468014,-19.963684],[-51.79497,-19.564309],[-51.861763,-19.289587],[-51.657471,-19.137464],[-52.448635,-18.690513],[-52.911471,-18.642706],[-52.799337,-18.314887],[-53.099845,-18.313549],[-53.072351,-18.033922],[-53.237212,-18.007666]]]},"properties":{"ID":182370,"AREA":271202.612,"DATA":25,"BH2_NOME":"Paraná","BH2_NOME_C":"PARANA","BH1_NOME_C":"PARANA","MUNICIPIO":309,"MUN_P_BR":5.547576,"AREA_KM2":271202.597221,"AREA_P_BR":3.180965,"POP_2010":5408451,"POP_P_B":2.835275,"DENS_DEMO":19.942475,"POP_URB":4541794,"PERC_URB":83.975874,"POP_RUR":866657,"PERC_RUR":16.024126,"PIB_2010":90194896,"PIB_PER_C":16.67666}},
{"type":"Feature","geometry":{"type":"Polygon","coordinates":[[[-50.255287,-26.862754],[-50.34647,-27.091973],[-49.711294,-27.642958],[-49.507414,-27.6],[-49.281385,-27.873129],[-49.309441,-27.392648],[-48.626766,-26.959374],[-48.662036,-26.771017],[-49.283216,-26.607799],[-49.439318,-26.488565],[-49.771998,-26.772967],[-50.06435,-26.441575],[-50.255287,-26.862754]]]},"properties":{"ID":338605,"AREA":14485.9496,"DATA":12,"BH2_NOME":"Itajaí","BH2_NOME_C":"ITAJAI","BH1_NOME_C":"ATLANTICO SUL","MUNICIPIO":49,"MUN_P_BR":0.879713,"AREA_KM2":14485.954258,"AREA_P_BR":0.169907,"POP_2010":1255563,"POP_P_B":0.658204,"DENS_DEMO":86.674511,"POP_URB":1055374,"PERC_URB":84.055838,"POP_RUR":200189,"PERC_RUR":15.944162,"PIB_2010":40871759,"PIB_PER_C":32.552535}},
{"type":"Feature","geometry":{"type":"Polygon","coordinates":[[[-49.756071,-25.360082],[-49.711674,-25.02106],[-49.51062,-24.911754],[-49.622471,-24.646295],[-49.085309,-24.31142],[-48.729696,-24.388349],[-48.317861,-24.312868],[-47.573987,-23.863327],[-47.848917,-23.749597],[-48.13957,-23.266693],[-48.320559,-23.128491],[-48.846708,-22.946641],[-48.694233,-22.720898],[-48.911567,-22.337242],[-49.267483,-22.492306],[-49.528763,-22.179852],[-49.651016,-22.368493],[-50.075153,-22.464731],[-50.727518,-22.235804],[-51.313544,-22.131831],[-51.727379,-22.350347],[-52.468193,-22.170166],[-53.080457,-22.55413],[-52.749466,-23.108645],[-51.95199,-23.487118],[-51.303618,-23.715256],[-50.962692,-24.353612],[-50.739351,-24.553176],[-50.872975,-24.833996],[-50.699475,-25.035676],[-50.786233,-25.381185],[-50.061431,-25.646274],[-49.756071,-25.360082]]]},"properties":{"ID":338676,"AREA":105910.61,"DATA":27,"BH2_NOME":"Paranapanema","BH2_NOME_C":"PARANAPANEMA","BH1_NOME_C":"PARANA","MUNICIPIO":214,"MUN_P_BR":3.842011,"AREA_KM2":105910.63805,"AREA_P_BR":1.242237,"POP_2010":4698016,"POP_P_B":2.462843,"DENS_DEMO":44.358301,"POP_URB":4130379,"PERC_URB":87.917517,"POP_RUR":567637,"PERC_RUR":12.082483,"PIB_2010":82040134,"PIB_PER_C":17.462719}},
{"type":"Feature","geometry":{"type":"Polygon","coordinates":[[[-47.573987,-23.863327],[-48.317861,-24.312868],[-48.729696,-24.388349],[-49.085309,-24.31142],[-49.622471,-24.646295],[-49.51062,-24.911754],[-49.711674,-25.02106],[-49.756071,-25.360082],[-49.387774,-25.498713],[-49.291079,-25.224352],[-48.962696,-25.444892],[-48.749626,-25.089453],[-48.215582,-25.07618],[-48.102016,-25.306228],[-48.035772,-25.066988],[-47.526887,-24.692142],[-47.081139,-24.443215],[-46.806383,-23.939208],[-46.930543,-23.77811],[-47.355147,-24.021555],[-47.573987,-23.863327]]]},"properties":{"ID":338864,"AREA":25334.5138,"DATA":31,"BH2_NOME":"Ribeira de Iguape","BH2_NOME_C":"RIBEIRA DE IGUAPE","BH1_NOME_C":"ATLANTICO SUDESTE","MUNICIPIO":34,"MUN_P_BR":0.610413,"AREA_KM2":25334.51059,"AREA_P_BR":0.297151,"POP_2010":661850,"POP_P_B":0.346962,"DENS_DEMO":26.124444,"POP_URB":481350,"PERC_URB":72.72796,"POP_RUR":180500,"PERC_RUR":27.27204,"PIB_2010":8739780,"PIB_PER_C":13.205077}},
{"type":"Feature","geometry":{"type":"MultiPolygon","coordinates":[[[[-40.725381,-11.246314],[-40.309207,-11.434564],[-39.757478,-11.421047],[-39.499252,-11.290365],[-39.129273,-11.300013],[-39.159217,-11.640269],[-38.904531,-12.027996],[-38.759324,-12.720359],[-38.503677,-12.754934],[-38.354762,-12.956896],[-38.001035,-12.578044],[-37.678794,-12.087306],[-37.411934,-11.542975],[-37.029181,-10.953362],[-36.673349,-10.629017],[-37.124564,-10.375188],[-37.781677,-10.185716],[-37.913074,-9.933893],[-38.205377,-9.908324],[-38.443461,-9.698645],[-39.315567,-9.600275],[-39.795823,-9.844085],[-39.869546,-10.132705],[-40.248436,-10.377694],[-40.445339,-10.759915],[-40.482014,-11.049389],[-40.836285,-10.791392],[-40.916544,-11.023024],[-40.725381,-11.246314]]],[[[-42.705981,-16.156577],[-42.108032,-15.681311],[-41.908932,-15.632885],[-41.832043,-15.978002],[-41.342717,-15.8011],[-40.700388,-15.667191],[-40.563094,-15.802443],[-40.231184,-15.804666],[-40.024185,-15.989957],[-39.633877,-15.765304],[-39.356074,-15.850006],[-38.894846,-15.766861],[-39.063265,-14.635702],[-39.018423,-14.422035],[-39.489613,-14.419692],[-39.550053,-14.561685],[-40.13823,-15.008404],[-40.334067,-14.678998],[-40.570744,-14.541965],[-40.974221,-14.600948],[-41.165867,-14.80823],[-41.093809,-15.114082],[-41.339634,-15.12027],[-41.456622,-15.409734],[-41.794483,-15.105919],[-42.095675,-15.181987],[-42.514967,-14.982619],[-42.811931,-15.224323],[-42.705981,-16.156577]]],[[[-38.948477,-16.091673],[-39.484617,-16.084395],[-39.989075,-16.311848],[-40.065914,-16.45597],[-40.404727,-16.387394],[-40.356224,-16.652633],[-41.09469,-16.944105],[-41.432085,-17.324919],[-41.671641,-17.234682],[-42.041168,-17.715448],[-41.687572,-17.903586],[-41.620058,-18.529915],[-41.33411,-18.830938],[-40.616454,-19.040321],[-40.002757,-18.995499],[-39.718589,-19.09654],[-39.728186,-18.499906],[-39.469837,-17.971751],[-39.183224,-17.617967],[-39.212667,-17.168293],[-38.948477,-16.091673]]],[[[-38.801441,-12.846887],[-39.045058,-12.735032],[-39.351259,-12.901576],[-39.835062,-12.820078],[-40.526071,-13.183701],[-40.277991,-13.345654],[-39.741318,-13.91235],[-39.375433,-13.915606],[-39.071219,-14.109496],[-38.96183,-13.685272],[-38.93256,-13.222373],[-38.801441,-12.846887]]]]},"properties":{"ID":689127,"AREA":206930.437,"DATA":3,"BH2_NOME":"Atlântico Leste","BH2_NOME_C":"ATLANTICO LESTE","BH1_NOME_C":"ATLANTICO LESTE","MUNICIPIO":300,"MUN_P_BR":5.385996,"AREA_KM2":206930.618478,"AREA_P_BR":2.427112,"POP_2010":11218651,"POP_P_B":5.881159,"DENS_DEMO":54.214553,"POP_URB":8776182,"PERC_URB":78.228496,"POP_RUR":2442469,"PERC_RUR":21.771504,"PIB_2010":142718620,"PIB_PER_C":12.721549}},
{"type":"Feature","geometry":{"type":"Polygon","coordinates":[[[-46.830506,-20.049545],[-47.037043,-20.006547],[-47.076401,-19.687008],[-47.778963,-19.497388],[-47.789098,-19.250863],[-48.328042,-19.28629],[-48.397935,-19.481291],[-48.864212,-19.618839],[-49.163171,-19.6029],[-49.474185,-19.238657],[-49.784323,-19.329711],[-50.121981,-19.198331],[-50.261802,-19.592468],[-50.599146,-19.657666],[-50.668379,-19.909514],[-50.998104,-20.085016],[-50.336884,-20.337518],[-50.000049,-20.331508],[-49.625763,-20.756985],[-49.565379,-20.922396],[-49.24068,-20.961259],[-48.91918,-21.297839],[-48.685518,-21.218142],[-48.311761,-21.359836],[-48.100813,-21.769756],[-47.491478,-22.160381],[-47.466097,-22.418594],[-46.835866,-22.577499],[-46.621084,-22.722328],[-46.139475,-22.619001],[-45.956432,-22.850011],[-45.651948,-22.866057],[-45.051598,-22.469537],[-44.359363,-22.251827],[-44.123504,-21.995878],[-44.076883,-21.733837],[-43.671596,-21.439827],[-43.599354,-21.16653],[-43.797526,-20.88346],[-44.140332,-21.014553],[-44.435329,-20.775314],[-45.579782,-20.461449],[-46.346171,-20.550494],[-46.774865,-20.261303],[-46.830506,-20.049545]]]},"properties":{"ID":381258,"AREA":149571.091,"DATA":10,"BH2_NOME":"Grande","BH2_NOME_C":"GRANDE","BH1_NOME_C":"PARANA","MUNICIPIO":362,"MUN_P_BR":6.499102,"AREA_KM2":149571.104561,"AREA_P_BR":1.754336,"POP_2010":8658757,"POP_P_B":4.539184,"DENS_DEMO":57.890573,"POP_URB":7773434,"PERC_URB":89.775403,"POP_RUR":885323,"PERC_RUR":10.224597,"PIB_2010":168256478,"PIB_PER_C":19.431944}},
{"type":"Feature","geometry":{"type":"Polygon","coordinates":[[[-53.072351,-18.033922],[-53.099845,-18.313549],[-52.799337,-18.314887],[-52.911471,-18.642706],[-52.448635,-18.690513],[-51.657471,-19.137464],[-51.861763,-19.289587],[-51.79497,-19.564309],[-51.468014,-19.963684],[-51.022217,-19.807036],[-50.998104,-20.085016],[-50.668379,-19.909514],[-50.599146,-19.657666],[-50.261802,-19.592468],[-50.121981,-19.198331],[-49.784323,-19.329711],[-49.474185,-19.238657],[-49.163171,-19.6029],[-48.864212,-19.618839],[-48.397935,-19.481291],[-48.328042,-19.28629],[-47.789098,-19.250863],[-47.778963,-19.497388],[-47.076401,-19.687008],[-47.037043,-20.006547],[-46.830506,-20.049545],[-46.5292,-19.858082],[-46.132481,-19.804903],[-46.086646,-19.110156],[-46.298813,-18.894848],[-46.054509,-18.708369],[-47.045543,-18.214331],[-46.877147,-17.623635],[-47.467377,-17.532598],[-47.532787,-17.399612],[-47.146403,-17.030798],[-47.249717,-16.666361],[-47.443971,-16.540314],[-47.309954,-16.036268],[-47.31723,-15.590196],[-47.417351,-15.500395],[-48.200456,-15.500251],[-48.418268,-15.904248],[-48.576974,-15.764616],[-48.896718,-15.878138],[-48.913633,-16.086509],[-49.272328,-16.219298],[-49.57691,-16.102962],[-49.940135,-16.22371],[-50.087884,-16.22113],[-50.448718,-16.796709],[-50.8488,-16.7265],[-51.097574,-17.059378],[-51.474046,-17.345497],[-51.747474,-17.268874],[-51.991525,-17.486807],[-52.173726,-17.307396],[-52.497335,-17.232909],[-52.822332,-16.886689],[-53.037191,-17.348557],[-53.241255,-17.601663],[-53.072351,-18.033922]]]},"properties":{"ID":399906,"AREA":219114.314,"DATA":26,"BH2_NOME":"Paranaíba","BH2_NOME_C":"PARANAIBA","BH1_NOME_C":"PARANA","MUNICIPIO":169,"MUN_P_BR":3.034111,"AREA_KM2":219114.309475,"AREA_P_BR":2.570016,"POP_2010":8771540,"POP_P_B":4.598308,"DENS_DEMO":40.031799,"POP_URB":8268955,"PERC_URB":94.270276,"POP_RUR":502585,"PERC_RUR":5.729724,"PIB_2010":270942653,"PIB_PER_C":30.888835}},
{"type":"Feature","geometry":{"type":"Polygon","coordinates":[[[-59.469569,-16.279119],[-58.429952,-16.320869],[-58.473183,-16.913215],[-58.397512,-17.181249],[-57.980343,-17.510352],[-57.785147,-17.555114],[-57.557712,-18.240229],[-57.783738,-19.033073],[-58.131292,-19.758057],[-57.858379,-19.971204],[-58.15213,-20.152428],[-57.819032,-20.983119],[-57.915438,-21.585604],[-57.928076,-22.120541],[-57.377849,-22.212306],[-56.65163,-22.257664],[-56.392317,-22.100849],[-56.207869,-22.277115],[-55.765818,-22.383468],[-56.080264,-21.929017],[-55.893988,-21.760905],[-55.59472,-21.065099],[-55.207832,-21.035418],[-55.151479,-20.799443],[-54.822718,-20.777816],[-54.761789,-20.045129],[-54.44948,-19.980806],[-54.55293,-19.532677],[-54.020936,-19.634059],[-53.862725,-19.529468],[-53.598778,-19.770211],[-53.48222,-19.589023],[-53.62131,-19.25364],[-53.444986,-19.178662],[-53.347216,-18.774451],[-53.559417,-18.434644],[-53.237212,-18.007666],[-53.773726,-18.000325],[-53.679586,-17.253128],[-53.929274,-17.09565],[-53.828695,-16.729751],[-54.037172,-16.468106],[-53.809245,-16.091466],[-53.932024,-15.636863],[-54.559788,-15.361893],[-54.908148,-15.49693],[-55.437378,-15.944189],[-55.618446,-15.737734],[-55.305611,-15.516458],[-55.333813,-15.352214],[-55.100628,-15.106577],[-54.843277,-15.067281],[-54.527563,-14.780107],[-54.924461,-14.793113],[-54.813894,-14.293847],[-54.874989,-14.215193],[-55.305396,-14.242022],[-55.441617,-14.082326],[-56.023043,-14.234303],[-56.254383,-14.614491],[-56.763563,-14.150963],[-57.605729,-14.184644],[-57.716244,-14.290838],[-58.230505,-14.385323],[-58.083383,-14.000435],[-59.043998,-14.000364],[-59.090703,-14.276432],[-59.07313,-14.4986],[-58.774732,-14.602074],[-58.881921,-15.157109],[-59.469569,-16.279119]]]},"properties":{"ID":150115,"AREA":362008.444,"DATA":23,"BH2_NOME":"Paraguai","BH2_NOME_C":"PARAGUAI","BH1_NOME_C":"PARAGUAI","MUNICIPIO":72,"MUN_P_BR":1.292639,"AREA_KM2":362008.450256,"AREA_P_BR":4.246037,"POP_2010":2119363,"POP_P_B":1.111035,"DENS_DEMO":5.854457,"POP_URB":1839106,"PERC_URB":86.776357,"POP_RUR":280257,"PERC_RUR":13.223643,"PIB_2010":37096747,"PIB_PER_C":17.503725}},
{"type":"Feature","geometry":{"type":"Polygon","coordinates":[[[-53.072351,-18.033922],[-53.241255,-17.601663],[-53.037191,-17.348557],[-52.822332,-16.886689],[-52.497335,-17.232909],[-52.173726,-17.307396],[-51.991525,-17.486807],[-51.747474,-17.268874],[-51.474046,-17.345497],[-51.097574,-17.059378],[-50.8488,-16.7265],[-50.448718,-16.796709],[-50.087884,-16.22113],[-49.940135,-16.22371],[-50.167215,-15.454646],[-50.047888,-15.062626],[-49.531414,-14.769291],[-49.187888,-14.372464],[-49.110495,-13.886092],[-49.148551,-13.584411],[-49.538845,-13.529762],[-49.339886,-13.253462],[-49.234911,-12.893218],[-49.346022,-12.791663],[-49.186331,-12.255981],[-48.910276,-12.194148],[-49.171737,-11.739272],[-48.950031,-11.517567],[-49.2248,-11.325389],[-48.829725,-11.051063],[-48.997557,-10.84197],[-49.074859,-10.137948],[-48.896763,-10.080517],[-48.839865,-9.549245],[-48.645424,-8.974412],[-48.707198,-8.722174],[-48.613975,-7.94017],[-48.507658,-7.878503],[-48.590334,-7.444137],[-48.183613,-7.524366],[-48.051775,-7.353444],[-48.134466,-7.122816],[-47.734117,-6.983293],[-47.89995,-6.781081],[-47.723206,-6.28185],[-47.747983,-5.765754],[-48.047944,-5.445202],[-48.488099,-5.193885],[-49.014818,-5.45902],[-48.730776,-5.859664],[-50.375945,-7.252396],[-50.340919,-7.657886],[-50.505135,-8.022568],[-50.876943,-8.355107],[-51.046922,-8.673312],[-51.06922,-9.445095],[-51.304041,-9.771894],[-50.84244,-9.800414],[-50.609251,-10.074703],[-50.617194,-10.300771],[-51.336418,-10.235293],[-52.022137,-10.076124],[-52.15369,-10.276701],[-52.213405,-11.030343],[-52.756692,-11.04455],[-53.131447,-10.849145],[-53.317051,-10.957692],[-53.247495,-11.212674],[-53.010472,-11.534931],[-52.270063,-11.781296],[-52.121067,-11.977266],[-52.167252,-12.202301],[-52.039691,-12.50347],[-52.13168,-13.095734],[-51.813724,-13.421221],[-51.381666,-13.449123],[-52.090629,-13.920471],[-51.949242,-14.226597],[-52.31122,-14.442131],[-52.413553,-14.177005],[-52.931884,-14.259621],[-52.686756,-14.551429],[-52.809029,-14.768103],[-53.291194,-14.862264],[-53.349997,-14.578935],[-54.094767,-14.621699],[-54.327306,-14.730515],[-54.527563,-14.780107],[-54.843277,-15.067281],[-55.100628,-15.106577],[-55.333813,-15.352214],[-55.305611,-15.516458],[-55.618446,-15.737734],[-55.437378,-15.944189],[-54.908148,-15.49693],[-54.559788,-15.361893],[-53.932024,-15.636863],[-53.809245,-16.091466],[-54.037172,-16.468106],[-53.828695,-16.729751],[-53.929274,-17.09565],[-53.679586,-17.253128],[-53.773726,-18.000325],[-53.237212,-18.007666],[-53.072351,-18.033922]]]},"properties":{"ID":306627,"AREA":409205.116,"DATA":2,"BH2_NOME":"Araguaia","BH2_NOME_C":"ARAGUAIA","BH1_NOME_C":"TOCANTINS","MUNICIPIO":144,"MUN_P_BR":2.585278,"AREA_KM2":409205.14592,"AREA_P_BR":4.799612,"POP_2010":1542503,"POP_P_B":0.808627,"DENS_DEMO":3.76951,"POP_URB":1126920,"PERC_URB":73.057881,"POP_RUR":415583,"PERC_RUR":26.942119,"PIB_2010":21466060,"PIB_PER_C":13.916381}},
{"type":"Feature","geometry":{"type":"Polygon","coordinates":[[[-50.375945,-7.252396],[-50.993991,-6.666152],[-51.146617,-6.206606],[-51.399251,-6.048726],[-50.919859,-5.792299],[-50.944974,-5.522899],[-50.752768,-5.175505],[-51.447367,-5.149836],[-51.316474,-4.663876],[-51.410416,-3.888339],[-51.584246,-3.760692],[-51.752247,-3.393165],[-51.609159,-3.150594],[-51.939164,-2.256732],[-51.96307,-1.825215],[-51.951582,-1.646234],[-52.251416,-1.503709],[-52.938723,-1.655961],[-53.277197,-2.084696],[-53.145946,-2.66491],[-53.607916,-2.864787],[-53.664283,-3.041439],[-53.473528,-3.541529],[-53.156108,-3.664592],[-53.505863,-4.055151],[-54.023358,-4.26649],[-54.450496,-4.242964],[-54.841393,-4.409863],[-54.961272,-4.586749],[-55.465032,-4.690484],[-55.345405,-5.384261],[-55.030025,-6.000008],[-55.334803,-6.248811],[-55.166999,-6.732714],[-55.249611,-6.974377],[-55.20989,-7.397888],[-55.014839,-7.751606],[-55.212523,-8.14219],[-55.171412,-8.969455],[-54.873641,-9.063048],[-54.612974,-9.535424],[-53.587932,-9.610873],[-53.943087,-9.850138],[-54.057921,-10.232221],[-54.65604,-10.353957],[-54.60323,-10.576308],[-54.960738,-11.170731],[-55.465336,-11.348328],[-55.284533,-11.665371],[-55.065674,-11.696148],[-55.583002,-12.180958],[-55.568638,-12.632293],[-55.17004,-13.352389],[-54.874989,-14.215193],[-54.813894,-14.293847],[-54.398862,-14.531375],[-54.327306,-14.730515],[-54.094767,-14.621699],[-53.349997,-14.578935],[-53.291194,-14.862264],[-52.809029,-14.768103],[-52.686756,-14.551429],[-52.931884,-14.259621],[-52.413553,-14.177005],[-52.31122,-14.442131],[-51.949242,-14.226597],[-52.090629,-13.920471],[-51.381666,-13.449123],[-51.813724,-13.421221],[-52.13168,-13.095734],[-52.039691,-12.50347],[-52.167252,-12.202301],[-52.121067,-11.977266],[-52.270063,-11.781296],[-53.010472,-11.534931],[-53.247495,-11.212674],[-53.317051,-10.957692],[-53.131447,-10.849145],[-52.756692,-11.04455],[-52.213405,-11.030343],[-52.15369,-10.276701],[-52.022137,-10.076124],[-51.336418,-10.235293],[-50.617194,-10.300771],[-50.609251,-10.074703],[-50.84244,-9.800414],[-51.304041,-9.771894],[-51.06922,-9.445095],[-51.046922,-8.673312],[-50.876943,-8.355107],[-50.505135,-8.022568],[-50.340919,-7.657886],[-50.375945,-7.252396]]]},"properties":{"ID":306841,"AREA":502258.824,"DATA":37,"BH2_NOME":"Xingu","BH2_NOME_C":"XINGU","BH1_NOME_C":"AMAZONAS-SOLIMOES","MUNICIPIO":28,"MUN_P_BR":0.502693,"AREA_KM2":502258.807373,"AREA_P_BR":5.891048,"POP_2010":581941,"POP_P_B":0.305071,"DENS_DEMO":1.158648,"POP_URB":363747,"PERC_URB":62.505821,"POP_RUR":218194,"PERC_RUR":37.494179,"PIB_2010":6096461,"PIB_PER_C":10.476081}},
{"type":"Feature","geometry":{"type":"Polygon","coordinates":[[[-49.625763,-20.756985],[-49.710604,-20.845552],[-50.399176,-20.721658],[-50.678711,-20.529344],[-51.199992,-20.492002],[-51.419097,-20.680771],[-51.480603,-21.035015],[-51.326996,-21.27133],[-51.003239,-21.438596],[-50.773685,-21.182416],[-50.581354,-21.441258],[-50.102777,-21.557426],[-49.771562,-21.803744],[-49.528763,-22.179852],[-49.267483,-22.492306],[-48.911567,-22.337242],[-48.694233,-22.720898],[-48.846708,-22.946641],[-48.320559,-23.128491],[-48.13957,-23.266693],[-47.848917,-23.749597],[-47.573987,-23.863327],[-47.355147,-24.021555],[-46.930543,-23.77811],[-46.806383,-23.939208],[-46.563581,-23.948807],[-46.238101,-23.734812],[-45.702766,-23.636956],[-46.358463,-23.266186],[-45.956432,-22.850011],[-46.139475,-22.619001],[-46.621084,-22.722328],[-46.835866,-22.577499],[-47.466097,-22.418594],[-47.491478,-22.160381],[-48.100813,-21.769756],[-48.311761,-21.359836],[-48.685518,-21.218142],[-48.91918,-21.297839],[-49.24068,-20.961259],[-49.565379,-20.922396],[-49.625763,-20.756985]]]},"properties":{"ID":366116,"AREA":74776.764,"DATA":34,"BH2_NOME":"Tietê","BH2_NOME_C":"TIETE","BH1_NOME_C":"PARANA","MUNICIPIO":227,"MUN_P_BR":4.075404,"AREA_KM2":74776.765414,"AREA_P_BR":0.877065,"POP_2010":28840427,"POP_P_B":15.11903,"DENS_DEMO":385.687009,"POP_URB":28073982,"PERC_URB":97.342463,"POP_RUR":766445,"PERC_RUR":2.657537,"PIB_2010":970829733,"PIB_PER_C":33.662114}},
{"type":"Feature","geometry":{"type":"Polygon","coordinates":[[[-42.705981,-16.156577],[-42.971065,-16.16949],[-43.374708,-16.410909],[-43.491369,-16.72484],[-43.437109,-16.944668],[-43.848513,-16.919535],[-44.048661,-17.175492],[-44.05512,-17.457116],[-43.762456,-17.924623],[-43.985765,-18.345651],[-43.570055,-18.439738],[-42.693952,-18.06801],[-42.409728,-17.79298],[-42.041168,-17.715448],[-41.671641,-17.234682],[-41.432085,-17.324919],[-41.09469,-16.944105],[-40.356224,-16.652633],[-40.404727,-16.387394],[-40.065914,-16.45597],[-39.989075,-16.311848],[-39.484617,-16.084395],[-38.948477,-16.091673],[-38.894846,-15.766861],[-39.356074,-15.850006],[-39.633877,-15.765304],[-40.024185,-15.989957],[-40.231184,-15.804666],[-40.563094,-15.802443],[-40.700388,-15.667191],[-41.342717,-15.8011],[-41.832043,-15.978002],[-41.908932,-15.632885],[-42.108032,-15.681311],[-42.705981,-16.156577]]]},"properties":{"ID":495344,"AREA":73020.6416,"DATA":16,"BH2_NOME":"Jequitinhonha","BH2_NOME_C":"JEQUITINHONHA","BH1_NOME_C":"ATLANTICO LESTE","MUNICIPIO":65,"MUN_P_BR":1.166966,"AREA_KM2":73020.669052,"AREA_P_BR":0.856467,"POP_2010":903619,"POP_P_B":0.473705,"DENS_DEMO":12.374839,"POP_URB":563634,"PERC_URB":62.375182,"POP_RUR":339985,"PERC_RUR":37.624818,"PIB_2010":5787695,"PIB_PER_C":6.405017}},
{"type":"Feature","geometry":{"type":"Polygon","coordinates":[[[-47.309954,-16.036268],[-47.443971,-16.540314],[-47.249717,-16.666361],[-47.146403,-17.030798],[-47.532787,-17.399612],[-47.467377,-17.532598],[-46.877147,-17.623635],[-47.045543,-18.214331],[-46.054509,-18.708369],[-46.298813,-18.894848],[-46.086646,-19.110156],[-46.132481,-19.804903],[-46.5292,-19.858082],[-46.830506,-20.049545],[-46.774865,-20.261303],[-46.346171,-20.550494],[-45.579782,-20.461449],[-44.435329,-20.775314],[-44.140332,-21.014553],[-43.797526,-20.88346],[-43.453358,-20.27124],[-43.683224,-20.092422],[-43.52862,-19.925728],[-43.478803,-19.453501],[-43.68278,-18.943662],[-43.540562,-18.705521],[-43.570055,-18.439738],[-43.985765,-18.345651],[-43.762456,-17.924623],[-44.05512,-17.457116],[-44.048661,-17.175492],[-43.848513,-16.919535],[-43.437109,-16.944668],[-43.491369,-16.72484],[-43.374708,-16.410909],[-42.971065,-16.16949],[-42.705981,-16.156577],[-42.811931,-15.224323],[-42.514967,-14.982619],[-42.586825,-14.481901],[-42.347138,-14.195189],[-42.375976,-13.990286],[-42.221518,-13.699946],[-42.05733,-13.708444],[-41.904167,-13.287146],[-42.104256,-13.131979],[-42.018249,-12.856092],[-41.951935,-11.983947],[-41.5879,-11.856563],[-41.024906,-12.002442],[-40.72745,-11.566724],[-40.725381,-11.246314],[-40.916544,-11.023024],[-40.836285,-10.791392],[-40.482014,-11.049389],[-40.445339,-10.759915],[-40.248436,-10.377694],[-39.869546,-10.132705],[-39.795823,-9.844085],[-39.315567,-9.600275],[-38.443461,-9.698645],[-38.205377,-9.908324],[-37.913074,-9.933893],[-37.781677,-10.185716],[-37.124564,-10.375188],[-36.673349,-10.629017],[-36.384454,-10.498625],[-36.260211,-10.264157],[-36.882826,-9.263563],[-36.605363,-8.91243],[-36.76934,-8.83066],[-36.69984,-8.421323],[-36.948093,-8.39623],[-36.965049,-8.059925],[-37.295234,-7.96451],[-37.024424,-7.387435],[-37.177949,-7.308522],[-38.039249,-7.747891],[-38.596797,-7.750876],[-38.715162,-7.621973],[-39.053836,-7.819403],[-39.473108,-7.573867],[-39.741321,-7.326663],[-40.12841,-7.381783],[-40.523854,-7.318421],[-40.715167,-7.487056],[-40.537859,-7.857234],[-40.636772,-8.14188],[-41.380875,-8.70686],[-41.832299,-9.234164],[-42.320083,-9.320564],[-42.813146,-9.623171],[-42.955974,-9.438224],[-43.284723,-9.419612],[-43.485062,-9.264872],[-43.849294,-9.547636],[-43.665178,-9.990527],[-43.918815,-10.428891],[-44.127886,-10.631065],[-44.660392,-10.677717],[-44.930808,-10.928333],[-45.435443,-10.622307],[-45.425359,-10.369864],[-45.722465,-10.154903],[-45.819853,-10.456269],[-46.260369,-10.812236],[-46.552278,-11.262941],[-46.349883,-11.506127],[-46.375507,-12.297752],[-46.271654,-12.431223],[-46.322799,-13.241912],[-46.215159,-13.401853],[-46.226736,-14.073106],[-45.961559,-14.288092],[-46.087716,-14.935946],[-46.565464,-14.785929],[-46.50217,-15.051805],[-46.887886,-15.112093],[-46.929192,-15.441087],[-47.180168,-15.610868],[-47.122151,-15.917067],[-47.309954,-16.036268]]]},"properties":{"ID":534961,"AREA":636935.875,"DATA":32,"BH2_NOME":"São Francisco","BH2_NOME_C":"SAO FRANCISCO","BH1_NOME_C":"SAO FRANCISCO","MUNICIPIO":459,"MUN_P_BR":8.240575,"AREA_KM2":636935.819588,"AREA_P_BR":7.47069,"POP_2010":14279897,"POP_P_B":7.485957,"DENS_DEMO":22.41968,"POP_URB":11038011,"PERC_URB":77.297553,"POP_RUR":3241886,"PERC_RUR":22.702447,"PIB_2010":218112365,"PIB_PER_C":15.274085}},
{"type":"Feature","geometry":{"type":"MultiPolygon","coordinates":[[[[-51.193793,-1.110381],[-51.275859,-1.220623],[-51.457666,-1.642444],[-51.96307,-1.825215],[-51.939164,-2.256732],[-51.609159,-3.150594],[-51.752247,-3.393165],[-51.584246,-3.760692],[-51.410416,-3.888339],[-51.316474,-4.663876],[-51.447367,-5.149836],[-50.752768,-5.175505],[-50.944974,-5.522899],[-50.919859,-5.792299],[-51.399251,-6.048726],[-51.146617,-6.206606],[-50.993991,-6.666152],[-50.375945,-7.252396],[-48.730776,-5.859664],[-49.014818,-5.45902],[-48.488099,-5.193885],[-48.047944,-5.445202],[-47.747983,-5.765754],[-47.723206,-6.28185],[-47.89995,-6.781081],[-47.734117,-6.983293],[-48.134466,-7.122816],[-48.051775,-7.353444],[-48.183613,-7.524366],[-48.590334,-7.444137],[-48.507658,-7.878503],[-48.613975,-7.94017],[-48.707198,-8.722174],[-48.645424,-8.974412],[-48.839865,-9.549245],[-48.896763,-10.080517],[-49.074859,-10.137948],[-48.997557,-10.84197],[-48.829725,-11.051063],[-49.2248,-11.325389],[-48.950031,-11.517567],[-49.171737,-11.739272],[-48.910276,-12.194148],[-49.186331,-12.255981],[-49.346022,-12.791663],[-49.234911,-12.893218],[-49.339886,-13.253462],[-49.538845,-13.529762],[-49.148551,-13.584411],[-49.110495,-13.886092],[-49.187888,-14.372464],[-49.531414,-14.769291],[-50.047888,-15.062626],[-50.167215,-15.454646],[-49.940135,-16.22371],[-49.57691,-16.102962],[-49.272328,-16.219298],[-48.913633,-16.086509],[-48.896718,-15.878138],[-48.576974,-15.764616],[-48.418268,-15.904248],[-48.200456,-15.500251],[-47.417351,-15.500395],[-47.31723,-15.590196],[-47.309954,-16.036268],[-47.122151,-15.917067],[-47.180168,-15.610868],[-46.929192,-15.441087],[-46.887886,-15.112093],[-46.50217,-15.051805],[-46.565464,-14.785929],[-46.087716,-14.935946],[-45.961559,-14.288092],[-46.226736,-14.073106],[-46.215159,-13.401853],[-46.322799,-13.241912],[-46.271654,-12.431223],[-46.375507,-12.297752],[-46.349883,-11.506127],[-46.552278,-11.262941],[-46.260369,-10.812236],[-45.819853,-10.456269],[-45.722465,-10.154903],[-46.327105,-10.183277],[-46.44478,-10.076971],[-46.572834,-9.477349],[-46.758252,-9.380806],[-46.942579,-9.064064],[-46.910255,-8.590198],[-46.782012,-8.367679],[-46.500167,-8.427587],[-46.399262,-8.217159],[-46.387244,-7.465152],[-46.166082,-7.365111],[-46.450628,-7.066054],[-46.306085,-6.907097],[-46.715234,-6.698365],[-46.671292,-6.129856],[-46.962036,-5.636504],[-47.372166,-5.53832],[-47.363618,-5.258389],[-48.024949,-4.777916],[-47.611519,-4.55698],[-47.371345,-4.24521],[-47.870033,-4.035867],[-48.014363,-3.826173],[-48.59822,-3.793033],[-48.889779,-3.636262],[-48.809903,-3.437381],[-48.499492,-3.263558],[-48.100272,-3.198448],[-47.498308,-2.874017],[-47.3235,-2.570487],[-46.887231,-2.206247],[-46.792651,-1.715982],[-46.94245,-1.294103],[-47.286282,-1.537102],[-47.652644,-1.430774],[-48.066653,-1.063605],[-48.127761,-0.757458],[-48.224712,-0.82444],[-48.811246,-1.619124],[-48.977645,-1.602632],[-49.843703,-1.907322],[-50.306642,-1.80579],[-50.57604,-1.718275],[-50.794947,-1.433891],[-50.816555,-1.200663],[-51.193793,-1.110381]]],[[[-48.915946,-0.229232],[-49.171243,-0.474127],[-49.245889,-0.767278],[-49.480082,-0.693034],[-49.526193,-1.18769],[-50.247194,-1.360161],[-50.252406,-1.791593],[-49.792909,-1.816546],[-48.892897,-1.49526],[-48.769537,-1.198042],[-48.52123,-0.912757],[-48.435315,-0.22812],[-48.915946,-0.229232]]]]},"properties":{"ID":573402,"AREA":547202.211,"DATA":35,"BH2_NOME":"Tocantins","BH2_NOME_C":"TOCANTINS","BH1_NOME_C":"TOCANTINS","MUNICIPIO":244,"MUN_P_BR":4.38061,"AREA_KM2":547202.321655,"AREA_P_BR":6.418196,"POP_2010":7260691,"POP_P_B":3.806275,"DENS_DEMO":13.26875,"POP_URB":5557388,"PERC_URB":76.540759,"POP_RUR":1703303,"PERC_RUR":23.459241,"PIB_2010":87025009,"PIB_PER_C":11.985775}},
{"type":"Feature","geometry":{"type":"Polygon","coordinates":[[[-40.957972,-21.311657],[-41.105413,-21.219486],[-41.683455,-21.256161],[-41.918152,-20.946297],[-42.068927,-20.509528],[-42.469153,-20.689476],[-42.582189,-20.952701],[-42.88593,-20.846045],[-42.981028,-21.059349],[-43.599354,-21.16653],[-43.671596,-21.439827],[-44.076883,-21.733837],[-44.123504,-21.995878],[-44.359363,-22.251827],[-45.051598,-22.469537],[-45.651948,-22.866057],[-45.956432,-22.850011],[-46.358463,-23.266186],[-45.702766,-23.636956],[-45.327714,-23.531294],[-44.823056,-23.157592],[-44.792045,-22.981674],[-44.501126,-22.836619],[-43.964937,-22.885751],[-43.840357,-22.648499],[-43.491399,-22.419768],[-43.237864,-22.511871],[-42.721209,-22.356524],[-42.335527,-22.429355],[-42.131541,-22.007068],[-41.711772,-21.890507],[-41.133343,-22.094107],[-40.973511,-21.955096],[-41.064093,-21.489354],[-40.957972,-21.311657]]]},"properties":{"ID":484973,"AREA":61002.0372,"DATA":24,"BH2_NOME":"Paraíba do Sul","BH2_NOME_C":"PARAIBA DO SUL","BH1_NOME_C":"ATLANTICO SUDESTE","MUNICIPIO":164,"MUN_P_BR":2.944345,"AREA_KM2":61002.039021,"AREA_P_BR":0.7155,"POP_2010":6274948,"POP_P_B":3.289519,"DENS_DEMO":102.864562,"POP_URB":5664687,"PERC_URB":90.274645,"POP_RUR":610261,"PERC_RUR":9.725355,"PIB_2010":159443197,"PIB_PER_C":25.409485}},
{"type":"Feature","geometry":{"type":"Polygon","coordinates":[[[-39.718589,-19.09654],[-40.002757,-18.995499],[-40.616454,-19.040321],[-41.33411,-18.830938],[-41.620058,-18.529915],[-41.687572,-17.903586],[-42.041168,-17.715448],[-42.409728,-17.79298],[-42.693952,-18.06801],[-43.570055,-18.439738],[-43.540562,-18.705521],[-43.68278,-18.943662],[-43.478803,-19.453501],[-43.52862,-19.925728],[-43.683224,-20.092422],[-43.453358,-20.27124],[-43.797526,-20.88346],[-43.599354,-21.16653],[-42.981028,-21.059349],[-42.88593,-20.846045],[-42.582189,-20.952701],[-42.469153,-20.689476],[-42.068927,-20.509528],[-41.756728,-20.206756],[-41.091496,-20.269079],[-40.85039,-19.984533],[-40.544591,-19.990136],[-40.505798,-19.800227],[-40.111357,-19.552807],[-39.911265,-19.68655],[-39.690734,-19.284664],[-39.718589,-19.09654]]]},"properties":{"ID":485149,"AREA":84861.0377,"DATA":9,"BH2_NOME":"Doce","BH2_NOME_C":"DOCE","BH1_NOME_C":"ATLANTICO SUDESTE","MUNICIPIO":208,"MUN_P_BR":3.734291,"AREA_KM2":84861.04018,"AREA_P_BR":0.995344,"POP_2010":3295406,"POP_P_B":1.727552,"DENS_DEMO":38.832967,"POP_URB":2478757,"PERC_URB":75.218562,"POP_RUR":816649,"PERC_RUR":24.781438,"PIB_2010":49910054,"PIB_PER_C":15.145343}},
{"type":"Feature","geometry":{"type":"MultiPolygon","coordinates":[[[[-41.133343,-22.094107],[-41.711772,-21.890507],[-42.131541,-22.007068],[-42.335527,-22.429355],[-42.721209,-22.356524],[-43.237864,-22.511871],[-43.491399,-22.419768],[-43.840357,-22.648499],[-43.964937,-22.885751],[-44.501126,-22.836619],[-44.792045,-22.981674],[-44.823056,-23.157592],[-45.327714,-23.531294],[-45.702766,-23.636956],[-46.238101,-23.734812],[-46.563581,-23.948807],[-46.806383,-23.939208],[-47.081139,-24.443215],[-46.400244,-23.917338],[-45.423157,-23.644789],[-44.907123,-23.334231],[-44.685949,-23.073035],[-44.321575,-22.936372],[-43.87487,-22.907351],[-43.533907,-23.050178],[-42.633322,-22.936596],[-42.057307,-22.959726],[-41.995978,-22.603581],[-41.769252,-22.358393],[-41.133343,-22.094107]]],[[[-40.957972,-21.311657],[-40.756203,-20.860903],[-40.434968,-20.63638],[-40.136476,-19.969666],[-39.911265,-19.68655],[-40.111357,-19.552807],[-40.505798,-19.800227],[-40.544591,-19.990136],[-40.85039,-19.984533],[-41.091496,-20.269079],[-41.756728,-20.206756],[-42.068927,-20.509528],[-41.918152,-20.946297],[-41.683455,-21.256161],[-41.105413,-21.219486],[-40.957972,-21.311657]]]]},"properties":{"ID":453198,"AREA":40462.9606,"DATA":6,"BH2_NOME":"Atlântico Sudeste","BH2_NOME_C":"ATLANTICO SUDESTE","BH1_NOME_C":"ATLANTICO SUDESTE","MUNICIPIO":102,"MUN_P_BR":1.831239,"AREA_KM2":40462.970673,"AREA_P_BR":0.474595,"POP_2010":17770714,"POP_P_B":9.31595,"DENS_DEMO":439.18461,"POP_URB":17233960,"PERC_URB":96.979559,"POP_RUR":536754,"PERC_RUR":3.020441,"PIB_2010":448030277,"PIB_PER_C":25.211721}},
{"type":"Feature","geometry":{"type":"MultiPolygon","coordinates":[[[[-44.649301,-2.805207],[-44.35722,-2.340047],[-44.601445,-1.767283],[-45.203364,-1.510628],[-45.466097,-1.305044],[-45.955888,-1.15394],[-46.222225,-0.986096],[-46.4707,-1.024723],[-46.604136,-0.828037],[-46.942573,-0.808995],[-47.296051,-0.59852],[-47.746667,-0.542891],[-48.127761,-0.757458],[-48.066653,-1.063605],[-47.652644,-1.430774],[-47.286282,-1.537102],[-46.94245,-1.294103],[-46.792651,-1.715982],[-46.887231,-2.206247],[-47.3235,-2.570487],[-47.498308,-2.874017],[-48.100272,-3.198448],[-48.499492,-3.263558],[-48.809903,-3.437381],[-48.889779,-3.636262],[-48.59822,-3.793033],[-48.014363,-3.826173],[-47.870033,-4.035867],[-47.371345,-4.24521],[-47.611519,-4.55698],[-48.024949,-4.777916],[-47.363618,-5.258389],[-46.947928,-5.032049],[-46.897433,-4.488909],[-47.087516,-4.308141],[-46.760669,-3.975258],[-46.69083,-3.673973],[-46.413414,-3.400798],[-45.659804,-3.338297],[-45.358317,-3.176868],[-45.21727,-2.95297],[-44.862065,-2.945842],[-44.649301,-2.805207]]],[[[-44.136642,-2.793924],[-44.092252,-3.530533],[-43.937726,-3.999943],[-43.728952,-3.934741],[-43.082284,-4.445776],[-42.948921,-4.386069],[-43.208423,-4.018029],[-43.197308,-3.782622],[-42.9879,-3.553059],[-42.63417,-3.632406],[-42.640084,-3.360085],[-42.308895,-3.092109],[-41.985697,-3.223449],[-41.797638,-2.955466],[-41.843746,-2.770104],[-42.580677,-2.67042],[-43.210862,-2.365685],[-43.579571,-2.510031],[-43.849188,-2.510676],[-44.136642,-2.793924]]]]},"properties":{"ID":633151,"AREA":134431.035,"DATA":4,"BH2_NOME":"Atlântico Nordeste Ocidental","BH2_NOME_C":"ATLANTICO NE OC","BH1_NOME_C":"ATLANTICO NE OC","MUNICIPIO":100,"MUN_P_BR":1.795332,"AREA_KM2":134431.013191,"AREA_P_BR":1.576756,"POP_2010":3652253,"POP_P_B":1.914622,"DENS_DEMO":27.168232,"POP_URB":2329660,"PERC_URB":63.786928,"POP_RUR":1322593,"PERC_RUR":36.213072,"PIB_2010":29916764,"PIB_PER_C":8.191318}},
{"type":"Feature","geometry":{"type":"MultiPolygon","coordinates":[[[[-44.53986,-3.060665],[-44.649301,-2.805207],[-44.862065,-2.945842],[-45.21727,-2.95297],[-45.358317,-3.176868],[-45.659804,-3.338297],[-46.413414,-3.400798],[-46.69083,-3.673973],[-46.760669,-3.975258],[-47.087516,-4.308141],[-46.897433,-4.488909],[-46.947928,-5.032049],[-47.363618,-5.258389],[-47.372166,-5.53832],[-46.962036,-5.636504],[-46.671292,-6.129856],[-46.715234,-6.698365],[-46.306085,-6.907097],[-45.927772,-6.64668],[-45.661395,-6.477479],[-45.164252,-6.301568],[-44.6011,-6.016583],[-44.344979,-5.311481],[-44.496289,-5.049078],[-44.44999,-4.69685],[-44.486388,-4.129326],[-44.60975,-3.847424],[-44.625282,-3.491938],[-44.426859,-3.253386],[-44.53986,-3.060665]]],[[[-44.40882,-2.79951],[-44.497447,-3.028366],[-44.284071,-2.808112],[-44.332926,-2.777157],[-44.40882,-2.79951]]]]},"properties":{"ID":594910,"AREA":98701.3691,"DATA":19,"BH2_NOME":"Mearim","BH2_NOME_C":"MEARIM","BH1_NOME_C":"ATLANTICO NE OC","MUNICIPIO":69,"MUN_P_BR":1.238779,"AREA_KM2":98701.374298,"AREA_P_BR":1.157679,"POP_2010":1714844,"POP_P_B":0.898973,"DENS_DEMO":17.374064,"POP_URB":901201,"PERC_URB":52.552944,"POP_RUR":813643,"PERC_RUR":47.447056,"PIB_2010":7813281,"PIB_PER_C":4.556263}},
{"type":"Feature","geometry":{"type":"Polygon","coordinates":[[[-44.136642,-2.793924],[-44.284071,-2.808112],[-44.497447,-3.028366],[-44.53986,-3.060665],[-44.426859,-3.253386],[-44.625282,-3.491938],[-44.60975,-3.847424],[-44.486388,-4.129326],[-44.44999,-4.69685],[-44.496289,-5.049078],[-44.344979,-5.311481],[-44.6011,-6.016583],[-45.164252,-6.301568],[-45.661395,-6.477479],[-45.927772,-6.64668],[-45.572365,-6.81947],[-45.118949,-6.814994],[-44.630807,-6.680513],[-44.420907,-6.797159],[-43.790461,-6.544698],[-43.858866,-6.283895],[-43.319706,-6.260799],[-43.33408,-5.912657],[-43.096133,-5.91041],[-43.159461,-5.201646],[-42.890358,-4.895349],[-42.948921,-4.386069],[-43.082284,-4.445776],[-43.728952,-3.934741],[-43.937726,-3.999943],[-44.092252,-3.530533],[-44.136642,-2.793924]]]},"properties":{"ID":595009,"AREA":53736.9253,"DATA":13,"BH2_NOME":"Itapicuru","BH2_NOME_C":"ITAPICURU","BH1_NOME_C":"ATLANTICO NE OC","MUNICIPIO":36,"MUN_P_BR":0.64632,"AREA_KM2":53736.921906,"AREA_P_BR":0.630286,"POP_2010":1043196,"POP_P_B":0.546875,"DENS_DEMO":19.413021,"POP_URB":640473,"PERC_URB":61.39527,"POP_RUR":402723,"PERC_RUR":38.60473,"PIB_2010":4262533,"PIB_PER_C":4.086033}},
{"type":"Feature","geometry":{"type":"Polygon","coordinates":[[[-46.306085,-6.907097],[-46.450628,-7.066054],[-46.166082,-7.365111],[-46.387244,-7.465152],[-46.399262,-8.217159],[-46.500167,-8.427587],[-46.782012,-8.367679],[-46.910255,-8.590198],[-46.942579,-9.064064],[-46.758252,-9.380806],[-46.572834,-9.477349],[-46.44478,-10.076971],[-46.327105,-10.183277],[-45.722465,-10.154903],[-45.425359,-10.369864],[-45.435443,-10.622307],[-44.930808,-10.928333],[-44.660392,-10.677717],[-44.127886,-10.631065],[-43.918815,-10.428891],[-43.665178,-9.990527],[-43.849294,-9.547636],[-43.485062,-9.264872],[-43.284723,-9.419612],[-42.955974,-9.438224],[-42.813146,-9.623171],[-42.320083,-9.320564],[-41.832299,-9.234164],[-41.380875,-8.70686],[-40.636772,-8.14188],[-40.537859,-7.857234],[-40.715167,-7.487056],[-40.523854,-7.318421],[-40.42753,-7.033697],[-40.476303,-6.732887],[-40.711137,-6.676124],[-40.846539,-6.1317],[-40.670263,-5.854409],[-40.21056,-5.691321],[-40.01809,-5.318479],[-40.136208,-4.812235],[-40.792636,-4.424629],[-40.845338,-4.103365],[-40.77934,-3.786177],[-41.245748,-3.896034],[-41.319533,-3.48388],[-41.771167,-3.120295],[-41.649506,-2.865957],[-41.843746,-2.770104],[-41.797638,-2.955466],[-41.985697,-3.223449],[-42.308895,-3.092109],[-42.640084,-3.360085],[-42.63417,-3.632406],[-42.9879,-3.553059],[-43.197308,-3.782622],[-43.208423,-4.018029],[-42.948921,-4.386069],[-42.890358,-4.895349],[-43.159461,-5.201646],[-43.096133,-5.91041],[-43.33408,-5.912657],[-43.319706,-6.260799],[-43.858866,-6.283895],[-43.790461,-6.544698],[-44.420907,-6.797159],[-44.630807,-6.680513],[-45.118949,-6.814994],[-45.572365,-6.81947],[-45.927772,-6.64668],[-46.306085,-6.907097]]]},"properties":{"ID":595104,"AREA":327668.965,"DATA":28,"BH2_NOME":"Parnaíba","BH2_NOME_C":"PARNAIBA","BH1_NOME_C":"PARNAIBA","MUNICIPIO":258,"MUN_P_BR":4.631957,"AREA_KM2":327668.846844,"AREA_P_BR":3.843264,"POP_2010":3996545,"POP_P_B":2.095111,"DENS_DEMO":12.196903,"POP_URB":2600590,"PERC_URB":65.070955,"POP_RUR":1395955,"PERC_RUR":34.929045,"PIB_2010":27619352,"PIB_PER_C":6.910807}},
{"type":"Feature","geometry":{"type":"Polygon","coordinates":[[[-42.514967,-14.982619],[-42.095675,-15.181987],[-41.794483,-15.105919],[-41.456622,-15.409734],[-41.339634,-15.12027],[-41.093809,-15.114082],[-41.165867,-14.80823],[-40.974221,-14.600948],[-40.570744,-14.541965],[-40.334067,-14.678998],[-40.13823,-15.008404],[-39.550053,-14.561685],[-39.489613,-14.419692],[-39.018423,-14.422035],[-39.071219,-14.109496],[-39.375433,-13.915606],[-39.741318,-13.91235],[-40.277991,-13.345654],[-40.526071,-13.183701],[-41.087874,-13.255938],[-41.237071,-13.461388],[-41.605284,-13.424597],[-41.62588,-13.129962],[-41.796386,-12.809547],[-42.018249,-12.856092],[-42.104256,-13.131979],[-41.904167,-13.287146],[-42.05733,-13.708444],[-42.221518,-13.699946],[-42.375976,-13.990286],[-42.347138,-14.195189],[-42.586825,-14.481901],[-42.514967,-14.982619]]]},"properties":{"ID":650731,"AREA":54897.9603,"DATA":8,"BH2_NOME":"Contas","BH2_NOME_C":"CONTAS","BH1_NOME_C":"ATLANTICO LESTE","MUNICIPIO":59,"MUN_P_BR":1.059246,"AREA_KM2":54897.955658,"AREA_P_BR":0.643904,"POP_2010":1122086,"POP_P_B":0.588232,"DENS_DEMO":20.439486,"POP_URB":646704,"PERC_URB":57.634085,"POP_RUR":475382,"PERC_RUR":42.365915,"PIB_2010":6814313,"PIB_PER_C":6.072897}},
{"type":"Feature","geometry":{"type":"Polygon","coordinates":[[[-38.801441,-12.846887],[-38.759324,-12.720359],[-38.904531,-12.027996],[-39.159217,-11.640269],[-39.129273,-11.300013],[-39.499252,-11.290365],[-39.757478,-11.421047],[-40.309207,-11.434564],[-40.725381,-11.246314],[-40.72745,-11.566724],[-41.024906,-12.002442],[-41.5879,-11.856563],[-41.951935,-11.983947],[-42.018249,-12.856092],[-41.796386,-12.809547],[-41.62588,-13.129962],[-41.605284,-13.424597],[-41.237071,-13.461388],[-41.087874,-13.255938],[-40.526071,-13.183701],[-39.835062,-12.820078],[-39.351259,-12.901576],[-39.045058,-12.735032],[-38.801441,-12.846887]]]},"properties":{"ID":650823,"AREA":55455.5218,"DATA":22,"BH2_NOME":"Paraguaçu","BH2_NOME_C":"PARAGUACU","BH1_NOME_C":"ATLANTICO LESTE","MUNICIPIO":66,"MUN_P_BR":1.184919,"AREA_KM2":55455.431152,"AREA_P_BR":0.650443,"POP_2010":1837633,"POP_P_B":0.963343,"DENS_DEMO":33.137115,"POP_URB":1236058,"PERC_URB":67.263594,"POP_RUR":601575,"PERC_RUR":32.736406,"PIB_2010":14256995,"PIB_PER_C":7.758347}},
{"type":"Feature","geometry":{"type":"Polygon","coordinates":[[[-40.523854,-7.318421],[-40.12841,-7.381783],[-39.741321,-7.326663],[-39.473108,-7.573867],[-39.053836,-7.819403],[-38.715162,-7.621973],[-38.534246,-7.293388],[-38.761977,-6.953559],[-38.563032,-6.355395],[-38.400546,-6.053583],[-38.122139,-5.880531],[-38.082663,-5.671766],[-37.785275,-5.24217],[-38.018224,-5.025365],[-37.639995,-4.926018],[-37.540116,-4.643873],[-37.835331,-4.382133],[-37.997608,-4.595241],[-38.370445,-4.577171],[-38.701467,-4.902453],[-39.042468,-4.779136],[-39.272173,-4.908983],[-39.468786,-4.534038],[-39.742858,-4.71995],[-40.136208,-4.812235],[-40.01809,-5.318479],[-40.21056,-5.691321],[-40.670263,-5.854409],[-40.846539,-6.1317],[-40.711137,-6.676124],[-40.476303,-6.732887],[-40.42753,-7.033697],[-40.523854,-7.318421]]]},"properties":{"ID":707083,"AREA":76006.6819,"DATA":15,"BH2_NOME":"Jaguaribe","BH2_NOME_C":"JAGUARIBE","BH1_NOME_C":"ATLANTICO NE OR","MUNICIPIO":79,"MUN_P_BR":1.418312,"AREA_KM2":76006.68306,"AREA_P_BR":0.891491,"POP_2010":2382197,"POP_P_B":1.24882,"DENS_DEMO":31.341941,"POP_URB":1483025,"PERC_URB":62.254507,"POP_RUR":899172,"PERC_RUR":37.745493,"PIB_2010":13276045,"PIB_PER_C":5.573026}},
{"type":"Feature","geometry":{"type":"Polygon","coordinates":[[[-38.715162,-7.621973],[-38.596797,-7.750876],[-38.039249,-7.747891],[-37.177949,-7.308522],[-36.304562,-6.940773],[-36.226652,-6.434463],[-36.426423,-6.09217],[-36.304837,-5.650692],[-36.439536,-5.369491],[-36.721803,-5.084542],[-36.855802,-4.971998],[-37.156148,-5.166274],[-37.253454,-6.026173],[-37.742029,-6.188579],[-37.859482,-6.374479],[-38.257081,-6.483252],[-38.563032,-6.355395],[-38.761977,-6.953559],[-38.534246,-7.293388],[-38.715162,-7.621973]]]},"properties":{"ID":707205,"AREA":43275.9902,"DATA":29,"BH2_NOME":"Piranhas","BH2_NOME_C":"PIRANHAS","BH1_NOME_C":"ATLANTICO NE OR","MUNICIPIO":131,"MUN_P_BR":2.351885,"AREA_KM2":43275.995766,"AREA_P_BR":0.507589,"POP_2010":1387964,"POP_P_B":0.727613,"DENS_DEMO":32.072376,"POP_URB":953764,"PERC_URB":68.716768,"POP_RUR":434200,"PERC_RUR":31.283232,"PIB_2010":8432777,"PIB_PER_C":6.075645}}
]}