{"type":"FeatureCollection", "features": [
{"type":"Feature","geometry":{"type":"Polygon","coordinates":[[[-48.09851952351851,-25.31088874231712],[-48.21557487821803,-25.076166566061648],[-48.56703580403161,-24.971665983678722],[-48.61613695232509,-24.668170869036743],[-49.20842096851701,-24.700343406372696],[-49.24091228362084,-24.384644283758735],[-49.522519071331395,-23.916542527207344],[-49.594789271544684,-23.366443514063366],[-49.960888260103005,-22.930381840783767],[-50.792642268755735,-22.90463174391893],[-50.89039236285991,-22.79532593319596],[-51.559065981536335,-22.696695670778713],[-52.12516669887845,-22.51878995578793],[-53.10466893923559,-22.621452309139393],[-53.6069001051165,-22.95085596598093],[-53.770580953087475,-23.3716508596737],[-53.982333047555855,-23.459526652530098],[-54.12917610530254,-23.981628231307027],[-54.287103586201894,-24.06950989510664],[-54.25787927907247,-24.35681075944651],[-54.58676885689855,-25.397092728911716],[-54.443969415684265,-25.662377889728774],[-54.10912909043857,-25.495648389144954],[-53.863471786383826,-25.65895405353387],[-53.64181578068491,-26.215088425818657],[-53.72045427494163,-26.559911585912136],[-53.74645309517278,-27.030546148698992],[-54.28414671406623,-27.447064159334648],[-54.40641847388367,-27.40452872322217],[-54.93607981646762,-27.772062978021093],[-55.195809470622464,-27.85621714475107],[-55.748558099469676,-28.233004561029464],[-55.88550294915912,-28.47962784514641],[-56.29970929349256,-28.813199493943834],[-56.41346669226944,-29.07074026058746],[-57.100972721010486,-29.748990679555888],[-57.32714090787158,-29.87985026048046],[-57.5660171529401,-30.256763308065242],[-57.20172671837885,-30.28462380903063],[-56.821893487763724,-30.096925232839588],[-56.02236044028679,-30.78605747644099],[-55.86923561497444,-31.069749192700165],[-55.582384554356615,-30.835178151399976],[-55.33766384980936,-31.132185466858576],[-54.83525612745724,-31.441428209374305],[-54.584899522674164,-31.457695708911903],[-54.08539746478618,-31.932546052101678],[-53.74526239640216,-32.07828186566174],[-53.643715555831925,-32.38315974081613],[-53.16549999345537,-32.648157175448006],[-52.78875919570428,-32.4449607008104],[-52.58561695761787,-32.5262197338029],[-52.7500147448429,-32.86162004651594],[-53.002888048947426,-32.78452422129303],[-53.46967453896211,-33.259170478662014],[-53.37267650552002,-33.74457998753124],[-52.7951738808897,-33.30202117673838],[-52.51147499914094,-32.90270349889313],[-52.30639015625802,-32.36100704843515],[-52.09815146075473,-32.161507780085046],[-52.225173071178865,-31.75140134070131],[-52.04366899795454,-31.57373961190372],[-51.91885688607608,-31.310252368191254],[-51.627739519616036,-31.26492589836399],[-51.29548282036717,-30.750498642930317],[-51.14225944418978,-30.47053493077095],[-51.157841345123394,-30.261958607186955],[-51.10212830951747,-30.253869405011635],[-50.5374269581916,-30.273431366840914],[-50.75311202228538,-30.81826697128986],[-51.10307821082671,-31.09885494758307],[-51.23776828086168,-31.45762192459505],[-51.46210946767075,-31.54385752235867],[-51.812405680738806,-31.816772076336722],[-51.79786330005152,-31.814258025792192],[-51.812405680738806,-31.816772076336722],[-51.46986897243816,-31.725854019251788],[-50.76879247173753,-31.109557664600413],[-50.30832351046209,-30.455385961147037],[-49.92257070456724,-29.606529814801323],[-49.64434566782859,-29.23894857367726],[-49.18366594988684,-28.79983301307557],[-48.80928093647045,-28.60500794292938],[-48.57771038941992,-27.882367299446226],[-48.57088581226237,-27.023580935340902],[-48.686570672500984,-26.66897612446064],[-48.50529729938016,-26.238617753343547],[-48.59426904195829,-25.97054458243826],[-48.41439227864434,-25.62347940697695],[-48.09851952351851,-25.31088874231712]]]},"properties":{"id":1,"nome":"Sul","sigla":"S"}},
{"type":"Feature","geometry":{"type":"Polygon","coordinates":[[[-40.723829024505264,-20.841778138453748],[-40.47240672568898,-20.654176199220018],[-40.19738212909196,-20.216341063208255],[-40.13100134372783,-19.936375546313023],[-39.80626637978551,-19.630997162395815],[-39.688552577871285,-19.305827840876102],[-39.749915001628736,-18.841233136645386],[-39.670192140698134,-18.348743440010594],[-40.2220174780753,-17.97994758218094],[-40.22354341014898,-17.733587043071093],[-40.59934073890766,-17.389873234093933],[-40.54508196714101,-16.983822589071988],[-40.27511454424717,-16.57355668558182],[-39.85643447623599,-16.113360851399978],[-40.21843577822494,-15.835312148657653],[-40.698961884223706,-15.668160961495662],[-41.330808810743235,-15.744211953161939],[-41.35602646482683,-15.499830987510558],[-41.80031380882902,-15.100641668048192],[-42.26439783418642,-15.124719713769524],[-42.9522902147606,-14.707951372524235],[-43.310822272277576,-14.669298122472899],[-43.51075341700666,-14.796125669218625],[-43.88309705831386,-14.6527811096445],[-43.782788890582395,-14.338798863878338],[-44.24019975430693,-14.240255672835248],[-44.55678649980334,-14.336592081318129],[-45.75119845410634,-15.121761351894895],[-46.03698609429731,-14.873636251461171],[-46.78142038347086,-15.018878191292089],[-46.94865855496843,-15.554147926881312],[-46.824426911837435,-15.885267365324134],[-47.28730348694926,-16.009224523780805],[-47.443964682678384,-16.54031088756523],[-47.249708944981805,-16.66635937065898],[-47.13131522110178,-17.009977275640477],[-47.527977243157856,-17.3881480180928],[-47.263519841820816,-17.61999677418739],[-47.28275624270597,-18.05776850353486],[-47.9617392804933,-18.495605162059427],[-48.27861465305179,-18.33106716741393],[-48.93630953797792,-18.305743689066553],[-49.41625997497205,-18.63808560026808],[-50.01611344514537,-18.599376643044312],[-50.30888044641243,-18.69798678118753],[-50.935323155835626,-19.467213118144013],[-51.04494161307425,-19.73709067307667],[-51.06867102532342,-20.249579388246698],[-51.350374052467735,-20.36270959719269],[-51.87848029044535,-21.14766502539111],[-51.92817797608262,-21.45534233898787],[-52.48624840664231,-22.21471771254701],[-53.10466893923559,-22.621452309139393],[-52.12516669887845,-22.51878995578793],[-51.559065981536335,-22.696695670778713],[-50.89039236285991,-22.79532593319596],[-50.792642268755735,-22.90463174391893],[-49.960888260103005,-22.930381840783767],[-49.594789271544684,-23.366443514063366],[-49.522519071331395,-23.916542527207344],[-49.24091228362084,-24.384644283758735],[-49.20842096851701,-24.700343406372696],[-48.61613695232509,-24.668170869036743],[-48.56703580403161,-24.971665983678722],[-48.21557487821803,-25.076166566061648],[-48.09851952351851,-25.31088874231712],[-47.616292803514696,-24.791698019340206],[-47.00018501457047,-24.3292758195217],[-46.133267325755725,-23.85687710262771],[-45.432266339978156,-23.683684100572762],[-45.17488561413205,-23.499984793567034],[-44.51272640102142,-23.292935091271175],[-44.42238717184819,-22.950207530402416],[-44.139602375683666,-23.034145431209204],[-43.83636286846967,-22.90308533264371],[-43.567549804489836,-23.063342917205038],[-43.16850670622665,-22.915480717420838],[-43.177351169920584,-22.89557182621463],[-43.23788022472129,-22.86156110682286],[-43.01379940031742,-22.97629603984645],[-42.076338743884236,-22.955152461950206],[-41.88659191254603,-22.77693492108251],[-41.997933381137095,-22.608328532036392],[-41.68861039450451,-22.299597451347115],[-40.97458062933827,-21.970143618776913],[-41.06396550041927,-21.48692287425273],[-40.723829024505264,-20.841778138453748]]]},"properties":{"id":2,"nome":"Sudeste","sigla":"SE"}},
{"type":"Feature","geometry":{"type":"Polygon","coordinates":[[[-59.912556815239014,3.1476366221561585],[-59.85001345914657,3.6042547580602484],[-59.52564225349145,3.9671652937410276],[-59.738423687724605,4.421710015752885],[-60.02955022570349,4.700879442544275],[-60.010855090623494,5.087620955219894],[-60.214436215294036,5.270971956880013],[-60.57009167607509,5.196875691719736],[-60.58348026340511,4.956122698127504],[-60.995552123581014,4.518032705798267],[-61.26903999301222,4.54000575668717],[-61.55907498089899,4.254601207516122],[-62.147332698894196,4.079497606467549],[-62.38898878425365,4.1783801510687955],[-62.76591073295853,4.012843865927078],[-62.984277247295,3.610056370479251],[-63.392612258243865,3.980882419200718],[-63.54761248140022,3.8631106965119724],[-64.03501178589599,3.9346890853124044],[-64.28901627474639,4.144217530168873],[-64.55981583070334,4.1023084541019506],[-64.47171200016338,3.782067205909991],[-64.1851226515774,3.5600542954245182],[-64.23302362575212,3.129941224075705],[-63.98603611780926,2.7311093128751147],[-64.05548283126882,2.4980561401367347],[-63.78033286538512,2.3915821442510388],[-63.46506959982174,2.4336687695367787],[-63.39712606462879,2.1472853846450635],[-64.06002547745429,1.931356263588408],[-64.09464741255688,1.6174914741508344],[-65.02163601668116,1.115381373245917],[-65.1644003226533,0.9508592268595106],[-65.73882430849683,0.9999810707617445],[-66.1505442170132,0.7448569369274445],[-66.31791636054113,0.7554348969395261],[-66.85635160203478,1.2306255932672088],[-67.08758993696834,1.1673224608192216],[-67.0968122869011,1.7330106394110498],[-67.27752535164143,1.8761549615962527],[-67.38870467391487,2.244417179998263],[-68.15617562715404,1.7321104378005603],[-69.84150422878864,1.7209184570866216],[-69.84384588032367,1.085632837455268],[-69.32120424797859,1.096133186706591],[-69.13525514835348,0.877623144040944],[-69.2122423300124,0.6100538655964785],[-70.04271805029387,0.5594222049097232],[-70.05705998691369,-0.18632254205573623],[-69.6142334787519,-0.5055946516056096],[-69.61163998987158,-0.7697394850660667],[-69.39830440747039,-1.144234355901639],[-69.69722447473274,-2.9207619669362637],[-69.93500217045808,-4.215987938626644],[-70.03254964492591,-4.354630490113337],[-70.43899643547776,-4.133879112157015],[-70.80755679173897,-4.183209663194616],[-70.9493165421044,-4.379063524837886],[-71.88888239514431,-4.520649170480371],[-72.10034085210476,-4.7020576860436245],[-72.8854522628683,-5.165939744643229],[-72.99314635302832,-5.703463060657604],[-73.23624407295584,-6.031169762251271],[-73.1088347017993,-6.409347416300935],[-73.212849077614,-6.57607402641843],[-73.61775131184308,-6.740583437210819],[-73.96693172567706,-7.35981650836357],[-73.9430155099487,-7.599340790181929],[-73.53674115204024,-8.345494150467397],[-73.27980550588384,-8.474840404327807],[-72.93962453032378,-9.061657271533337],[-73.20754093878857,-9.411047188289803],[-72.71660091665474,-9.410844438118692],[-72.34266185329534,-9.505271061097],[-72.18040876087012,-9.999790392175948],[-71.21234845569272,-9.966583437499047],[-70.56547917877324,-9.426898145330103],[-70.6226533160889,-9.82140398800148],[-70.62157632191153,-10.999458342353398],[-70.20044012724593,-11.05335895217237],[-69.95413599383821,-10.927137443843469],[-69.41593199620384,-10.927001013174644],[-68.90745573796329,-11.018397829883735],[-68.7156129089511,-11.143103615480895],[-68.23769157787542,-10.956333384955009],[-68.02848012635866,-10.655925085185054],[-67.70739110407264,-10.708130846466505],[-67.58759552440111,-10.509852379945588],[-67.18710629813499,-10.340201847006929],[-66.73118267005351,-9.980382944647548],[-66.45888575152378,-9.87523990540018],[-65.92218621499265,-9.753977555224507],[-65.28835735105746,-9.867474188678273],[-65.28913084148658,-10.209712856177852],[-65.4289046644566,-10.48055752322641],[-65.25111627375712,-10.983500783883619],[-65.30862607428658,-11.49286398084737],[-64.41552615529572,-12.44098579582933],[-63.940353640572006,-12.525985106018815],[-63.78567067659795,-12.427492696127631],[-63.37685153922911,-12.655347559459996],[-63.09276614837797,-12.657477511581426],[-62.4125706473967,-13.127107394001065],[-62.114514330897876,-13.16331219348478],[-61.8825565192692,-13.496841395615169],[-61.261703186681025,-13.497003180268079],[-60.70777965664466,-13.692482822223587],[-60.360833078775364,-13.299324293144378],[-60.07857059449835,-12.880736079072168],[-60.02610353313222,-12.561227884494958],[-59.79240233613957,-12.345378925382658],[-60.090242390264926,-11.554482950206717],[-59.92009670122549,-11.397613362116758],[-60.01885252303531,-11.128703240594374],[-60.4595160799759,-10.989462569180796],[-61.52954120323473,-10.978625814440896],[-61.46123699693897,-10.419520142574317],[-61.5996495500832,-10.154438528977213],[-61.47705654441957,-9.626912762749852],[-61.624847063424234,-9.339103253060438],[-61.46811055151094,-8.917145459609348],[-61.57996957998542,-8.798309688735568],[-60.419469947849514,-8.796233719408018],[-58.49983324502063,-8.802438305019542],[-58.291121438651714,-8.073870785456362],[-58.38242512589698,-7.8387065945890475],[-58.058516631521265,-7.4000265546127215],[-57.82831346288392,-7.972516286424041],[-57.642751404396755,-8.213293350033148],[-57.59241759630588,-8.756092454881053],[-57.19234145757808,-8.929665571961856],[-56.99503386567188,-9.233453243520934],[-56.67136979079436,-9.367007138195666],[-54.9950582787993,-9.505017778012304],[-53.58795885070923,-9.610703954880599],[-51.3040273978987,-9.771900719060582],[-50.22434624526551,-9.84075151043438],[-50.60298938557279,-10.660527634435931],[-50.70602176064552,-12.609279134171787],[-49.36903723307815,-13.27416933974513],[-49.118631395011306,-12.789930701220555],[-48.869439307455025,-12.80397723056099],[-48.15109401608823,-13.306105736819916],[-47.43440517810095,-13.267793376062151],[-46.75017651837675,-12.968724106117614],[-46.11388862666913,-12.917537000079117],[-46.26188059249011,-12.831243242345765],[-46.248552791811704,-12.436561101366182],[-46.372457508979814,-12.289846676407862],[-46.31302550566413,-11.539068742850997],[-46.615517456408014,-11.301781591685337],[-46.28299456520422,-10.906334678598478],[-46.210548448682,-10.649254717347377],[-45.697110489217714,-10.263154579123961],[-46.32709709478613,-10.183283817188071],[-46.57282797954851,-9.477358643000446],[-46.75824509822013,-9.380813961693654],[-47.03102090672557,-8.985490274307995],[-46.78200397896205,-8.367689579839496],[-46.5442103692496,-8.318930701157676],[-46.60424630613344,-7.895786522452112],[-47.04307424039651,-8.053195911387665],[-47.497524239219054,-7.478798096918764],[-47.545931772961914,-7.014430735458548],[-47.37838861093872,-6.27047858712515],[-47.55493832059492,-5.4653656918737905],[-47.88513593443315,-5.260332318297274],[-48.363470356768424,-5.168012222671055],[-47.81571782697564,-4.614364711870727],[-47.58104417546157,-4.519572250670931],[-47.31846940239101,-4.046563913486015],[-47.08768976360045,-3.8550941597093393],[-47.037358772205536,-3.5625287116847493],[-46.65166395950514,-2.996167656055442],[-46.667663908736884,-2.7336775550518086],[-46.433503298769374,-2.514475081888764],[-46.29141747637132,-2.164219645966318],[-46.10373813320012,-1.2017482766562697],[-46.147327292835016,-1.1250013424080225],[-46.580529456886296,-0.9736545104220091],[-46.95145363606387,-0.7340603467462021],[-47.32207627415732,-0.5938424372033995],[-47.999989131027135,-0.6639584695457674],[-48.472118113879716,-0.4987542260774995],[-48.41182255487979,-0.2569104940937253],[-48.91313431325197,-0.23279817952392978],[-49.47514864829965,0.07929306323693043],[-49.67718616103627,0.3662929650534336],[-50.06080034103613,0.3387532018183915],[-50.09243258079973,0.7825399996546356],[-49.94038266640485,0.99375094194841],[-49.92129969521627,1.7042602337588855],[-50.23771484408046,1.8035580468323271],[-50.45578116681539,2.204046676115097],[-50.66533517446723,2.1512130952263386],[-50.9409974737262,2.814632830999114],[-51.08715319896907,3.3920586186342434],[-51.07514905346358,3.890906408066627],[-51.25154565073638,4.191708753243373],[-51.553550363665835,4.415152760830199],[-51.64593887208366,4.044961060614933],[-51.92371704539418,3.78387211256117],[-52.32839598736979,3.080644399812501],[-52.66437834374519,2.380809506575485],[-52.983961680711865,2.1576426875686807],[-53.36705700058963,2.321063153603316],[-53.82351336018032,2.317989317116411],[-54.18852389068504,2.1791938861261344],[-54.436022214407146,2.2102617544479766],[-55.00324275841936,2.5913953161008916],[-55.747226403400894,2.412454282029621],[-56.04803144909614,2.2326665441093243],[-55.99834892109841,1.8318607084092828],[-56.48249971423911,1.9547520085990644],[-56.80193764090186,1.871617650326862],[-57.09873522615937,2.0201977755706273],[-57.432881607727204,1.9064565795835229],[-57.533683500638645,1.7086328702413849],[-58.31649013347184,1.5705864220857413],[-58.49573356676016,1.2684403459954532],[-59.26875626526071,1.4008806715259996],[-59.74536428452455,1.8523120387992904],[-59.71873181008264,2.2374946590175457],[-59.98963001935074,2.686570489667432],[-59.912556815239014,3.1476366221561585]]]},"properties":{"id":3,"nome":"Norte","sigla":"N"}},
{"type":"Feature","geometry":{"type":"Polygon","coordinates":[[[-39.670192140698134,-18.348743440010594],[-39.49225392314585,-17.997490204359494],[-39.27076961572895,-17.87113112003152],[-39.21259887025625,-17.1681538136606],[-38.92265084028506,-15.708970536996084],[-39.06463823495639,-14.636648172138605],[-38.89014516238444,-13.623929627773045],[-38.93212031646645,-13.217420914225539],[-38.34747931511049,-12.950453014869941],[-38.00364276175766,-12.576892203136783],[-37.62203433072582,-11.994964810043125],[-37.41185469167681,-11.542963311932697],[-36.93684609635969,-10.830873936974966],[-36.40578661568038,-10.517260234115568],[-35.81234361598938,-9.731779033476327],[-35.30706608480504,-9.1929066972557],[-34.998701324567214,-8.53915145998177],[-34.819094370727136,-7.9173526762058755],[-34.80247997376464,-7.210303743184496],[-34.97209886765179,-6.437384968740987],[-35.260707805543916,-5.480447303542184],[-35.48862941502256,-5.157973017874774],[-35.94891891524254,-5.043817636057696],[-36.6894673973992,-5.091867581315648],[-37.166727280557026,-4.931755071003636],[-37.32490851119987,-4.701287470052447],[-37.59256920345836,-4.625231192212582],[-38.117898849645364,-4.145301749807914],[-38.46622602930633,-3.7137503326665127],[-38.666507334568614,-3.6743692277500255],[-39.25215347719049,-3.2217545301932886],[-39.999410267540895,-2.8427367504953915],[-40.01804260828007,-2.836984811421101],[-40.43552912044834,-2.8109161313723705],[-41.338443050820246,-2.927060982833235],[-41.8287930814942,-2.7217627302194587],[-42.54402921933075,-2.6869491975393394],[-42.744240601598925,-2.557434736365056],[-43.614769130652945,-2.21901207037834],[-43.92459258914553,-2.510509427603901],[-44.325584377235394,-2.499677136948314],[-44.40938876534547,-2.229354186263049],[-44.41444621439672,-2.2279097185795895],[-44.40938876534547,-2.229354186263049],[-44.566705601019486,-1.8521335728814667],[-44.598517860464916,-1.8547210843082458],[-44.61375525074612,-1.8301062509760293],[-44.64657247608997,-1.7642697861506178],[-44.64944144425288,-1.7833706253898713],[-44.64657247608997,-1.7642697861506178],[-44.72645983299495,-1.8009970190553177],[-44.75609511727955,-1.728142566134821],[-44.78402240424535,-1.7454104367700376],[-44.75609511727955,-1.728142566134821],[-44.779870938506335,-1.6753339576226922],[-44.6977700968363,-1.5932210617162086],[-44.946378158077756,-1.4915483795503017],[-44.9518066277289,-1.4994933281110658],[-44.946378158077756,-1.4915483795503017],[-45.06383223914866,-1.4805995020110876],[-45.06478770972359,-1.502231843950202],[-45.06383223914866,-1.4805995020110876],[-45.070152678129325,-1.453052214349201],[-45.068668690560386,-1.4660321095025457],[-45.09146749203323,-1.503087328345807],[-45.0969064593677,-1.4681956181275957],[-45.10648041164207,-1.3939766864368595],[-45.10367843335999,-1.4021875995763051],[-45.37154427894222,-1.685203491119172],[-45.36459431475257,-1.6743556004144073],[-45.326354146699515,-1.5059603537872779],[-45.30016637843659,-1.4221949887526948],[-45.310478810784815,-1.413809540028517],[-45.30016637843659,-1.4221949887526948],[-45.33418760793809,-1.3569419736760446],[-45.338847567480386,-1.3498205283883278],[-45.40351156068777,-1.449190291771193],[-45.4188974270174,-1.471129648817003],[-45.480768928227526,-1.533396178512105],[-45.515137704498564,-1.406052153078464],[-45.55760987654829,-1.328899223582959],[-45.55429390828959,-1.3178993270987547],[-45.728211545212126,-1.3407141635896302],[-45.73803396079089,-1.2370254282000548],[-45.77960662300909,-1.2646067428370737],[-45.814430362811706,-1.2547148317273924],[-45.86203698814992,-1.2705477050629888],[-46.10373813320012,-1.2017482766562697],[-46.29141747637132,-2.164219645966318],[-46.433503298769374,-2.514475081888764],[-46.667663908736884,-2.7336775550518086],[-46.65166395950514,-2.996167656055442],[-47.037358772205536,-3.5625287116847493],[-47.08768976360045,-3.8550941597093393],[-47.31846940239101,-4.046563913486015],[-47.58104417546157,-4.519572250670931],[-47.81571782697564,-4.614364711870727],[-48.363470356768424,-5.168012222671055],[-47.88513593443315,-5.260332318297274],[-47.55493832059492,-5.4653656918737905],[-47.37838861093872,-6.27047858712515],[-47.545931772961914,-7.014430735458548],[-47.497524239219054,-7.478798096918764],[-47.04307424039651,-8.053195911387665],[-46.60424630613344,-7.895786522452112],[-46.5442103692496,-8.318930701157676],[-46.78200397896205,-8.367689579839496],[-47.03102090672557,-8.985490274307995],[-46.75824509822013,-9.380813961693654],[-46.57282797954851,-9.477358643000446],[-46.32709709478613,-10.183283817188071],[-45.697110489217714,-10.263154579123961],[-46.210548448682,-10.649254717347377],[-46.28299456520422,-10.906334678598478],[-46.615517456408014,-11.301781591685337],[-46.31302550566413,-11.539068742850997],[-46.372457508979814,-12.289846676407862],[-46.248552791811704,-12.436561101366182],[-46.26188059249011,-12.831243242345765],[-46.11388862666913,-12.917537000079117],[-46.32973840657888,-13.252376794473072],[-46.213934589742074,-13.400278228587114],[-46.23596979374166,-14.106798098434462],[-45.962840686649805,-14.285462567697751],[-46.03698609429731,-14.873636251461171],[-45.75119845410634,-15.121761351894895],[-44.55678649980334,-14.336592081318129],[-44.24019975430693,-14.240255672835248],[-43.782788890582395,-14.338798863878338],[-43.88309705831386,-14.6527811096445],[-43.51075341700666,-14.796125669218625],[-43.310822272277576,-14.669298122472899],[-42.9522902147606,-14.707951372524235],[-42.26439783418642,-15.124719713769524],[-41.80031380882902,-15.100641668048192],[-41.35602646482683,-15.499830987510558],[-41.330808810743235,-15.744211953161939],[-40.698961884223706,-15.668160961495662],[-40.21843577822494,-15.835312148657653],[-39.85643447623599,-16.113360851399978],[-40.27511454424717,-16.57355668558182],[-40.54508196714101,-16.983822589071988],[-40.59934073890766,-17.389873234093933],[-40.22354341014898,-17.733587043071093],[-40.2220174780753,-17.97994758218094],[-39.670192140698134,-18.348743440010594]]]},"properties":{"id":4,"nome":"Nordeste","sigla":"NE"}},
{"type":"Feature","geometry":{"type":"Polygon","coordinates":[[[-53.10466893923559,-22.621452309139393],[-52.48624840664231,-22.21471771254701],[-51.92817797608262,-21.45534233898787],[-51.87848029044535,-21.14766502539111],[-51.350374052467735,-20.36270959719269],[-51.06867102532342,-20.249579388246698],[-51.04494161307425,-19.73709067307667],[-50.935323155835626,-19.467213118144013],[-50.30888044641243,-18.69798678118753],[-50.01611344514537,-18.599376643044312],[-49.41625997497205,-18.63808560026808],[-48.93630953797792,-18.305743689066553],[-48.27861465305179,-18.33106716741393],[-47.9617392804933,-18.495605162059427],[-47.28275624270597,-18.05776850353486],[-47.263519841820816,-17.61999677418739],[-47.527977243157856,-17.3881480180928],[-47.13131522110178,-17.009977275640477],[-47.249708944981805,-16.66635937065898],[-47.443964682678384,-16.54031088756523],[-47.28730348694926,-16.009224523780805],[-46.824426911837435,-15.885267365324134],[-46.94865855496843,-15.554147926881312],[-46.78142038347086,-15.018878191292089],[-46.03698609429731,-14.873636251461171],[-45.962840686649805,-14.285462567697751],[-46.23596979374166,-14.106798098434462],[-46.213934589742074,-13.400278228587114],[-46.32973840657888,-13.252376794473072],[-46.11388862666913,-12.917537000079117],[-46.75017651837675,-12.968724106117614],[-47.43440517810095,-13.267793376062151],[-48.15109401608823,-13.306105736819916],[-48.869439307455025,-12.80397723056099],[-49.118631395011306,-12.789930701220555],[-49.36903723307815,-13.27416933974513],[-50.70602176064552,-12.609279134171787],[-50.60298938557279,-10.660527634435931],[-50.22434624526551,-9.84075151043438],[-51.3040273978987,-9.771900719060582],[-53.58795885070923,-9.610703954880599],[-54.9950582787993,-9.505017778012304],[-56.67136979079436,-9.367007138195666],[-56.99503386567188,-9.233453243520934],[-57.19234145757808,-8.929665571961856],[-57.59241759630588,-8.756092454881053],[-57.642751404396755,-8.213293350033148],[-57.82831346288392,-7.972516286424041],[-58.058516631521265,-7.4000265546127215],[-58.38242512589698,-7.8387065945890475],[-58.291121438651714,-8.073870785456362],[-58.49983324502063,-8.802438305019542],[-60.419469947849514,-8.796233719408018],[-61.57996957998542,-8.798309688735568],[-61.46811055151094,-8.917145459609348],[-61.624847063424234,-9.339103253060438],[-61.47705654441957,-9.626912762749852],[-61.5996495500832,-10.154438528977213],[-61.46123699693897,-10.419520142574317],[-61.52954120323473,-10.978625814440896],[-60.4595160799759,-10.989462569180796],[-60.01885252303531,-11.128703240594374],[-59.92009670122549,-11.397613362116758],[-60.090242390264926,-11.554482950206717],[-59.79240233613957,-12.345378925382658],[-60.02610353313222,-12.561227884494958],[-60.07857059449835,-12.880736079072168],[-60.360833078775364,-13.299324293144378],[-60.70777965664466,-13.692482822223587],[-60.467479867920076,-13.812309364795375],[-60.45244241386495,-14.313466243642956],[-60.271537354954035,-14.619837160666181],[-60.17100568018465,-16.2652163861956],[-58.42968263178451,-16.320738216166998],[-58.394895203947684,-17.183656626974905],[-58.04274072085741,-17.49218305450681],[-57.78502077414762,-17.55505819514296],[-57.55712198192483,-18.239850929849077],[-57.78354827589719,-19.03301540717595],[-58.13116182472547,-19.757998093475663],[-58.012220992688576,-20.612473139677363],[-57.86325558193477,-20.745348251242355],[-57.8528498201331,-21.31792372204575],[-57.96622188056568,-21.52502882437583],[-58.00520082257016,-22.049857629302323],[-57.32247385822156,-22.242259446678663],[-56.69294676236947,-22.227450609916318],[-56.39738781632467,-22.078094290108247],[-56.20941097442087,-22.276398558176734],[-55.85243000474082,-22.281485492542842],[-55.6240789581208,-22.627763569339162],[-55.660016295130475,-22.881803737884248],[-55.52952111067453,-23.630383748899238],[-55.33655916414746,-23.993538894380546],[-54.93955369368442,-23.963346756522846],[-54.670806206883356,-23.811711456582906],[-54.287103586201894,-24.06950989510664],[-54.12917610530254,-23.981628231307027],[-53.982333047555855,-23.459526652530098],[-53.770580953087475,-23.3716508596737],[-53.6069001051165,-22.95085596598093],[-53.10466893923559,-22.621452309139393]]]},"properties":{"id":5,"nome":"Centro-Oeste","sigla":"CO"}}
]}