{"type":"FeatureCollection", "features": [
{"type":"Feature","geometry":{"type":"Polygon","coordinates":[[[-37.77097558160129,-9.293012280321847],[-37.8423129926054,-9.222453888220098],[-37.9543041135979,-9.10952492973227],[-38.011012914903006,-9.15602801252906],[-37.960843719575294,-9.245583934346449],[-38.00268409684399,-9.336843626005479],[-38.00722279007519,-9.33850004603044],[-37.876532568104594,-9.412955422451429],[-37.77097558160129,-9.293012280321847]]]},"properties":{"ID":1,"CD_GEOCODM":"2700102","NM_MUNICIP":"ÁGUA BRANCA"}},
{"type":"Feature","geometry":{"type":"Polygon","coordinates":[[[-36.388330724597694,-9.651681999121589],[-36.342715698373894,-9.738552790935369],[-36.2466027936692,-9.732447089946739],[-36.2539094434013,-9.623889344177961],[-36.35081208418539,-9.592367420632858],[-36.394164739849586,-9.64836759790083],[-36.388330724597694,-9.651681999121589]]]},"properties":{"ID":2,"CD_GEOCODM":"2700201","NM_MUNICIP":"ANADIA"}},
{"type":"Feature","geometry":{"type":"Polygon","coordinates":[[[-36.6898881688429,-9.634558330349638],[-36.755861737896595,-9.70526194971427],[-36.7212760217397,-9.757844231740208],[-36.7169216576695,-9.764463282501577],[-36.69083036646809,-9.804108674827948],[-36.64163337099339,-9.827328135115149],[-36.6218342435197,-9.86038562994818],[-36.6190936995453,-9.8623968726097],[-36.591150049235694,-9.87152048742244],[-36.591193724840295,-9.87182679974341],[-36.59138560931079,-9.873172552779028],[-36.5753452896617,-9.87826975007377],[-36.573701128271395,-9.87747630072105],[-36.5632079224621,-9.874284322467119],[-36.559026078578995,-9.8748635055363],[-36.54491595671179,-9.88018061411265],[-36.5438618992782,-9.88051780628916],[-36.5415400613484,-9.881804815260377],[-36.5415996145707,-9.881409139613819],[-36.54178544819369,-9.88017444842411],[-36.54184376809269,-9.87954018443828],[-36.54188917754129,-9.87904632936704],[-36.541955494208,-9.871596453885488],[-36.5538350078066,-9.856364713373189],[-36.554881024406896,-9.84225777995956],[-36.5549050303966,-9.839283122008649],[-36.554906722117295,-9.839015587661109],[-36.5571815280297,-9.76683692026159],[-36.55691721060059,-9.766201261370458],[-36.5656104822457,-9.759098412677417],[-36.572976807156394,-9.74951638175449],[-36.58120713876879,-9.70072561679363],[-36.58246939017279,-9.700069915232067],[-36.58350256549599,-9.700320235232308],[-36.58469584081759,-9.699987226250048],[-36.58500264743999,-9.698968704517029],[-36.585843134554,-9.69847711282419],[-36.5870838912884,-9.697063476155968],[-36.585861463974,-9.694622281942017],[-36.60947136587809,-9.654222258808797],[-36.6898881688429,-9.634558330349638]]]},"properties":{"ID":3,"CD_GEOCODM":"2700300","NM_MUNICIP":"ARAPIRACA"}},
{"type":"Feature","geometry":{"type":"Polygon","coordinates":[[[-35.9287746329221,-9.374604544683308],[-36.0143783527767,-9.4009720033627],[-36.15543818156209,-9.472122037880808],[-36.20805125161249,-9.455437432526338],[-36.216988559512004,-9.474031361678588],[-36.21866372896319,-9.564115220187727],[-36.19157164820719,-9.599854580484887],[-36.1817454586309,-9.61281035483097],[-36.00041081266659,-9.574397877679907],[-35.959740556407,-9.52801040308216],[-35.93279479597929,-9.479605021671897],[-35.9287746329221,-9.374604544683308]]]},"properties":{"ID":4,"CD_GEOCODM":"2700409","NM_MUNICIP":"ATALAIA"}},
{"type":"Feature","geometry":{"type":"Polygon","coordinates":[[[-35.524504446859396,-9.441939637015757],[-35.4637636410221,-9.34773121389955],[-35.51366755374359,-9.30772913229303],[-35.5141849482801,-9.346832846457879],[-35.68647888003329,-9.370716055221838],[-35.6876860596396,-9.370847082577818],[-35.67679319026449,-9.398440997910988],[-35.549625255669795,-9.403590821504299],[-35.531481476461494,-9.435175117261707],[-35.5310910964366,-9.43551965160026],[-35.5295946268229,-9.437066675862049],[-35.52945869245009,-9.437328834982058],[-35.528747766631994,-9.43683439925804],[-35.52859337617819,-9.436673749731767],[-35.529003226799006,-9.43604333093494],[-35.5286638747647,-9.435851532235688],[-35.5282116806637,-9.43590199331857],[-35.52781291574689,-9.436099809430061],[-35.52791374150689,-9.43694483590846],[-35.527526482643296,-9.43682241287187],[-35.52551535649019,-9.440574042040318],[-35.5251476313762,-9.44085189563878],[-35.524504446859396,-9.441939637015757]]]},"properties":{"ID":5,"CD_GEOCODM":"2700508","NM_MUNICIP":"BARRA DE SANTO ANTÔNIO"}},
{"type":"Feature","geometry":{"type":"Polygon","coordinates":[[[-35.902790742891895,-9.87007572342636],[-35.85504738722149,-9.788186634924237],[-35.8624954581762,-9.791679339161398],[-35.90558919903289,-9.81188670736335],[-36.0045628895307,-9.767097407584629],[-36.026624832328594,-9.811217406456379],[-35.902790742891895,-9.87007572342636]]]},"properties":{"ID":6,"CD_GEOCODM":"2700607","NM_MUNICIP":"BARRA DE SÃO MIGUEL"}},
{"type":"Feature","geometry":{"type":"Polygon","coordinates":[[[-37.21944853730359,-9.709827010850937],[-37.10303114483379,-9.791304616185169],[-37.03695553831369,-9.807080257801477],[-37.0371962150747,-9.805621713973458],[-36.993481984837686,-9.720735541128398],[-37.0004470049731,-9.71486767601531],[-37.031711039006,-9.68841757607057],[-37.052079124234496,-9.61976192830986],[-37.15978415000329,-9.602303338417709],[-37.1634526508373,-9.60800787632072],[-37.190976046605,-9.69039124335255],[-37.21944853730359,-9.709827010850937]]]},"properties":{"ID":7,"CD_GEOCODM":"2700706","NM_MUNICIP":"BATALHA"}},
{"type":"Feature","geometry":{"type":"Polygon","coordinates":[[[-36.48821970698789,-9.50223854239098],[-36.53205880609549,-9.53209018897999],[-36.47372303815149,-9.60261936774694],[-36.48821970698789,-9.50223854239098]]]},"properties":{"ID":8,"CD_GEOCODM":"2700805","NM_MUNICIP":"BELÉM"}},
{"type":"Feature","geometry":{"type":"Polygon","coordinates":[[[-37.099198048368194,-9.846135266043898],[-37.0413356287539,-9.808833386464979],[-37.0377067225797,-9.808249728697248],[-37.036923362410505,-9.807275249117879],[-37.03695553831369,-9.807080257801477],[-37.10303114483379,-9.791304616185169],[-37.21944853730359,-9.709827010850937],[-37.23967149081369,-9.73683682308804],[-37.297480956265005,-9.78339783382009],[-37.29719959340899,-9.827599541746647],[-37.2355425508095,-9.896037728392699],[-37.132645401858994,-9.9138002883352],[-37.105061207755895,-9.850148847760938],[-37.10383682630069,-9.849125316965939],[-37.099198048368194,-9.846135266043898]]]},"properties":{"ID":9,"CD_GEOCODM":"2700904","NM_MUNICIP":"BELO MONTE"}},
{"type":"Feature","geometry":{"type":"Polygon","coordinates":[[[-36.2466027936692,-9.732447089946739],[-36.0787135220872,-9.69440003562196],[-36.07508140151289,-9.67373448919172],[-36.1817454586309,-9.61281035483097],[-36.19157164820719,-9.599854580484887],[-36.2539094434013,-9.623889344177961],[-36.2466027936692,-9.732447089946739]]]},"properties":{"ID":10,"CD_GEOCODM":"2701001","NM_MUNICIP":"BOCA DA MATA"}},
{"type":"Feature","geometry":{"type":"Polygon","coordinates":[[[-35.8885731643453,-9.13830826674851],[-36.058610061079705,-9.21544952486282],[-36.180560935466005,-9.213292015374698],[-36.065260636635486,-9.28449720934212],[-36.0055224711638,-9.267057117422109],[-35.8885731643453,-9.13830826674851]]]},"properties":{"ID":11,"CD_GEOCODM":"2701100","NM_MUNICIP":"BRANQUINHA"}},
{"type":"Feature","geometry":{"type":"Polygon","coordinates":[[[-36.97695291369449,-9.36138841244329],[-37.03021886111149,-9.392338240172379],[-37.0170959767937,-9.429509152148377],[-36.9806363129198,-9.486848159100948],[-36.9036985235541,-9.524344063268249],[-36.8370597906478,-9.53191596696902],[-36.83297347871239,-9.506766883108376],[-36.84164118033999,-9.46783939238043],[-36.8429749995983,-9.465110645177838],[-36.826536399558094,-9.390959304446767],[-36.936850463163495,-9.377425066813899],[-36.97695291369449,-9.36138841244329]]]},"properties":{"ID":12,"CD_GEOCODM":"2701209","NM_MUNICIP":"CACIMBINHAS"}},
{"type":"Feature","geometry":{"type":"Polygon","coordinates":[[[-36.1819096248385,-9.308998169666648],[-36.17852426400739,-9.358284695081359],[-36.2111238809523,-9.45299792854103],[-36.20805125161249,-9.455437432526338],[-36.15543818156209,-9.472122037880808],[-36.108825846785294,-9.355063661467508],[-36.11216318012839,-9.31142742501925],[-36.1819096248385,-9.308998169666648]]]},"properties":{"ID":13,"CD_GEOCODM":"2701308","NM_MUNICIP":"CAJUEIRO"}},
{"type":"Feature","geometry":{"type":"Polygon","coordinates":[[[-35.579141431095096,-8.911646749753348],[-35.491659154467,-8.941028223987079],[-35.536346626681194,-8.888712720604168],[-35.539816829330604,-8.821081779771959],[-35.5701749357424,-8.84279076715993],[-35.579141431095096,-8.911646749753348]]]},"properties":{"ID":14,"CD_GEOCODM":"2701357","NM_MUNICIP":"CAMPESTRE"}},
{"type":"Feature","geometry":{"type":"Polygon","coordinates":[[[-36.2466027936692,-9.732447089946739],[-36.342715698373894,-9.738552790935369],[-36.3861791731878,-9.77028010831032],[-36.39399585708449,-9.77407571414998],[-36.31300041953779,-9.886931299332737],[-36.277305765021595,-9.899433208149919],[-36.1872409130461,-9.79498152255049],[-36.2466027936692,-9.732447089946739]]]},"properties":{"ID":15,"CD_GEOCODM":"2701407","NM_MUNICIP":"CAMPO ALEGRE"}},
{"type":"Feature","geometry":{"type":"Polygon","coordinates":[[[-36.7698291500739,-9.908779545448997],[-36.79428092562739,-9.94891186281841],[-36.79488962426389,-9.950031664651657],[-36.79617393045429,-9.95620103503176],[-36.79732388145399,-9.957267569896729],[-36.798406285412,-9.9589536565192],[-36.84308093397701,-10.0101998645106],[-36.71372726690919,-10.0432152226637],[-36.6856876859143,-9.962678450691808],[-36.692358191126004,-9.912220806704639],[-36.7518008597892,-9.883102144676798],[-36.75775215146939,-9.894534512740258],[-36.758750489216794,-9.896871445493979],[-36.76797367640289,-9.906880615975897],[-36.7698291500739,-9.908779545448997]]]},"properties":{"ID":16,"CD_GEOCODM":"2701506","NM_MUNICIP":"CAMPO GRANDE"}},
{"type":"Feature","geometry":{"type":"Polygon","coordinates":[[[-37.53010063356349,-8.963069653751798],[-37.5427264682492,-9.00064903910295],[-37.57380793206809,-9.042989830187011],[-37.585732051289895,-9.059237897887627],[-37.69245270232909,-9.176793448586007],[-37.6218743705833,-9.19434067343892],[-37.587792301465,-9.28882637109239],[-37.466032203645796,-9.208241063876738],[-37.42190796917559,-9.160700572387519],[-37.422586649436994,-9.158793561881687],[-37.42178597708259,-9.092347608472238],[-37.42052373664319,-9.085589782649837],[-37.4008254241718,-9.05218164653072],[-37.469371400562096,-9.02767532165997],[-37.53010063356349,-8.963069653751798]]]},"properties":{"ID":17,"CD_GEOCODM":"2701605","NM_MUNICIP":"CANAPI"}},
{"type":"Feature","geometry":{"type":"Polygon","coordinates":[[[-36.0143783527767,-9.4009720033627],[-36.065260636635486,-9.28449720934212],[-36.180560935466005,-9.213292015374698],[-36.1819096248385,-9.308998169666648],[-36.11216318012839,-9.31142742501925],[-36.108825846785294,-9.355063661467508],[-36.15543818156209,-9.472122037880808],[-36.0143783527767,-9.4009720033627]]]},"properties":{"ID":18,"CD_GEOCODM":"2701704","NM_MUNICIP":"CAPELA"}},
{"type":"Feature","geometry":{"type":"Polygon","coordinates":[[[-37.26983878368959,-9.45348839590012],[-37.3318690828539,-9.42410064765425],[-37.446257909238696,-9.471894586594328],[-37.445338334419006,-9.476627735069297],[-37.3730976921382,-9.524782434744868],[-37.26983878368959,-9.45348839590012]]]},"properties":{"ID":19,"CD_GEOCODM":"2701803","NM_MUNICIP":"CARNEIROS"}},
{"type":"Feature","geometry":{"type":"Polygon","coordinates":[[[-36.180560935466005,-9.213292015374698],[-36.28776026021549,-9.173302434689617],[-36.35593272431359,-9.218385970993808],[-36.32658440730019,-9.284631760028969],[-36.299326914369004,-9.312392263828468],[-36.23677505967849,-9.29130850919777],[-36.180560935466005,-9.213292015374698]]]},"properties":{"ID":20,"CD_GEOCODM":"2701902","NM_MUNICIP":"CHÃ PRETA"}},
{"type":"Feature","geometry":{"type":"Polygon","coordinates":[[[-36.5738861884367,-9.56540298713313],[-36.624661839163096,-9.59582950723534],[-36.60947136587809,-9.654222258808797],[-36.585861463974,-9.694622281942017],[-36.5870838912884,-9.697063476155968],[-36.585843134554,-9.69847711282419],[-36.58500264743999,-9.698968704517029],[-36.58469584081759,-9.699987226250048],[-36.58350256549599,-9.700320235232308],[-36.57779185037509,-9.695498704040396],[-36.57750002077519,-9.695184805466027],[-36.57729862785909,-9.69439251271831],[-36.57702543813089,-9.69331776667142],[-36.5361052537054,-9.663075209267507],[-36.5738861884367,-9.56540298713313]]]},"properties":{"ID":21,"CD_GEOCODM":"2702009","NM_MUNICIP":"COITÉ DO NÓIA"}},
{"type":"Feature","geometry":{"type":"Polygon","coordinates":[[[-35.8269523487393,-8.870094249859179],[-35.83456667251319,-8.98428904552771],[-35.74406171268859,-9.012935772524457],[-35.682666440430694,-9.029313319260961],[-35.7135724543994,-8.9755003062556],[-35.65198578047179,-8.88225647645734],[-35.748403512089695,-8.917152126905119],[-35.8269523487393,-8.870094249859179]]]},"properties":{"ID":22,"CD_GEOCODM":"2702108","NM_MUNICIP":"COLÔNIA LEOPOLDINA"}},
{"type":"Feature","geometry":{"type":"Polygon","coordinates":[[[-35.7911627078378,-9.68057988635374],[-35.7936892292843,-9.60025655139913],[-35.86765697991659,-9.626591978019498],[-35.7911627078378,-9.68057988635374]]]},"properties":{"ID":23,"CD_GEOCODM":"2702207","NM_MUNICIP":"COQUEIRO SECO"}},
{"type":"Feature","geometry":{"type":"Polygon","coordinates":[[[-36.27215879487639,-10.275072931432899],[-36.08877378523289,-10.094960288733699],[-36.03494876498462,-10.057112677692658],[-36.123817405357215,-9.933842414821072],[-36.2811039022684,-9.935052375977786],[-36.30428129299399,-10.031134508048098],[-36.45363848954919,-10.0383536569245],[-36.36204960139919,-10.1215877453614],[-36.33815195241789,-10.1859159178318],[-36.386435872471,-10.2367992475039],[-36.27215879487639,-10.275072931432899]]]},"properties":{"ID":24,"CD_GEOCODM":"2702306","NM_MUNICIP":"CORURIPE"}},
{"type":"Feature","geometry":{"type":"Polygon","coordinates":[[[-36.83145091340339,-9.551934565470667],[-36.8881716982677,-9.599407397348308],[-36.9029156345394,-9.625965793403509],[-36.7946229758402,-9.710381922978389],[-36.7941625791331,-9.710606631271798],[-36.7761773388752,-9.728814353221598],[-36.755861737896595,-9.70526194971427],[-36.6898881688429,-9.634558330349638],[-36.68054607822489,-9.602447254443689],[-36.78555597553439,-9.55021927428293],[-36.83145091340339,-9.551934565470667]]]},"properties":{"ID":25,"CD_GEOCODM":"2702355","NM_MUNICIP":"CRAÍBAS"}},
{"type":"Feature","geometry":{"type":"Polygon","coordinates":[[[-38.15636796960449,-9.24938545224284],[-38.23758893517619,-9.32979343746926],[-38.20256852199529,-9.419827998399057],[-38.0777596560179,-9.441106676185],[-38.022154846693695,-9.46999093609546],[-37.989330174891194,-9.52735869999486],[-37.89414167738029,-9.539527307571287],[-37.89667813928409,-9.45022106109078],[-37.876532568104594,-9.412955422451429],[-38.00722279007519,-9.33850004603044],[-38.12313941636339,-9.26946829222969],[-38.12527676401119,-9.268171025074508],[-38.1261452960827,-9.267643867908127],[-38.127667525454086,-9.26671994794205],[-38.15636796960449,-9.24938545224284]]]},"properties":{"ID":26,"CD_GEOCODM":"2702405","NM_MUNICIP":"DELMIRO GOUVEIA"}},
{"type":"Feature","geometry":{"type":"Polygon","coordinates":[[[-37.0575862292318,-9.317540266993039],[-37.1488624477026,-9.435970827782619],[-37.1031999415182,-9.45633051560592],[-37.03021886111149,-9.392338240172379],[-36.97695291369449,-9.36138841244329],[-37.0575862292318,-9.317540266993039]]]},"properties":{"ID":27,"CD_GEOCODM":"2702504","NM_MUNICIP":"DOIS RIACHOS"}},
{"type":"Feature","geometry":{"type":"Polygon","coordinates":[[[-36.7968326448882,-9.280423176368657],[-36.802916943247396,-9.368053227925287],[-36.826536399558094,-9.390959304446767],[-36.8429749995983,-9.465110645177838],[-36.84164118033999,-9.46783939238043],[-36.83297347871239,-9.506766883108376],[-36.7936612905965,-9.485465820563928],[-36.7089492053653,-9.48510119162269],[-36.720414225434396,-9.34847010920953],[-36.69974748511629,-9.293005800069029],[-36.7968326448882,-9.280423176368657]]]},"properties":{"ID":28,"CD_GEOCODM":"2702553","NM_MUNICIP":"ESTRELA DE ALAGOAS"}},
{"type":"Feature","geometry":{"type":"Polygon","coordinates":[[[-36.69083036646809,-9.804108674827948],[-36.7518008597892,-9.883102144676798],[-36.692358191126004,-9.912220806704639],[-36.6856876859143,-9.962678450691808],[-36.646606212962595,-9.986180197071128],[-36.6135268107282,-9.951076619397028],[-36.591150049235694,-9.87152048742244],[-36.6190936995453,-9.8623968726097],[-36.6218342435197,-9.86038562994818],[-36.64163337099339,-9.827328135115149],[-36.69083036646809,-9.804108674827948]]]},"properties":{"ID":29,"CD_GEOCODM":"2702603","NM_MUNICIP":"FEIRA GRANDE"}},
{"type":"Feature","geometry":{"type":"Polygon","coordinates":[[[-36.386435872471,-10.2367992475039],[-36.392631846105004,-10.309995135488599],[-36.302241571864485,-10.342639807746398],[-36.27215879487639,-10.275072931432899],[-36.386435872471,-10.2367992475039]]]},"properties":{"ID":30,"CD_GEOCODM":"2702702","NM_MUNICIP":"FELIZ DESERTO"}},
{"type":"Feature","geometry":{"type":"Polygon","coordinates":[[[-35.768876678903,-9.146275717180277],[-35.8885731643453,-9.13830826674851],[-35.836350964283,-9.264542465817406],[-35.76901695104719,-9.309006617549539],[-35.76960553997509,-9.389593448055649],[-35.6876860596396,-9.370847082577818],[-35.68647888003329,-9.370716055221838],[-35.693319706587886,-9.26025692530089],[-35.72493904909609,-9.12534622808717],[-35.740010274434496,-9.1339850153513],[-35.748563673302996,-9.137315646404087],[-35.7514194289097,-9.1384942271509],[-35.7521960083823,-9.138695168893538],[-35.7523348064793,-9.13873108322359],[-35.754728509858495,-9.13935045953388],[-35.7606920203185,-9.14174369387139],[-35.768876678903,-9.146275717180277]]]},"properties":{"ID":31,"CD_GEOCODM":"2702801","NM_MUNICIP":"FLEXEIRAS"}},
{"type":"Feature","geometry":{"type":"Polygon","coordinates":[[[-36.901862635434995,-9.77098328860555],[-36.901866876000895,-9.77109069919511],[-36.9229779814319,-9.8819957943081],[-36.8811942384645,-9.90286326331493],[-36.849992653117795,-9.928870382464797],[-36.80039144199209,-9.95903002572447],[-36.7984245730207,-9.958954360045638],[-36.798406285412,-9.9589536565192],[-36.79732388145399,-9.957267569896729],[-36.79617393045429,-9.95620103503176],[-36.79488962426389,-9.950031664651657],[-36.79428092562739,-9.94891186281841],[-36.7698291500739,-9.908779545448997],[-36.76797367640289,-9.906880615975897],[-36.758750489216794,-9.896871445493979],[-36.75775215146939,-9.894534512740258],[-36.7518008597892,-9.883102144676798],[-36.7761773388752,-9.728814353221598],[-36.7941625791331,-9.710606631271798],[-36.7946229758402,-9.710381922978389],[-36.9029156345394,-9.625965793403509],[-36.937975741775205,-9.625703202246747],[-36.9694981620606,-9.694135601260907],[-36.9006367721303,-9.739933022536917],[-36.901862635434995,-9.77098328860555]]]},"properties":{"ID":32,"CD_GEOCODM":"2702900","NM_MUNICIP":"GIRAU DO PONCIANO"}},
{"type":"Feature","geometry":{"type":"Polygon","coordinates":[[[-35.98836069805719,-8.904024514920447],[-35.9591673468108,-8.96356870906114],[-35.95632380444579,-8.966269233244017],[-35.961078329790595,-8.995476783664099],[-35.9587964748449,-9.005005115769016],[-35.954548652865995,-9.03104677124432],[-35.91572735425599,-9.04244439352135],[-35.912623539179094,-9.042219820644249],[-35.86051337778869,-9.05349027515173],[-35.83456667251319,-8.98428904552771],[-35.8269523487393,-8.870094249859179],[-35.911422038936294,-8.861289290376199],[-35.98836069805719,-8.904024514920447]]]},"properties":{"ID":33,"CD_GEOCODM":"2703007","NM_MUNICIP":"IBATEGUARA"}},
{"type":"Feature","geometry":{"type":"Polygon","coordinates":[[[-36.551690443506104,-9.50843528273241],[-36.61424692826459,-9.4828280128013],[-36.7089492053653,-9.48510119162269],[-36.7936612905965,-9.485465820563928],[-36.83297347871239,-9.506766883108376],[-36.8370597906478,-9.53191596696902],[-36.83145091340339,-9.551934565470667],[-36.78555597553439,-9.55021927428293],[-36.68054607822489,-9.602447254443689],[-36.6898881688429,-9.634558330349638],[-36.60947136587809,-9.654222258808797],[-36.624661839163096,-9.59582950723534],[-36.5738861884367,-9.56540298713313],[-36.53205880609549,-9.53209018897999],[-36.551515710818194,-9.508647087532399],[-36.551690443506104,-9.50843528273241]]]},"properties":{"ID":34,"CD_GEOCODM":"2703106","NM_MUNICIP":"IGACI"}},
{"type":"Feature","geometry":{"type":"Polygon","coordinates":[[[-36.67011566299469,-10.069458311256398],[-36.68361091485559,-10.1259155049007],[-36.7342214938367,-10.1573282125499],[-36.7339463673371,-10.1576742591933],[-36.7338541619126,-10.1577725092578],[-36.73311599966149,-10.158741565859597],[-36.720394366265,-10.2649442918222],[-36.63097326367949,-10.2540077935741],[-36.598342149630085,-10.1961043503951],[-36.5977055259941,-10.196313692593097],[-36.593566801355294,-10.1929013917017],[-36.5933960263218,-10.1927998681442],[-36.511338919800394,-10.148596697696998],[-36.49506522759049,-10.082133046506897],[-36.49136132802019,-10.071094237842399],[-36.51721617431109,-10.040519374432797],[-36.657785802848,-10.0342146970868],[-36.6700299686016,-10.068429032657498],[-36.6699097254553,-10.068796991796098],[-36.67011566299469,-10.069458311256398]]]},"properties":{"ID":35,"CD_GEOCODM":"2703205","NM_MUNICIP":"IGREJA NOVA"}},
{"type":"Feature","geometry":{"type":"Polygon","coordinates":[[[-37.69245270232909,-9.176793448586007],[-37.8423129926054,-9.222453888220098],[-37.77097558160129,-9.293012280321847],[-37.728235731699996,-9.333911494708659],[-37.6563145802546,-9.408398773768898],[-37.654948565282794,-9.408846215093046],[-37.5859422338108,-9.29605245418578],[-37.587792301465,-9.28882637109239],[-37.6218743705833,-9.19434067343892],[-37.69245270232909,-9.176793448586007]]]},"properties":{"ID":36,"CD_GEOCODM":"2703304","NM_MUNICIP":"INHAPI"}},
{"type":"Feature","geometry":{"type":"Polygon","coordinates":[[[-37.23967149081369,-9.73683682308804],[-37.21944853730359,-9.709827010850937],[-37.190976046605,-9.69039124335255],[-37.1634526508373,-9.60800787632072],[-37.25536092888639,-9.581324580599858],[-37.246000423032896,-9.59614139987006],[-37.24535788058179,-9.597158485433788],[-37.24440012387049,-9.598674526160409],[-37.24434260381989,-9.59876557510664],[-37.30305739871889,-9.636027708536659],[-37.2883987397142,-9.686550895162501],[-37.23967149081369,-9.73683682308804]]]},"properties":{"ID":37,"CD_GEOCODM":"2703403","NM_MUNICIP":"JACARÉ DOS HOMENS"}},
{"type":"Feature","geometry":{"type":"Polygon","coordinates":[[[-35.35075466039969,-8.86071291985493],[-35.539816829330604,-8.821081779771959],[-35.536346626681194,-8.888712720604168],[-35.491659154467,-8.941028223987079],[-35.4527361747985,-8.960781933084359],[-35.421880466656404,-8.92068953240485],[-35.366396050149504,-8.943391989763978],[-35.35075466039969,-8.86071291985493]]]},"properties":{"ID":38,"CD_GEOCODM":"2703502","NM_MUNICIP":"JACUÍPE"}},
{"type":"Feature","geometry":{"type":"Polygon","coordinates":[[[-35.29506982975059,-9.155717707602047],[-35.2405705812798,-9.064719747904608],[-35.24253862777279,-9.066511585226369],[-35.24260666684329,-9.066583569033249],[-35.278207608810405,-9.046680844764321],[-35.283343290955585,-9.03922546800753],[-35.28342657455529,-9.039104566714197],[-35.2871535178506,-9.033694230631838],[-35.3029930452159,-9.028467929054088],[-35.33626750015979,-9.08364346298568],[-35.31224838036309,-9.147013503764107],[-35.29506982975059,-9.155717707602047]]]},"properties":{"ID":39,"CD_GEOCODM":"2703601","NM_MUNICIP":"JAPARATINGA"}},
{"type":"Feature","geometry":{"type":"Polygon","coordinates":[[[-36.993481984837686,-9.720735541128398],[-36.9694981620606,-9.694135601260907],[-36.937975741775205,-9.625703202246747],[-36.9029156345394,-9.625965793403509],[-36.8881716982677,-9.599407397348308],[-37.001432934828,-9.63013487682139],[-37.0019583089575,-9.630277409458948],[-37.052079124234496,-9.61976192830986],[-37.031711039006,-9.68841757607057],[-37.0004470049731,-9.71486767601531],[-36.993481984837686,-9.720735541128398]]]},"properties":{"ID":40,"CD_GEOCODM":"2703700","NM_MUNICIP":"JARAMATAIA"}},
{"type":"Feature","geometry":{"type":"Polygon","coordinates":[[[-36.1872409130461,-9.79498152255049],[-36.277305765021595,-9.899433208149919],[-36.2811039022684,-9.935052375977786],[-36.12381740535719,-9.933842414821079],[-36.02863145490289,-10.048153628216397],[-35.9623137786984,-9.941257909965529],[-36.02124410788919,-9.92033134377779],[-36.0413426042787,-9.858212389502548],[-36.13866220172919,-9.84593275858223],[-36.140262607002896,-9.848650478010779],[-36.1872409130461,-9.79498152255049]]]},"properties":{"ID":41,"CD_GEOCODM":"2703759","NM_MUNICIP":"JEQUIÁ DA PRAIA"}},
{"type":"Feature","geometry":{"type":"Polygon","coordinates":[[[-35.768876678903,-9.146275717180277],[-35.7606920203185,-9.14174369387139],[-35.754728509858495,-9.13935045953388],[-35.7523348064793,-9.13873108322359],[-35.7521960083823,-9.138695168893538],[-35.7514194289097,-9.1384942271509],[-35.748563673302996,-9.137315646404087],[-35.740010274434496,-9.1339850153513],[-35.702795355784204,-9.11031498449842],[-35.696362372157694,-9.108226980067041],[-35.70927813279499,-9.049394330078599],[-35.682666440430694,-9.029313319260961],[-35.74406171268859,-9.012935772524457],[-35.83456667251319,-8.98428904552771],[-35.86051337778869,-9.05349027515173],[-35.880944808843,-9.114789637826739],[-35.88347426519749,-9.1225863387896],[-35.8885731643453,-9.13830826674851],[-35.768876678903,-9.146275717180277]]]},"properties":{"ID":42,"CD_GEOCODM":"2703809","NM_MUNICIP":"JOAQUIM GOMES"}},
{"type":"Feature","geometry":{"type":"Polygon","coordinates":[[[-35.491659154467,-8.941028223987079],[-35.579141431095096,-8.911646749753348],[-35.56306182659249,-8.996205362067919],[-35.56123215539979,-8.998337379707667],[-35.56157296707029,-9.01086222044119],[-35.521423168090095,-9.00946307767164],[-35.4527361747985,-8.960781933084359],[-35.491659154467,-8.941028223987079]]]},"properties":{"ID":43,"CD_GEOCODM":"2703908","NM_MUNICIP":"JUNDIÁ"}},
{"type":"Feature","geometry":{"type":"Polygon","coordinates":[[[-36.39399585708449,-9.77407571414998],[-36.4692223962539,-9.804411600263528],[-36.52675385702409,-9.80459982978677],[-36.554906722117295,-9.839015587661109],[-36.5549050303966,-9.839283122008649],[-36.49655195700301,-9.86695681525321],[-36.4795573269857,-9.96140640278491],[-36.450912741656,-9.961179621119499],[-36.3988286365492,-9.888080486282028],[-36.353863904181495,-9.88070890449011],[-36.34875053517739,-9.88146313935453],[-36.31300041953779,-9.886931299332737],[-36.39399585708449,-9.77407571414998]]]},"properties":{"ID":44,"CD_GEOCODM":"2704005","NM_MUNICIP":"JUNQUEIRO"}},
{"type":"Feature","geometry":{"type":"Polygon","coordinates":[[[-36.69083036646809,-9.804108674827948],[-36.7169216576695,-9.764463282501577],[-36.7212760217397,-9.757844231740208],[-36.755861737896595,-9.70526194971427],[-36.7761773388752,-9.728814353221598],[-36.7518008597892,-9.883102144676798],[-36.69083036646809,-9.804108674827948]]]},"properties":{"ID":45,"CD_GEOCODM":"2704104","NM_MUNICIP":"LAGOA DA CANOA"}},
{"type":"Feature","geometry":{"type":"Polygon","coordinates":[[[-36.388330724597694,-9.651681999121589],[-36.51018744685629,-9.692286682532878],[-36.5361052537054,-9.663075209267507],[-36.57702543813089,-9.69331776667142],[-36.57729862785909,-9.69439251271831],[-36.57750002077519,-9.695184805466027],[-36.57779185037509,-9.695498704040396],[-36.58350256549599,-9.700320235232308],[-36.58246939017279,-9.700069915232067],[-36.58120713876879,-9.70072561679363],[-36.572976807156394,-9.74951638175449],[-36.5656104822457,-9.759098412677417],[-36.55691721060059,-9.766201261370458],[-36.5571815280297,-9.76683692026159],[-36.554906722117295,-9.839015587661109],[-36.52675385702409,-9.80459982978677],[-36.4692223962539,-9.804411600263528],[-36.39399585708449,-9.77407571414998],[-36.3861791731878,-9.77028010831032],[-36.342715698373894,-9.738552790935369],[-36.388330724597694,-9.651681999121589]]]},"properties":{"ID":46,"CD_GEOCODM":"2704203","NM_MUNICIP":"LIMOEIRO DE ANADIA"}},
{"type":"Feature","geometry":{"type":"Polygon","coordinates":[[[-35.664214154805904,-9.430600194324029],[-35.68768605963959,-9.370847082577825],[-35.76960553997509,-9.38959344805562],[-35.79227882712439,-9.524069478277738],[-35.7925769816074,-9.52459119260444],[-35.7928608255383,-9.525087866153687],[-35.79384783613919,-9.526814949261539],[-35.794108888835794,-9.527271742432859],[-35.79417638994809,-9.52738985669696],[-35.796514065003194,-9.531480348830968],[-35.796877206625496,-9.532559477226389],[-35.79701986194229,-9.532983398346008],[-35.7973390004712,-9.533931765119018],[-35.797434028723,-9.53421415545536],[-35.80525982223389,-9.55746964442902],[-35.80978982740859,-9.568879673065648],[-35.81585564499649,-9.577096501049098],[-35.8140442215298,-9.580326065867329],[-35.8134002784317,-9.580739074562619],[-35.808933723716194,-9.583695069282957],[-35.8091613678904,-9.58489539625274],[-35.8073235093826,-9.585917279906969],[-35.8057974003646,-9.586645003658269],[-35.8049690362062,-9.586795070671098],[-35.80338023420639,-9.58733585938197],[-35.8018913063562,-9.592584900779489],[-35.76940514350258,-9.638962522532552],[-35.796433584326195,-9.711361643050388],[-35.794505416275896,-9.71313955913664],[-35.70691090776279,-9.664552284535059],[-35.65026820417603,-9.567933090241809],[-35.55852700649679,-9.48745127319593],[-35.5769350400807,-9.47291482260016],[-35.664214154805904,-9.430600194324029]]]},"properties":{"ID":47,"CD_GEOCODM":"2704302","NM_MUNICIP":"MACEIÓ"}},
{"type":"Feature","geometry":{"type":"Polygon","coordinates":[[[-37.1031999415182,-9.45633051560592],[-37.12081061115519,-9.538938722994658],[-37.15978415000329,-9.602303338417709],[-37.052079124234496,-9.61976192830986],[-37.0019583089575,-9.630277409458948],[-37.001432934828,-9.63013487682139],[-36.8881716982677,-9.599407397348308],[-36.83145091340339,-9.551934565470667],[-36.8370597906478,-9.53191596696902],[-36.9036985235541,-9.524344063268249],[-36.980636312919785,-9.48684815910093],[-37.0170959767937,-9.429509152148377],[-37.03021886111149,-9.392338240172379],[-37.1031999415182,-9.45633051560592]]]},"properties":{"ID":48,"CD_GEOCODM":"2704401","NM_MUNICIP":"MAJOR ISIDORO"}},
{"type":"Feature","geometry":{"type":"Polygon","coordinates":[[[-35.35075466039969,-8.86071291985493],[-35.366396050149504,-8.943391989763978],[-35.3029930452159,-9.028467929054088],[-35.2871535178506,-9.033694230631838],[-35.28342657455529,-9.039104566714197],[-35.283343290955585,-9.03922546800753],[-35.278207608810405,-9.046680844764321],[-35.24260666684329,-9.066583569033249],[-35.24253862777279,-9.066511585226369],[-35.2405705812798,-9.064719747904608],[-35.15195045146049,-8.916386270429207],[-35.171239081553296,-8.8905616118581],[-35.25278676836349,-8.887235278034698],[-35.35075466039969,-8.86071291985493]]]},"properties":{"ID":49,"CD_GEOCODM":"2704500","NM_MUNICIP":"MARAGOGI"}},
{"type":"Feature","geometry":{"type":"Polygon","coordinates":[[[-37.4088945765555,-9.20234221717989],[-37.466032203645796,-9.208241063876738],[-37.587792301465,-9.28882637109239],[-37.5859422338108,-9.29605245418578],[-37.577937612860794,-9.2970034984783],[-37.38876071088369,-9.320533313645218],[-37.34571496184199,-9.26747757541331],[-37.34536215377008,-9.267351452410146],[-37.297059378982894,-9.250025385331469],[-37.2287838574815,-9.22553601815973],[-37.262400091635996,-9.160017886702018],[-37.3044622864398,-9.190112007513907],[-37.353344343975195,-9.1958387730141],[-37.4088945765555,-9.20234221717989]]]},"properties":{"ID":50,"CD_GEOCODM":"2704609","NM_MUNICIP":"MARAVILHA"}},
{"type":"Feature","geometry":{"type":"Polygon","coordinates":[[[-35.8682092355499,-9.62549420483774],[-35.8882397501978,-9.647906342746428],[-36.02432211739139,-9.646421445257129],[-36.029829639757395,-9.671297113148377],[-35.99266172720749,-9.693580203616037],[-36.0045628895307,-9.767097407584629],[-35.90558919903289,-9.81188670736335],[-35.8624954581762,-9.791679339161398],[-35.85504738722149,-9.788186634924237],[-35.794505416275896,-9.71313955913664],[-35.796433584326195,-9.711361643050388],[-35.7911627078378,-9.68057988635374],[-35.86765697991659,-9.626591978019498],[-35.8682092355499,-9.62549420483774]]]},"properties":{"ID":51,"CD_GEOCODM":"2704708","NM_MUNICIP":"MARECHAL DEODORO"}},
{"type":"Feature","geometry":{"type":"Polygon","coordinates":[[[-36.216988559512004,-9.474031361678588],[-36.240794513165596,-9.51029662188601],[-36.339880962228904,-9.511671612921209],[-36.3864914553604,-9.509624470622036],[-36.35081208418539,-9.592367420632858],[-36.2539094434013,-9.623889344177961],[-36.19157164820719,-9.599854580484887],[-36.21866372896319,-9.564115220187727],[-36.216988559512004,-9.474031361678588]]]},"properties":{"ID":52,"CD_GEOCODM":"2704807","NM_MUNICIP":"MARIBONDO"}},
{"type":"Feature","geometry":{"type":"Polygon","coordinates":[[[-36.339880962228904,-9.511671612921209],[-36.33941546503429,-9.464575097881237],[-36.3893630754816,-9.42537862450883],[-36.4607672143635,-9.452871427791099],[-36.4684155364954,-9.485518824576527],[-36.3864914553604,-9.509624470622036],[-36.339880962228904,-9.511671612921209]]]},"properties":{"ID":53,"CD_GEOCODM":"2704906","NM_MUNICIP":"MAR VERMELHO"}},
{"type":"Feature","geometry":{"type":"Polygon","coordinates":[[[-37.53010063356349,-8.963069653751798],[-37.583608596473994,-8.97016677360956],[-37.6438845624554,-9.01834326395074],[-37.7616039535457,-8.85622702627266],[-37.82035930531089,-8.908703779645908],[-37.853093685592796,-9.000139645569138],[-37.9543041135979,-9.10952492973227],[-37.8423129926054,-9.222453888220098],[-37.69245270232909,-9.176793448586007],[-37.585732051289895,-9.059237897887627],[-37.57380793206809,-9.042989830187011],[-37.5427264682492,-9.00064903910295],[-37.53010063356349,-8.963069653751798]]]},"properties":{"ID":54,"CD_GEOCODM":"2705002","NM_MUNICIP":"MATA GRANDE"}},
{"type":"Feature","geometry":{"type":"Polygon","coordinates":[[[-35.5549815205531,-9.191293015730547],[-35.475780490568596,-9.19059355505529],[-35.500826072151895,-9.08110869761768],[-35.56205319293339,-9.062525924647307],[-35.682666440430694,-9.029313319260961],[-35.70927813279499,-9.049394330078599],[-35.68665114860269,-9.099666103064237],[-35.62918288503499,-9.092213306970407],[-35.5549815205531,-9.191293015730547]]]},"properties":{"ID":55,"CD_GEOCODM":"2705101","NM_MUNICIP":"MATRIZ DE CAMARAGIBE"}},
{"type":"Feature","geometry":{"type":"Polygon","coordinates":[[[-35.836350964283,-9.264542465817406],[-35.8300895803354,-9.32268157115179],[-35.87592748659179,-9.413651093319299],[-35.76963058589149,-9.38978788873834],[-35.76960553997509,-9.389593448055649],[-35.76901695104719,-9.309006617549539],[-35.836350964283,-9.264542465817406]]]},"properties":{"ID":56,"CD_GEOCODM":"2705200","NM_MUNICIP":"MESSIAS"}},
{"type":"Feature","geometry":{"type":"Polygon","coordinates":[[[-36.7968326448882,-9.280423176368657],[-36.86747119278739,-9.268531587570017],[-36.913694065267194,-9.296055732215457],[-36.936850463163495,-9.377425066813899],[-36.826536399558094,-9.390959304446767],[-36.802916943247396,-9.368053227925287],[-36.7968326448882,-9.280423176368657]]]},"properties":{"ID":57,"CD_GEOCODM":"2705309","NM_MUNICIP":"MINADOR DO NEGRÃO"}},
{"type":"Feature","geometry":{"type":"Polygon","coordinates":[[[-37.30305739871889,-9.636027708536659],[-37.24434260381989,-9.59876557510664],[-37.24440012387049,-9.598674526160409],[-37.24535788058179,-9.597158485433788],[-37.246000423032896,-9.59614139987006],[-37.25536092888639,-9.581324580599858],[-37.31364823068489,-9.55311728283441],[-37.35599277246949,-9.638592467221319],[-37.30305739871889,-9.636027708536659]]]},"properties":{"ID":58,"CD_GEOCODM":"2705408","NM_MUNICIP":"MONTEIRÓPOLIS"}},
{"type":"Feature","geometry":{"type":"Polygon","coordinates":[[[-35.8885731643453,-9.13830826674851],[-36.0055224711638,-9.267057117422109],[-36.065260636635486,-9.28449720934212],[-36.0143783527767,-9.4009720033627],[-35.9287746329221,-9.374604544683308],[-35.87592748659179,-9.413651093319299],[-35.8300895803354,-9.32268157115179],[-35.836350964283,-9.264542465817406],[-35.8885731643453,-9.13830826674851]]]},"properties":{"ID":59,"CD_GEOCODM":"2705507","NM_MUNICIP":"MURICI"}},
{"type":"Feature","geometry":{"type":"Polygon","coordinates":[[[-35.5701749357424,-8.84279076715993],[-35.65198578047179,-8.88225647645734],[-35.7135724543994,-8.9755003062556],[-35.682666440430694,-9.029313319260961],[-35.56205319293339,-9.062525924647307],[-35.56157296707029,-9.01086222044119],[-35.56123215539979,-8.998337379707667],[-35.56306182659249,-8.996205362067919],[-35.579141431095096,-8.911646749753348],[-35.5701749357424,-8.84279076715993]]]},"properties":{"ID":60,"CD_GEOCODM":"2705606","NM_MUNICIP":"NOVO LINO"}},
{"type":"Feature","geometry":{"type":"Polygon","coordinates":[[[-37.26983878368959,-9.45348839590012],[-37.3730976921382,-9.524782434744868],[-37.31364823068489,-9.55311728283441],[-37.25536092888639,-9.581324580599858],[-37.1634526508373,-9.60800787632072],[-37.15978415000329,-9.602303338417709],[-37.12081061115519,-9.538938722994658],[-37.157555628718285,-9.58278731363081],[-37.26983878368959,-9.45348839590012]]]},"properties":{"ID":61,"CD_GEOCODM":"2705705","NM_MUNICIP":"OLHO D'ÁGUA DAS FLORES"}},
{"type":"Feature","geometry":{"type":"Polygon","coordinates":[[[-37.77097558160129,-9.293012280321847],[-37.876532568104594,-9.412955422451429],[-37.89667813928409,-9.45022106109078],[-37.89414167738029,-9.539527307571287],[-37.8422260470296,-9.57941680228615],[-37.79404625928579,-9.54431308301702],[-37.78628673147759,-9.498473449060828],[-37.783175599191594,-9.493081952793919],[-37.77260474287449,-9.445671240704339],[-37.7230069450264,-9.384251174936686],[-37.728235731699996,-9.333911494708659],[-37.77097558160129,-9.293012280321847]]]},"properties":{"ID":62,"CD_GEOCODM":"2705804","NM_MUNICIP":"OLHO D'ÁGUA DO CASADO"}},
{"type":"Feature","geometry":{"type":"Polygon","coordinates":[[[-36.71372726690919,-10.0432152226637],[-36.84308093397701,-10.0101998645106],[-36.8688870111978,-10.0470968254266],[-36.77004281451269,-10.124099120174897],[-36.735121960638594,-10.081225794941599],[-36.735080104760996,-10.079322451386098],[-36.71372726690919,-10.0432152226637]]]},"properties":{"ID":63,"CD_GEOCODM":"2705903","NM_MUNICIP":"OLHO D'ÁGUA GRANDE"}},
{"type":"Feature","geometry":{"type":"Polygon","coordinates":[[[-37.1488624477026,-9.435970827782619],[-37.26983878368959,-9.45348839590012],[-37.157555628718285,-9.58278731363081],[-37.12081061115519,-9.538938722994658],[-37.1031999415182,-9.45633051560592],[-37.1488624477026,-9.435970827782619]]]},"properties":{"ID":64,"CD_GEOCODM":"2706000","NM_MUNICIP":"OLIVENÇA"}},
{"type":"Feature","geometry":{"type":"Polygon","coordinates":[[[-37.42052373664319,-9.085589782649837],[-37.42178597708259,-9.092347608472238],[-37.422586649436994,-9.158793561881687],[-37.42190796917559,-9.160700572387519],[-37.466032203645796,-9.208241063876738],[-37.4088945765555,-9.20234221717989],[-37.353344343975195,-9.1958387730141],[-37.3044622864398,-9.190112007513907],[-37.262400091635996,-9.160017886702018],[-37.3174532362773,-9.092401821629707],[-37.4008254241718,-9.05218164653072],[-37.42052373664319,-9.085589782649837]]]},"properties":{"ID":65,"CD_GEOCODM":"2706109","NM_MUNICIP":"OURO BRANCO"}},
{"type":"Feature","geometry":{"type":"Polygon","coordinates":[[[-37.332041425480995,-9.669200269613718],[-37.335489177754994,-9.671354894650669],[-37.335565734401,-9.671402737666387],[-37.33705317854789,-9.67128899302027],[-37.34661072635319,-9.670363794959169],[-37.32847338524259,-9.71102460125817],[-37.23967149081369,-9.73683682308804],[-37.2883987397142,-9.686550895162501],[-37.30305739871889,-9.636027708536659],[-37.3178364778026,-9.660323084281249],[-37.332041425480995,-9.669200269613718]]]},"properties":{"ID":66,"CD_GEOCODM":"2706208","NM_MUNICIP":"PALESTINA"}},
{"type":"Feature","geometry":{"type":"Polygon","coordinates":[[[-36.69974748511629,-9.293005800069029],[-36.720414225434396,-9.34847010920953],[-36.7089492053653,-9.48510119162269],[-36.61424692826459,-9.4828280128013],[-36.551690443506104,-9.50843528273241],[-36.551515710818194,-9.508647087532399],[-36.53205880609549,-9.53209018897999],[-36.48821970698789,-9.50223854239098],[-36.4684155364954,-9.485518824576527],[-36.4607672143635,-9.452871427791099],[-36.4856105798371,-9.407148398546777],[-36.4866743406411,-9.4061459521137],[-36.5501900142889,-9.354097741954398],[-36.59321921532609,-9.360849288934599],[-36.62485587578249,-9.3318315089568],[-36.69974748511629,-9.293005800069029]]]},"properties":{"ID":67,"CD_GEOCODM":"2706307","NM_MUNICIP":"PALMEIRA DOS ÍNDIOS"}},
{"type":"Feature","geometry":{"type":"Polygon","coordinates":[[[-37.40937770943249,-9.641162898239969],[-37.4685589864189,-9.649920188310379],[-37.4971185863714,-9.608485157820429],[-37.6170555430635,-9.496566157266749],[-37.672280706853996,-9.53575282090949],[-37.6375856718968,-9.60371980708926],[-37.66032887792889,-9.6772656915991],[-37.5719011487914,-9.73872433662422],[-37.4737040366514,-9.746837615256329],[-37.35462291138789,-9.7890803883427],[-37.29719959340899,-9.827599541746647],[-37.297480956265005,-9.78339783382009],[-37.23967149081369,-9.73683682308804],[-37.32847338524259,-9.71102460125817],[-37.34661072635319,-9.670363794959169],[-37.33705317854789,-9.67128899302027],[-37.335565734401,-9.671402737666387],[-37.335489177754994,-9.671354894650669],[-37.332041425480995,-9.669200269613718],[-37.3178364778026,-9.660323084281249],[-37.30305739871889,-9.636027708536659],[-37.35599277246949,-9.638592467221319],[-37.35977139819039,-9.63382229039859],[-37.40937770943249,-9.641162898239969]]]},"properties":{"ID":68,"CD_GEOCODM":"2706406","NM_MUNICIP":"PÃO DE AÇÚCAR"}},
{"type":"Feature","geometry":{"type":"Polygon","coordinates":[[[-38.011012914903006,-9.15602801252906],[-38.092287331249295,-9.172724978085508],[-38.15636796960449,-9.24938545224284],[-38.127667525454086,-9.26671994794205],[-38.1261452960827,-9.267643867908127],[-38.12527676401119,-9.268171025074508],[-38.12313941636339,-9.26946829222969],[-38.00268409684399,-9.336843626005479],[-37.960843719575294,-9.245583934346449],[-38.011012914903006,-9.15602801252906]]]},"properties":{"ID":69,"CD_GEOCODM":"2706422","NM_MUNICIP":"PARICONHA"}},
{"type":"Feature","geometry":{"type":"Polygon","coordinates":[[[-35.55852700649679,-9.48745127319593],[-35.524504446859396,-9.441939637015757],[-35.5251476313762,-9.44085189563878],[-35.52551535649019,-9.440574042040318],[-35.527526482643296,-9.43682241287187],[-35.52791374150689,-9.43694483590846],[-35.52781291574689,-9.436099809430061],[-35.5282116806637,-9.43590199331857],[-35.5286638747647,-9.435851532235688],[-35.529003226799006,-9.43604333093494],[-35.52859337617819,-9.436673749731767],[-35.528747766631994,-9.43683439925804],[-35.52945869245009,-9.437328834982058],[-35.5295946268229,-9.437066675862049],[-35.5310910964366,-9.43551965160026],[-35.531481476461494,-9.435175117261707],[-35.549625255669795,-9.403590821504299],[-35.67679319026449,-9.398440997910988],[-35.664214154805904,-9.430600194324029],[-35.5769350400807,-9.47291482260016],[-35.55852700649679,-9.48745127319593]]]},"properties":{"ID":70,"CD_GEOCODM":"2706448","NM_MUNICIP":"PARIPUEIRA"}},
{"type":"Feature","geometry":{"type":"Polygon","coordinates":[[[-35.623661800051295,-9.130061740079388],[-35.59471946715139,-9.23274274736422],[-35.51366755374359,-9.30772913229303],[-35.4637636410221,-9.34773121389955],[-35.38679692342819,-9.286249986124439],[-35.46927984698159,-9.217977319711977],[-35.475780490568596,-9.19059355505529],[-35.5549815205531,-9.191293015730547],[-35.623661800051295,-9.130061740079388]]]},"properties":{"ID":71,"CD_GEOCODM":"2706505","NM_MUNICIP":"PASSO DE CAMARAGIBE"}},
{"type":"Feature","geometry":{"type":"Polygon","coordinates":[[[-36.41971546983575,-9.365953713669057],[-36.42903003864819,-9.364965852102529],[-36.4866743406411,-9.4061459521137],[-36.4856105798371,-9.407148398546777],[-36.4607672143635,-9.452871427791024],[-36.39060096982797,-9.42440559579211],[-36.374183558429195,-9.374541145691719],[-36.373055074767095,-9.376764445671977],[-36.37215491516059,-9.377770983226089],[-36.339892071235894,-9.286711996590501],[-36.4196585264977,-9.364995409504598],[-36.41952818605233,-9.364990915006501],[-36.4186011171347,-9.364917864686277],[-36.4196349445337,-9.365954036585322],[-36.41971546983575,-9.365953713669057]]]},"properties":{"ID":72,"CD_GEOCODM":"2706604","NM_MUNICIP":"PAULO JACINTO"}},
{"type":"Feature","geometry":{"type":"Polygon","coordinates":[[[-36.49506522759049,-10.082133046506897],[-36.511338919800394,-10.148596697696998],[-36.5933960263218,-10.1927998681442],[-36.593566801355294,-10.1929013917017],[-36.5977055259941,-10.196313692593097],[-36.598342149630085,-10.1961043503951],[-36.63097326367949,-10.2540077935741],[-36.56587887002169,-10.3294518937435],[-36.56322809382549,-10.4195046789828],[-36.487413645595,-10.422920001409999],[-36.492617113956896,-10.3652302345964],[-36.4916364564812,-10.364623313301298],[-36.392631846105004,-10.309995135488599],[-36.386435872471,-10.2367992475039],[-36.33815195241789,-10.1859159178318],[-36.36204960139919,-10.1215877453614],[-36.45363848954919,-10.0383536569245],[-36.4549519360083,-10.0322699364242],[-36.4796114522467,-10.058564315469198],[-36.49506522759049,-10.082133046506897]]]},"properties":{"ID":73,"CD_GEOCODM":"2706703","NM_MUNICIP":"PENEDO"}},
{"type":"Feature","geometry":{"type":"Polygon","coordinates":[[[-36.392631846105004,-10.309995135488599],[-36.4916364564812,-10.364623313301298],[-36.492617113956896,-10.3652302345964],[-36.487413645595,-10.422920001409999],[-36.43045832309859,-10.425311244204497],[-36.38535770920309,-10.499326351156498],[-36.302241571864485,-10.342639807746398],[-36.392631846105004,-10.309995135488599]]]},"properties":{"ID":74,"CD_GEOCODM":"2706802","NM_MUNICIP":"PIAÇABUÇU"}},
{"type":"Feature","geometry":{"type":"Polygon","coordinates":[[[-36.07508140151289,-9.67373448919172],[-36.029829639757395,-9.671297113148377],[-36.02432211739139,-9.646421445257129],[-35.8882397501978,-9.647906342746428],[-35.8682092355499,-9.62549420483774],[-35.8875747814631,-9.590240307063517],[-35.959740556407,-9.52801040308216],[-36.00041081266659,-9.574397877679907],[-36.1817454586309,-9.61281035483097],[-36.07508140151289,-9.67373448919172]]]},"properties":{"ID":75,"CD_GEOCODM":"2706901","NM_MUNICIP":"PILAR"}},
{"type":"Feature","geometry":{"type":"Polygon","coordinates":[[[-36.339880962228904,-9.511671612921209],[-36.240794513165596,-9.51029662188601],[-36.216988559512004,-9.474031361678588],[-36.20805125161249,-9.455437432526338],[-36.2111238809523,-9.45299792854103],[-36.3019908346937,-9.426130429853718],[-36.33941546503429,-9.464575097881237],[-36.339880962228904,-9.511671612921209]]]},"properties":{"ID":76,"CD_GEOCODM":"2707008","NM_MUNICIP":"PINDOBA"}},
{"type":"Feature","geometry":{"type":"Polygon","coordinates":[[[-37.728235731699996,-9.333911494708659],[-37.7230069450264,-9.384251174936686],[-37.77260474287449,-9.445671240704339],[-37.783175599191594,-9.493081952793919],[-37.78628673147759,-9.498473449060828],[-37.79404625928579,-9.54431308301702],[-37.8422260470296,-9.57941680228615],[-37.7786766394065,-9.63871920832888],[-37.7427206864091,-9.62578138423736],[-37.66032887792889,-9.6772656915991],[-37.6375856718968,-9.60371980708926],[-37.672280706853996,-9.53575282090949],[-37.6657878676444,-9.44040403986357],[-37.65981601139789,-9.422534576946877],[-37.6563145802546,-9.408398773768898],[-37.728235731699996,-9.333911494708659]]]},"properties":{"ID":77,"CD_GEOCODM":"2707107","NM_MUNICIP":"PIRANHAS"}},
{"type":"Feature","geometry":{"type":"Polygon","coordinates":[[[-37.16910263510539,-9.265710216983038],[-37.2287838574815,-9.22553601815973],[-37.297059378982894,-9.250025385331469],[-37.34536215377008,-9.267351452410146],[-37.34571496184199,-9.26747757541331],[-37.38876071088369,-9.320533313645218],[-37.577937612860794,-9.2970034984783],[-37.51888666110469,-9.31024800855089],[-37.4445690868815,-9.357616113446618],[-37.2834798974567,-9.342283327669179],[-37.2826751454771,-9.34192035265039],[-37.16910263510539,-9.265710216983038]]]},"properties":{"ID":78,"CD_GEOCODM":"2707206","NM_MUNICIP":"POÇO DAS TRINCHEIRAS"}},
{"type":"Feature","geometry":{"type":"Polygon","coordinates":[[[-35.366396050149504,-8.943391989763978],[-35.421880466656404,-8.92068953240485],[-35.4527361747985,-8.960781933084359],[-35.521423168090095,-9.00946307767164],[-35.56157296707029,-9.01086222044119],[-35.56205319293339,-9.062525924647307],[-35.500826072151895,-9.08110869761768],[-35.455433480181796,-9.06838711886444],[-35.371972937940996,-9.088838167707078],[-35.31224838036309,-9.147013503764107],[-35.33626750015979,-9.08364346298568],[-35.3029930452159,-9.028467929054088],[-35.366396050149504,-8.943391989763978]]]},"properties":{"ID":79,"CD_GEOCODM":"2707305","NM_MUNICIP":"PORTO CALVO"}},
{"type":"Feature","geometry":{"type":"Polygon","coordinates":[[[-35.31224838036309,-9.147013503764107],[-35.371972937940996,-9.088838167707078],[-35.455433480181796,-9.06838711886444],[-35.500826072151895,-9.08110869761768],[-35.475780490568596,-9.19059355505529],[-35.34251821878179,-9.231196821663467],[-35.29506982975059,-9.155717707602047],[-35.31224838036309,-9.147013503764107]]]},"properties":{"ID":80,"CD_GEOCODM":"2707404","NM_MUNICIP":"PORTO DE PEDRAS"}},
{"type":"Feature","geometry":{"type":"Polygon","coordinates":[[[-36.71372726690919,-10.0432152226637],[-36.735080104760996,-10.079322451386098],[-36.735121960638594,-10.081225794941599],[-36.77004281451269,-10.124099120174897],[-36.7850175767217,-10.132898645920399],[-36.7861246932472,-10.133628924198],[-36.84726473277519,-10.176272725860699],[-36.8143118855527,-10.2188537779384],[-36.747213730953696,-10.230980416132036],[-36.720394366265,-10.2649442918222],[-36.73311599966149,-10.158741565859597],[-36.7338541619126,-10.1577725092578],[-36.7339463673371,-10.1576742591933],[-36.7342214938367,-10.1573282125499],[-36.68361091485559,-10.1259155049007],[-36.67011566299469,-10.069458311256398],[-36.6699097254553,-10.068796991796098],[-36.6700299686016,-10.068429032657498],[-36.657785802848,-10.0342146970868],[-36.646606212962595,-9.986180197071128],[-36.6856876859143,-9.962678450691808],[-36.71372726690919,-10.0432152226637]]]},"properties":{"ID":81,"CD_GEOCODM":"2707503","NM_MUNICIP":"PORTO REAL DO COLÉGIO"}},
{"type":"Feature","geometry":{"type":"Polygon","coordinates":[[[-36.35593272431359,-9.218385970993808],[-36.4318326776752,-9.21213061601011],[-36.49865446008569,-9.264912574997929],[-36.62485587578249,-9.3318315089568],[-36.59321921532609,-9.360849288934599],[-36.5501900142889,-9.354097741954398],[-36.4866743406411,-9.4061459521137],[-36.42903003864819,-9.364965852102529],[-36.41971546983575,-9.365953713669057],[-36.4196349445337,-9.365954036585322],[-36.4186011171347,-9.364917864686277],[-36.41952818605233,-9.364990915006501],[-36.4196585264977,-9.364995409504598],[-36.339892071235894,-9.286711996590501],[-36.32658440730019,-9.284631760028969],[-36.35593272431359,-9.218385970993808]]]},"properties":{"ID":82,"CD_GEOCODM":"2707602","NM_MUNICIP":"QUEBRANGULO"}},
{"type":"Feature","geometry":{"type":"Polygon","coordinates":[[[-35.9287746329221,-9.374604544683308],[-35.93279479597929,-9.479605021671897],[-35.959740556407,-9.52801040308216],[-35.8875747814631,-9.590240307063517],[-35.81019779159439,-9.536738802345209],[-35.80695956464899,-9.53643424095814],[-35.806282841621496,-9.53611332013611],[-35.79417638994809,-9.52738985669696],[-35.794108888835794,-9.527271742432859],[-35.79384783613919,-9.526814949261539],[-35.7928608255383,-9.525087866153687],[-35.7925769816074,-9.52459119260444],[-35.79227882712439,-9.524069478277738],[-35.76963058589149,-9.38978788873834],[-35.87592748659179,-9.413651093319299],[-35.9287746329221,-9.374604544683308]]]},"properties":{"ID":83,"CD_GEOCODM":"2707701","NM_MUNICIP":"RIO LARGO"}},
{"type":"Feature","geometry":{"type":"Polygon","coordinates":[[[-35.902790742891895,-9.87007572342636],[-36.026624832328594,-9.811217406456379],[-36.0413426042787,-9.858212389502548],[-36.02124410788919,-9.92033134377779],[-35.9623137786984,-9.941257909965529],[-35.902790742891895,-9.87007572342636]]]},"properties":{"ID":84,"CD_GEOCODM":"2707800","NM_MUNICIP":"ROTEIRO"}},
{"type":"Feature","geometry":{"type":"Polygon","coordinates":[[[-35.86765697991659,-9.626591978019498],[-35.7936892292843,-9.60025655139913],[-35.8018913063562,-9.592584900779489],[-35.80338023420639,-9.58733585938197],[-35.8049690362062,-9.586795070671098],[-35.8057974003646,-9.586645003658269],[-35.8073235093826,-9.585917279906969],[-35.8091613678904,-9.58489539625274],[-35.808933723716194,-9.583695069282957],[-35.8134002784317,-9.580739074562619],[-35.8140442215298,-9.580326065867329],[-35.81585564499649,-9.577096501049098],[-35.86765697991659,-9.626591978019498]]]},"properties":{"ID":85,"CD_GEOCODM":"2707909","NM_MUNICIP":"SANTA LUZIA DO NORTE"}},
{"type":"Feature","geometry":{"type":"Polygon","coordinates":[[[-37.0575862292318,-9.317540266993039],[-37.0906729321911,-9.246362071859409],[-37.16910263510539,-9.265710216983038],[-37.2826751454771,-9.34192035265039],[-37.2834798974567,-9.342283327669179],[-37.4445690868815,-9.357616113446618],[-37.3318690828539,-9.42410064765425],[-37.26983878368959,-9.45348839590012],[-37.1488624477026,-9.435970827782619],[-37.0575862292318,-9.317540266993039]]]},"properties":{"ID":86,"CD_GEOCODM":"2708006","NM_MUNICIP":"SANTANA DO IPANEMA"}},
{"type":"Feature","geometry":{"type":"Polygon","coordinates":[[[-36.180560935466005,-9.213292015374698],[-36.12855627278559,-9.152993278045791],[-36.1144279847865,-9.05628191297918],[-36.1206626560834,-9.0274465962123],[-36.19850573188309,-9.04667674425102],[-36.28776026021549,-9.173302434689617],[-36.180560935466005,-9.213292015374698]]]},"properties":{"ID":87,"CD_GEOCODM":"2708105","NM_MUNICIP":"SANTANA DO MUNDAÚ"}},
{"type":"Feature","geometry":{"type":"Polygon","coordinates":[[[-36.84726473277519,-10.176272725860699],[-36.7861246932472,-10.133628924198],[-36.7850175767217,-10.132898645920399],[-36.77004281451269,-10.124099120174897],[-36.8688870111978,-10.0470968254266],[-36.95226045635579,-10.074788958738598],[-36.9108938927543,-10.1379432438086],[-36.84726473277519,-10.176272725860699]]]},"properties":{"ID":88,"CD_GEOCODM":"2708204","NM_MUNICIP":"SÃO BRÁS"}},
{"type":"Feature","geometry":{"type":"Polygon","coordinates":[[[-35.98836069805719,-8.904024514920447],[-36.06393863613259,-8.915337515128908],[-36.12825263275779,-8.95771735004885],[-36.1206626560834,-9.0274465962123],[-36.1144279847865,-9.05628191297918],[-36.0469709212837,-9.06508702789895],[-35.954548652865995,-9.03104677124432],[-35.9587964748449,-9.005005115769016],[-35.961078329790595,-8.995476783664099],[-35.95632380444579,-8.966269233244017],[-35.9591673468108,-8.96356870906114],[-35.98836069805719,-8.904024514920447]]]},"properties":{"ID":89,"CD_GEOCODM":"2708303","NM_MUNICIP":"SÃO JOSÉ DA LAJE"}},
{"type":"Feature","geometry":{"type":"Polygon","coordinates":[[[-37.672280706853996,-9.53575282090949],[-37.6170555430635,-9.496566157266749],[-37.4971185863714,-9.608485157820429],[-37.4685589864189,-9.649920188310379],[-37.40937770943249,-9.641162898239969],[-37.35977139819039,-9.63382229039859],[-37.35599277246949,-9.638592467221319],[-37.31364823068489,-9.55311728283441],[-37.3730976921382,-9.524782434744868],[-37.445338334419006,-9.476627735069297],[-37.4602085468465,-9.471967674919167],[-37.46027210287659,-9.471947757589518],[-37.654948565282794,-9.408846215093046],[-37.6563145802546,-9.408398773768898],[-37.65981601139789,-9.422534576946877],[-37.6657878676444,-9.44040403986357],[-37.672280706853996,-9.53575282090949]]]},"properties":{"ID":90,"CD_GEOCODM":"2708402","NM_MUNICIP":"SÃO JOSÉ DA TAPERA"}},
{"type":"Feature","geometry":{"type":"Polygon","coordinates":[[[-35.696362372157694,-9.108226980067041],[-35.702795355784204,-9.11031498449842],[-35.72493904909609,-9.12534622808717],[-35.693319706587886,-9.26025692530089],[-35.68647888003329,-9.370716055221838],[-35.5141849482801,-9.346832846457879],[-35.51366755374359,-9.30772913229303],[-35.59471946715139,-9.23274274736422],[-35.623661800051295,-9.130061740079388],[-35.696362372157694,-9.108226980067041]]]},"properties":{"ID":91,"CD_GEOCODM":"2708501","NM_MUNICIP":"SÃO LUÍS DO QUITUNDE"}},
{"type":"Feature","geometry":{"type":"Polygon","coordinates":[[[-36.07508140151289,-9.67373448919172],[-36.0787135220872,-9.69440003562196],[-36.2466027936692,-9.732447089946739],[-36.1872409130461,-9.79498152255049],[-36.140262607002896,-9.848650478010779],[-36.13866220172919,-9.84593275858223],[-36.0413426042787,-9.858212389502548],[-36.026624832328594,-9.811217406456379],[-36.0045628895307,-9.767097407584629],[-35.99266172720749,-9.693580203616037],[-36.029829639757395,-9.671297113148377],[-36.07508140151289,-9.67373448919172]]]},"properties":{"ID":92,"CD_GEOCODM":"2708600","NM_MUNICIP":"SÃO MIGUEL DOS CAMPOS"}},
{"type":"Feature","geometry":{"type":"Polygon","coordinates":[[[-35.34251821878179,-9.231196821663467],[-35.475780490568596,-9.19059355505529],[-35.46927984698159,-9.217977319711977],[-35.38679692342819,-9.286249986124439],[-35.34251821878179,-9.231196821663467]]]},"properties":{"ID":93,"CD_GEOCODM":"2708709","NM_MUNICIP":"SÃO MIGUEL DOS MILAGRES"}},
{"type":"Feature","geometry":{"type":"Polygon","coordinates":[[[-36.5538350078066,-9.856364713373189],[-36.541955494208,-9.871596453885488],[-36.54188917754129,-9.87904632936704],[-36.54184376809269,-9.87954018443828],[-36.54178544819369,-9.88017444842411],[-36.5415996145707,-9.881409139613819],[-36.5415400613484,-9.881804815260377],[-36.5438618992782,-9.88051780628916],[-36.54491595671179,-9.88018061411265],[-36.559026078578995,-9.8748635055363],[-36.5632079224621,-9.874284322467119],[-36.573701128271395,-9.87747630072105],[-36.5753452896617,-9.87826975007377],[-36.59138560931079,-9.873172552779028],[-36.591193724840295,-9.87182679974341],[-36.591150049235694,-9.87152048742244],[-36.6135268107282,-9.951076619397028],[-36.646606212962595,-9.986180197071128],[-36.657785802848,-10.0342146970868],[-36.51721617431109,-10.040519374432797],[-36.49136132802019,-10.071094237842399],[-36.4796114522467,-10.058564315469198],[-36.4549519360083,-10.0322699364242],[-36.4795573269857,-9.96140640278491],[-36.49655195700301,-9.86695681525321],[-36.5549050303966,-9.839283122008649],[-36.554881024406896,-9.84225777995956],[-36.5538350078066,-9.856364713373189]]]},"properties":{"ID":94,"CD_GEOCODM":"2708808","NM_MUNICIP":"SÃO SEBASTIÃO"}},
{"type":"Feature","geometry":{"type":"Polygon","coordinates":[[[-35.796514065003194,-9.531480348830968],[-35.806282841621496,-9.53611332013611],[-35.80695956464899,-9.53643424095814],[-35.81019779159439,-9.536738802345209],[-35.8875747814631,-9.590240307063517],[-35.8682092355499,-9.62549420483774],[-35.86765697991659,-9.626591978019498],[-35.81585564499649,-9.577096501049098],[-35.80978982740859,-9.568879673065648],[-35.80525982223389,-9.55746964442902],[-35.797434028723,-9.53421415545536],[-35.7973390004712,-9.533931765119018],[-35.79701986194229,-9.532983398346008],[-35.796877206625496,-9.532559477226389],[-35.796514065003194,-9.531480348830968]]]},"properties":{"ID":95,"CD_GEOCODM":"2708907","NM_MUNICIP":"SATUBA"}},
{"type":"Feature","geometry":{"type":"Polygon","coordinates":[[[-37.5859422338108,-9.29605245418578],[-37.654948565282794,-9.408846215093046],[-37.46027210287659,-9.471947757589518],[-37.4602085468465,-9.471967674919167],[-37.445338334419006,-9.476627735069297],[-37.446257909238696,-9.471894586594328],[-37.3318690828539,-9.42410064765425],[-37.4445690868815,-9.357616113446618],[-37.51888666110469,-9.31024800855089],[-37.577937612860794,-9.2970034984783],[-37.5859422338108,-9.29605245418578]]]},"properties":{"ID":96,"CD_GEOCODM":"2708956","NM_MUNICIP":"SENADOR RUI PALMEIRA"}},
{"type":"Feature","geometry":{"type":"Polygon","coordinates":[[[-36.35081208418539,-9.592367420632858],[-36.3864914553604,-9.509624470622036],[-36.4684155364954,-9.485518824576527],[-36.48821970698789,-9.50223854239098],[-36.47372303815149,-9.60261936774694],[-36.44796982941669,-9.60681473629516],[-36.44635545102949,-9.60543720011717],[-36.394164739849586,-9.64836759790083],[-36.35081208418539,-9.592367420632858]]]},"properties":{"ID":97,"CD_GEOCODM":"2709004","NM_MUNICIP":"TANQUE D'ARCA"}},
{"type":"Feature","geometry":{"type":"Polygon","coordinates":[[[-36.5738861884367,-9.56540298713313],[-36.5361052537054,-9.663075209267507],[-36.51018744685629,-9.692286682532878],[-36.388330724597694,-9.651681999121589],[-36.394164739849586,-9.64836759790083],[-36.44635545102949,-9.60543720011717],[-36.44796982941669,-9.60681473629516],[-36.47372303815149,-9.60261936774694],[-36.53205880609549,-9.53209018897999],[-36.5738861884367,-9.56540298713313]]]},"properties":{"ID":98,"CD_GEOCODM":"2709103","NM_MUNICIP":"TAQUARANA"}},
{"type":"Feature","geometry":{"type":"Polygon","coordinates":[[[-36.353863904181495,-9.88070890449011],[-36.3988286365492,-9.888080486282028],[-36.450912741656,-9.961179621119499],[-36.4795573269857,-9.96140640278491],[-36.4549519360083,-10.0322699364242],[-36.45363848954919,-10.0383536569245],[-36.30428129299399,-10.031134508048098],[-36.2811039022684,-9.935052375977786],[-36.277305765021595,-9.899433208149919],[-36.31300041953779,-9.886931299332737],[-36.34875053517739,-9.88146313935453],[-36.353863904181495,-9.88070890449011]]]},"properties":{"ID":99,"CD_GEOCODM":"2709152","NM_MUNICIP":"TEOTÔNIO VILELA"}},
{"type":"Feature","geometry":{"type":"Polygon","coordinates":[[[-36.993481984837686,-9.720735541128398],[-37.0371962150747,-9.805621713973458],[-37.036923362410505,-9.807275249117879],[-37.0377067225797,-9.808249728697248],[-37.0413356287539,-9.808833386464979],[-37.099198048368194,-9.846135266043898],[-37.10383682630069,-9.849125316965939],[-37.105061207755895,-9.850148847760938],[-37.132645401858994,-9.9138002883352],[-37.05676905167549,-9.982465343568588],[-36.96395836095769,-9.99747769825154],[-36.95226045635579,-10.074788958738598],[-36.8688870111978,-10.0470968254266],[-36.84308093397701,-10.0101998645106],[-36.798406285412,-9.9589536565192],[-36.7984245730207,-9.958954360045638],[-36.80039144199209,-9.95903002572447],[-36.849992653117795,-9.928870382464797],[-36.8811942384645,-9.90286326331493],[-36.9229779814319,-9.8819957943081],[-36.901866876000895,-9.77109069919511],[-36.901862635434995,-9.77098328860555],[-36.9006367721303,-9.739933022536917],[-36.9694981620606,-9.694135601260907],[-36.993481984837686,-9.720735541128398]]]},"properties":{"ID":100,"CD_GEOCODM":"2709202","NM_MUNICIP":"TRAIPU"}},
{"type":"Feature","geometry":{"type":"Polygon","coordinates":[[[-35.954548652865995,-9.03104677124432],[-36.0469709212837,-9.06508702789895],[-36.1144279847865,-9.05628191297918],[-36.12855627278559,-9.152993278045791],[-36.180560935466005,-9.213292015374698],[-36.058610061079705,-9.21544952486282],[-35.8885731643453,-9.13830826674851],[-35.88347426519749,-9.1225863387896],[-35.880944808843,-9.114789637826739],[-35.86051337778869,-9.05349027515173],[-35.912623539179094,-9.042219820644249],[-35.91572735425599,-9.04244439352135],[-35.954548652865995,-9.03104677124432]]]},"properties":{"ID":101,"CD_GEOCODM":"2709301","NM_MUNICIP":"UNIÃO DOS PALMARES"}},
{"type":"Feature","geometry":{"type":"Polygon","coordinates":[[[-36.2111238809523,-9.45299792854103],[-36.17852426400739,-9.358284695081359],[-36.1819096248385,-9.308998169666648],[-36.180560935466005,-9.213292015374698],[-36.23677505967849,-9.29130850919777],[-36.299326914369004,-9.312392263828468],[-36.32658440730019,-9.284631760028969],[-36.339892071235894,-9.286711996590501],[-36.37215491516059,-9.377770983226089],[-36.373055074767095,-9.376764445671977],[-36.374183558429195,-9.374541145691719],[-36.3893630754816,-9.42537862450883],[-36.33941546503429,-9.464575097881237],[-36.3019908346937,-9.426130429853718],[-36.2111238809523,-9.45299792854103]]]},"properties":{"ID":102,"CD_GEOCODM":"2709400","NM_MUNICIP":"VIÇOSA"}}
]}